Nr,TID,PID,x [nm],y [nm],t [sec],I [val],Len [nm],D2S [nm],D2R [nm],D2P [nm],v [nm/sec],α [deg],Δα [deg]
1,1,1,49187.7,26550.78,0,261,0,0,NA,NA,NA,NA,NA
2,1,2,50139.72,26973.9,6,364,1041.812,1041.812,NA,1041.812,173.635,23.962,NA
3,1,3,50880.18,27397.02,12,281,1894.638,1892.25,NA,852.826,142.138,29.745,5.782
4,1,4,51091.74,27502.8,18,194,2131.169,2128.781,NA,236.531,39.422,26.565,-3.18
5,1,5,51091.74,27502.8,24,184,2131.169,2128.781,NA,0,0,0,-26.565
6,1,6,51091.74,27502.8,30,205,2131.169,2128.781,NA,0,0,0,0
7,1,7,51197.52,27502.8,36,302,2236.949,2223.897,NA,105.78,17.63,0,0
8,1,8,51091.74,27925.92,42,236,2673.091,2348.697,NA,436.142,72.69,104.036,104.036
9,1,9,51091.74,28031.7,48,270,2778.871,2412.155,NA,105.78,17.63,90,-14.036
10,1,10,50985.96,27925.92,54,320,2928.467,2263.791,NA,149.596,24.933,-135,135
11,1,11,50985.96,27925.92,59,315,2928.467,2263.791,NA,0,0,0,135
12,2,1,40619.52,16290.12,0,251,0,0,NA,NA,NA,NA,NA
13,2,2,40619.52,16395.9,6,251,105.78,105.78,NA,105.78,17.63,90,NA
14,2,3,40619.52,16290.12,12,196,211.56,0,NA,105.78,17.63,-90,-180
15,2,4,40619.52,16290.12,18,192,211.56,0,NA,0,0,0,90
16,2,5,40619.52,16501.68,24,179,423.12,211.56,NA,211.56,35.26,90,90
17,2,6,39984.84,16501.68,30,255,1057.8,669.011,NA,634.68,105.78,180,90
18,2,7,39561.72,16607.46,36,290,1493.942,1104.376,NA,436.142,72.69,165.964,-14.036
19,2,8,39350.16,16501.68,42,242,1730.473,1286.869,NA,236.531,39.422,-153.435,40.601
20,2,9,39350.16,16713.24,48,184,1942.033,1338.023,NA,211.56,35.26,90,-116.565
21,2,10,38927.04,16607.46,54,209,2378.175,1721.974,NA,436.142,72.69,-165.964,104.036
22,2,11,38503.92,16713.24,59,269,2814.318,2157.497,NA,436.142,87.228,165.964,-28.072
23,3,1,57755.88,13962.96,0,292,0,0,NA,NA,NA,NA,NA
24,3,2,59131.02,14703.42,6,382,1561.823,1561.823,NA,1561.823,260.304,28.301,NA
25,3,3,59131.02,14703.42,12,393,1561.823,1561.823,NA,0,0,0,-28.301
26,3,4,59131.02,14703.42,18,352,1561.823,1561.823,NA,0,0,0,0
27,3,5,58919.46,14914.98,24,351,1861.014,1503.416,NA,299.191,49.865,135,135
28,3,6,58919.46,14914.98,30,378,1861.014,1503.416,NA,0,0,0,-135
29,3,7,58919.46,15020.76,36,349,1966.794,1572.533,NA,105.78,17.63,90,90
30,3,8,58919.46,14914.98,42,347,2072.574,1503.416,NA,105.78,17.63,-90,-180
31,3,9,59236.8,15126.54,48,339,2453.969,1883.359,NA,381.395,63.566,33.69,123.69
32,3,10,59659.92,15443.88,54,324,2982.869,2412.155,NA,528.9,88.15,36.87,3.18
33,3,11,59765.7,15549.66,59,337,3132.465,2560.663,NA,149.596,29.919,45,8.13
34,4,1,61881.3,13962.96,0,230,0,0,NA,NA,NA,NA,NA
35,4,2,61881.3,13857.18,6,237,105.78,105.78,NA,105.78,17.63,-90,NA
36,4,3,61775.52,14068.74,12,186,342.311,149.596,NA,236.531,39.422,116.565,-153.435
37,4,4,62092.86,13751.4,18,231,791.098,299.191,NA,448.787,74.798,-45,-161.565
38,4,5,62621.76,13857.18,24,351,1330.472,747.978,NA,539.374,89.896,11.31,56.31
39,4,6,62621.76,13751.4,30,343,1436.252,770.09,NA,105.78,17.63,-90,-101.31
40,4,7,62515.98,13751.4,36,334,1542.032,669.011,NA,105.78,17.63,180,-90
41,4,8,62515.98,13962.96,42,322,1753.592,634.68,NA,211.56,35.26,90,-90
42,4,9,62515.98,13857.18,48,311,1859.372,643.435,NA,105.78,17.63,-90,-180
43,4,10,62410.2,13751.4,54,281,2008.968,569.643,NA,149.596,24.933,-135,-45
44,4,11,62515.98,13751.4,59,290,2114.748,669.011,NA,105.78,21.156,0,135
45,5,1,62833.32,27820.14,0,371,0,0,NA,NA,NA,NA,NA
46,5,2,62833.32,27925.92,6,360,105.78,105.78,NA,105.78,17.63,90,NA
47,5,3,62727.54,27820.14,12,328,255.376,105.78,NA,149.596,24.933,-135,135
48,5,4,62621.76,27820.14,18,334,361.156,211.56,NA,105.78,17.63,180,-45
49,5,5,62621.76,27820.14,24,327,361.156,211.56,NA,0,0,0,-180
50,5,6,62304.42,28560.6,30,296,1166.752,909.954,NA,805.596,134.266,113.199,113.199
51,5,7,62304.42,28560.6,36,286,1166.752,909.954,NA,0,0,0,-113.199
52,5,8,62304.42,28666.38,42,235,1272.532,997.927,NA,105.78,17.63,90,90
53,5,9,62833.32,29195.28,48,301,2020.51,1375.14,NA,747.978,124.663,45,-45
54,5,10,62833.32,29195.28,54,192,2020.51,1375.14,NA,0,0,0,-45
55,5,11,63044.88,29301.06,59,235,2257.041,1495.955,NA,236.531,47.306,26.565,26.565
56,6,1,50774.4,34484.28,0,294,0,0,NA,NA,NA,NA,NA
57,6,2,51091.74,35118.96,6,417,709.594,709.594,NA,709.594,118.266,63.435,NA
58,6,3,51091.74,35118.96,12,401,709.594,709.594,NA,0,0,0,-63.435
59,6,4,51091.74,35224.74,18,364,815.374,805.596,NA,105.78,17.63,90,90
60,6,5,51726.42,35647.86,24,361,1578.164,1503.416,NA,762.79,127.132,33.69,-56.31
61,6,6,52043.76,36917.22,30,184,2886.591,2744.171,NA,1308.426,218.071,75.964,42.274
62,6,7,52149.54,38080.8,36,178,4054.969,3850.45,NA,1168.378,194.73,84.806,8.842
63,6,8,52043.76,39455.94,42,318,5434.171,5131.148,NA,1379.202,229.867,94.399,9.593
64,6,9,51514.86,39984.84,48,398,6182.149,5550.175,NA,747.978,124.663,135,40.601
65,6,10,51620.64,39984.84,54,385,6287.929,5565.275,NA,105.78,17.63,0,-135
66,6,11,51514.86,40090.62,59,364,6437.524,5655.027,NA,149.596,29.919,135,135
67,7,1,61140.84,40090.62,0,282,0,0,NA,NA,NA,NA,NA
68,7,2,61669.74,39667.5,6,415,677.322,677.322,NA,677.322,112.887,-38.66,NA
69,7,3,61775.52,39561.72,12,324,826.918,826.168,NA,149.596,24.933,-45,-6.34
70,7,4,62515.98,39138.6,18,372,1679.744,1672.529,NA,852.826,142.138,-29.745,15.255
71,7,5,63150.66,38821.26,24,404,2389.337,2377.11,NA,709.594,118.266,-26.565,3.18
72,7,6,63150.66,38715.48,30,204,2495.117,2435.238,NA,105.78,17.63,-90,-63.435
73,7,7,63996.9,38503.92,36,385,3367.402,3267.215,NA,872.284,145.381,-14.036,75.964
74,7,8,63996.9,38398.14,42,382,3473.182,3319.875,NA,105.78,17.63,-90,-75.964
75,7,9,64208.46,38186.58,48,409,3772.373,3610.493,NA,299.191,49.865,-45,45
76,7,10,64102.68,38186.58,54,362,3878.153,3521.06,NA,105.78,17.63,180,-135
77,7,11,64102.68,38186.58,59,323,3878.153,3521.06,NA,0,0,0,-180
78,8,1,37446.12,28983.72,0,397,0,0,NA,NA,NA,NA,NA
79,8,2,37340.34,28877.94,6,389,149.596,149.596,NA,149.596,24.933,-135,NA
80,8,3,37340.34,28983.72,12,381,255.376,105.78,NA,105.78,17.63,90,-135
81,8,4,37234.56,28877.94,18,359,404.971,236.531,NA,149.596,24.933,-135,135
82,8,5,37234.56,28877.94,24,372,404.971,236.531,NA,0,0,0,135
83,8,6,37340.34,28877.94,30,361,510.751,149.596,NA,105.78,17.63,0,0
84,8,7,37340.34,28877.94,36,353,510.751,149.596,NA,0,0,0,0
85,8,8,37234.56,28877.94,42,349,616.531,236.531,NA,105.78,17.63,180,180
86,8,9,37128.78,28877.94,48,343,722.311,334.506,NA,105.78,17.63,180,0
87,8,10,37128.78,28877.94,54,345,722.311,334.506,NA,0,0,0,-180
88,8,11,37234.56,28877.94,59,301,828.091,236.531,NA,105.78,21.156,0,0
89,9,1,19992.42,77642.52,0,366,0,0,NA,NA,NA,NA,NA
90,9,2,19780.86,77854.08,6,245,299.191,299.191,NA,299.191,49.865,135,NA
91,9,3,19780.86,77854.08,12,259,299.191,299.191,NA,0,0,0,-135
92,9,4,20415.54,77113.62,18,341,1274.434,677.322,NA,975.243,162.541,-49.399,-49.399
93,9,5,20309.76,77113.62,24,336,1380.214,616.798,NA,105.78,17.63,180,-130.601
94,9,6,20203.98,77219.4,30,341,1529.81,473.063,NA,149.596,24.933,135,-45
95,9,7,20203.98,77219.4,36,334,1529.81,473.063,NA,0,0,0,-135
96,9,8,20415.54,77113.62,42,323,1766.341,677.322,NA,236.531,39.422,-26.565,-26.565
97,9,9,20415.54,77113.62,48,312,1766.341,677.322,NA,0,0,0,26.565
98,9,10,20838.66,76902.06,54,322,2239.404,1124.457,NA,473.063,78.844,-26.565,-26.565
99,9,11,21579.12,76478.94,59,258,3092.229,1967.622,NA,852.826,170.565,-29.745,-3.18
100,10,1,20627.1,95096.22,0,302,0,0,NA,NA,NA,NA,NA
101,10,2,20627.1,94990.44,6,299,105.78,105.78,NA,105.78,17.63,-90,NA
102,10,3,20627.1,94990.44,12,333,105.78,105.78,NA,0,0,0,90
103,10,4,19675.08,95307.78,18,203,1109.297,975.243,NA,1003.517,167.253,161.565,161.565
104,10,5,19675.08,95625.12,24,253,1426.637,1089.072,NA,317.34,52.89,90,-71.565
105,10,6,19675.08,95519.34,30,253,1532.417,1041.812,NA,105.78,17.63,-90,-180
106,10,7,19675.08,95519.34,36,299,1532.417,1041.812,NA,0,0,0,90
107,10,8,19146.18,95730.9,42,312,2102.06,1611.193,NA,569.643,94.94,158.199,158.199
108,10,9,18511.5,95836.68,48,312,2745.495,2241.438,NA,643.435,107.239,170.538,12.339
109,10,10,17771.04,96048.24,54,216,3515.585,3010.552,NA,770.09,128.348,164.055,-6.483
110,10,11,17665.26,95942.46,59,200,3665.18,3080.36,NA,149.596,29.919,-135,60.945
111,11,1,19992.42,106414.68,0,256,0,0,NA,NA,NA,NA,NA
112,11,2,20098.2,106414.68,6,308,105.78,105.78,NA,105.78,17.63,0,NA
113,11,3,20732.88,105991.56,12,282,868.57,852.826,NA,762.79,127.132,-33.69,-33.69
114,11,4,20944.44,105991.56,18,268,1080.13,1041.812,NA,211.56,35.26,0,33.69
115,11,5,21367.56,106097.34,24,254,1516.273,1411.281,NA,436.142,72.69,14.036,14.036
116,11,6,21579.12,106097.34,30,248,1727.833,1618.123,NA,211.56,35.26,0,-14.036
117,11,7,21896.46,105991.56,36,314,2062.338,1950.487,NA,334.506,55.751,-18.435,-18.435
118,11,8,21896.46,105991.56,42,308,2062.338,1950.487,NA,0,0,0,18.435
119,11,9,22319.58,105991.56,48,311,2485.458,2365.313,NA,423.12,70.52,0,0
120,11,10,22636.92,106097.34,54,269,2819.964,2663.472,NA,334.506,55.751,18.435,18.435
121,11,11,22848.48,106097.34,59,305,3031.524,2873.636,NA,211.56,42.312,0,-18.435
122,12,1,36388.32,94567.32,0,220,0,0,NA,NA,NA,NA,NA
123,12,2,36176.76,94144.2,6,285,473.063,473.063,NA,473.063,78.844,-116.565,NA
124,12,3,36176.76,94144.2,12,263,473.063,473.063,NA,0,0,0,116.565
125,12,4,36494.1,94355.76,18,201,854.458,236.531,NA,381.395,63.566,33.69,33.69
126,12,5,36705.66,94461.54,24,266,1090.989,334.506,NA,236.531,39.422,26.565,-7.125
127,12,6,36811.44,94461.54,30,262,1196.769,436.142,NA,105.78,17.63,0,-26.565
128,12,7,36811.44,94461.54,36,272,1196.769,436.142,NA,0,0,0,0
129,12,8,36917.22,94461.54,42,274,1302.549,539.374,NA,105.78,17.63,0,0
130,12,9,36917.22,94567.32,48,245,1408.329,528.9,NA,105.78,17.63,90,90
131,12,10,36917.22,94567.32,54,246,1408.329,528.9,NA,0,0,0,-90
132,12,11,36917.22,94567.32,59,243,1408.329,528.9,NA,0,0,0,0
133,13,1,92663.28,51937.98,0,240,0,0,NA,NA,NA,NA,NA
134,13,2,92557.5,51937.98,6,231,105.78,105.78,NA,105.78,17.63,180,NA
135,13,3,92663.28,51937.98,12,181,211.56,0,NA,105.78,17.63,0,-180
136,13,4,91182.36,52255.32,18,219,1726.099,1514.539,NA,1514.539,252.423,167.905,167.905
137,13,5,90970.8,52255.32,24,192,1937.659,1721.974,NA,211.56,35.26,180,12.095
138,13,6,90970.8,52149.54,30,200,2043.439,1705.651,NA,105.78,17.63,-90,90
139,13,7,91076.58,52255.32,36,178,2193.035,1618.123,NA,149.596,24.933,45,135
140,13,8,90547.68,51937.98,42,239,2809.833,2115.6,NA,616.798,102.8,-149.036,165.964
141,13,9,90336.12,51937.98,48,281,3021.393,2327.16,NA,211.56,35.26,180,-30.964
142,13,10,90336.12,51937.98,54,246,3021.393,2327.16,NA,0,0,0,-180
143,13,11,90336.12,52043.76,59,229,3127.173,2329.563,NA,105.78,21.156,90,90
144,14,1,75950.04,51937.98,0,210,0,0,NA,NA,NA,NA,NA
145,14,2,75950.04,51937.98,6,268,0,0,NA,0,0,0,NA
146,14,3,75844.26,51937.98,12,247,105.78,105.78,NA,105.78,17.63,180,180
147,14,4,75844.26,51937.98,18,252,105.78,105.78,NA,0,0,0,-180
148,14,5,75844.26,51937.98,24,259,105.78,105.78,NA,0,0,0,0
149,14,6,75844.26,51937.98,30,268,105.78,105.78,NA,0,0,0,0
150,14,7,75844.26,51937.98,36,239,105.78,105.78,NA,0,0,0,0
151,14,8,75844.26,51937.98,42,261,105.78,105.78,NA,0,0,0,0
152,14,9,75950.04,51937.98,48,302,211.56,0,NA,105.78,17.63,0,0
153,14,10,76055.82,51937.98,54,290,317.34,105.78,NA,105.78,17.63,0,0
154,14,11,77219.4,52149.54,59,177,1499.996,1286.869,NA,1182.656,236.531,10.305,10.305
155,15,1,79652.34,48341.46,0,289,0,0,NA,NA,NA,NA,NA
156,15,2,79546.56,48341.46,6,260,105.78,105.78,NA,105.78,17.63,180,NA
157,15,3,79652.34,48341.46,12,247,211.56,0,NA,105.78,17.63,0,-180
158,15,4,79652.34,48341.46,18,238,211.56,0,NA,0,0,0,0
159,15,5,79546.56,48341.46,24,244,317.34,105.78,NA,105.78,17.63,180,180
160,15,6,79652.34,48341.46,30,260,423.12,0,NA,105.78,17.63,0,-180
161,15,7,79652.34,48341.46,36,250,423.12,0,NA,0,0,0,0
162,15,8,79546.56,48341.46,42,250,528.9,105.78,NA,105.78,17.63,180,180
163,15,9,79546.56,48341.46,48,266,528.9,105.78,NA,0,0,0,-180
164,15,10,79546.56,48341.46,54,227,528.9,105.78,NA,0,0,0,0
165,15,11,79546.56,48341.46,59,226,528.9,105.78,NA,0,0,0,0
166,16,1,74892.24,41994.66,0,410,0,0,NA,NA,NA,NA,NA
167,16,2,74892.24,41888.88,6,410,105.78,105.78,NA,105.78,17.63,-90,NA
168,16,3,74892.24,41888.88,12,365,105.78,105.78,NA,0,0,0,90
169,16,4,74892.24,41888.88,18,399,105.78,105.78,NA,0,0,0,0
170,16,5,74892.24,41888.88,24,373,105.78,105.78,NA,0,0,0,0
171,16,6,74892.24,41994.66,30,381,211.56,0,NA,105.78,17.63,90,90
172,16,7,74892.24,41888.88,36,342,317.34,105.78,NA,105.78,17.63,-90,-180
173,16,8,74892.24,41888.88,42,300,317.34,105.78,NA,0,0,0,90
174,16,9,74892.24,41888.88,48,268,317.34,105.78,NA,0,0,0,0
175,16,10,74892.24,41888.88,54,277,317.34,105.78,NA,0,0,0,0
176,16,11,74892.24,41994.66,59,274,423.12,0,NA,105.78,21.156,90,90
177,17,1,103875.96,39455.94,0,357,0,0,NA,NA,NA,NA,NA
178,17,2,103664.4,39455.94,6,365,211.56,211.56,NA,211.56,35.26,180,NA
179,17,3,103664.4,39455.94,12,329,211.56,211.56,NA,0,0,0,-180
180,17,4,103770.18,39350.16,18,330,361.156,149.596,NA,149.596,24.933,-45,-45
181,17,5,103664.4,39455.94,24,339,510.751,211.56,NA,149.596,24.933,135,180
182,17,6,103664.4,39455.94,30,333,510.751,211.56,NA,0,0,0,-135
183,17,7,103664.4,39350.16,36,289,616.531,236.531,NA,105.78,17.63,-90,-90
184,17,8,103664.4,39455.94,42,273,722.311,211.56,NA,105.78,17.63,90,180
185,17,9,103664.4,39455.94,48,310,722.311,211.56,NA,0,0,0,-90
186,17,10,103664.4,39455.94,54,305,722.311,211.56,NA,0,0,0,0
187,17,11,103664.4,39455.94,59,249,722.311,211.56,NA,0,0,0,0
188,18,1,107895.6,51303.3,0,326,0,0,NA,NA,NA,NA,NA
189,18,2,107895.6,51303.3,6,391,0,0,NA,0,0,0,NA
190,18,3,107895.6,51197.52,12,376,105.78,105.78,NA,105.78,17.63,-90,-90
191,18,4,107895.6,51197.52,18,403,105.78,105.78,NA,0,0,0,90
192,18,5,107895.6,51303.3,24,376,211.56,0,NA,105.78,17.63,90,90
193,18,6,107895.6,51091.74,30,383,423.12,211.56,NA,211.56,35.26,-90,-180
194,18,7,107895.6,51303.3,36,361,634.68,0,NA,211.56,35.26,90,180
195,18,8,107789.82,51197.52,42,357,784.276,149.596,NA,149.596,24.933,-135,135
196,18,9,107895.6,51091.74,48,350,933.871,211.56,NA,149.596,24.933,-45,90
197,18,10,107895.6,51197.52,54,344,1039.651,105.78,NA,105.78,17.63,90,135
198,18,11,107789.82,51091.74,59,347,1189.247,236.531,NA,149.596,29.919,-135,135
199,19,1,75315.36,30570.42,0,399,0,0,NA,NA,NA,NA,NA
200,19,2,75315.36,30464.64,6,373,105.78,105.78,NA,105.78,17.63,-90,NA
201,19,3,75315.36,30570.42,12,368,211.56,0,NA,105.78,17.63,90,180
202,19,4,75315.36,30570.42,18,326,211.56,0,NA,0,0,0,-90
203,19,5,75315.36,30464.64,24,335,317.34,105.78,NA,105.78,17.63,-90,-90
204,19,6,75315.36,30464.64,30,335,317.34,105.78,NA,0,0,0,90
205,19,7,75315.36,30464.64,36,324,317.34,105.78,NA,0,0,0,0
206,19,8,75315.36,30464.64,42,312,317.34,105.78,NA,0,0,0,0
207,19,9,75315.36,30358.86,48,296,423.12,211.56,NA,105.78,17.63,-90,-90
208,19,10,75315.36,30570.42,54,279,634.68,0,NA,211.56,35.26,90,180
209,19,11,75315.36,30358.86,59,275,846.24,211.56,NA,211.56,42.312,-90,-180
210,20,1,92557.5,32157.12,0,183,0,0,NA,NA,NA,NA,NA
211,20,2,92451.72,31945.56,6,185,236.531,236.531,NA,236.531,39.422,-116.565,NA
212,20,3,92451.72,31945.56,12,177,236.531,236.531,NA,0,0,0,116.565
213,20,4,92451.72,31945.56,18,171,236.531,236.531,NA,0,0,0,0
214,20,5,92451.72,32157.12,24,168,448.091,105.78,NA,211.56,35.26,90,90
215,20,6,92663.28,31945.56,30,171,747.282,236.531,NA,299.191,49.865,-45,-135
216,20,7,92451.72,31945.56,36,167,958.842,236.531,NA,211.56,35.26,180,-135
217,20,8,92663.28,32051.34,42,171,1195.374,149.596,NA,236.531,39.422,26.565,-153.435
218,20,9,92557.5,32051.34,48,169,1301.154,105.78,NA,105.78,17.63,180,153.435
219,20,10,92557.5,31945.56,54,166,1406.934,211.56,NA,105.78,17.63,-90,90
220,20,11,92451.72,32051.34,59,160,1556.529,149.596,NA,149.596,29.919,135,-135
221,21,1,85681.8,2009.82,30,282,0,0,NA,NA,NA,NA,NA
222,21,2,85681.8,2327.16,36,199,317.34,317.34,NA,317.34,52.89,90,NA
223,21,3,85258.68,5923.68,42,213,3938.664,3936.665,NA,3621.324,603.554,96.71,6.71
224,21,4,84835.56,7298.82,48,248,5377.427,5356.271,NA,1438.764,239.794,107.103,10.393
225,21,5,84729.78,8145.06,54,232,6230.253,6208.664,NA,852.826,142.138,97.125,-9.978
226,21,6,84200.88,8673.96,59,278,6978.231,6826.704,NA,747.978,149.596,135,37.875
227,22,1,134234.82,8779.74,0,349,0,0,NA,NA,NA,NA,NA
228,22,2,135186.84,8462.4,6,183,1003.517,1003.517,NA,1003.517,167.253,-18.435,NA
229,22,3,135186.84,8356.62,12,284,1109.297,1041.812,NA,105.78,17.63,-90,-71.565
230,22,4,135398.4,8462.4,18,276,1345.828,1206.078,NA,236.531,39.422,26.565,116.565
231,22,5,135609.96,8250.84,24,263,1645.019,1473.345,NA,299.191,49.865,-45,-71.565
232,22,6,135609.96,8250.84,30,280,1645.019,1473.345,NA,0,0,0,45
233,22,7,136773.54,7616.16,36,182,2970.439,2792.672,NA,1325.42,220.903,-28.61,-28.61
234,22,8,138042.9,7193.04,42,174,4308.462,4125.42,NA,1338.023,223.004,-18.435,10.176
235,22,9,137408.22,6346.8,48,291,5366.262,3998.708,NA,1057.8,176.3,-126.87,-108.435
236,22,10,137514,6241.02,54,244,5515.858,4147.062,NA,149.596,24.933,-45,81.87
237,22,11,137302.44,6241.02,59,308,5727.418,3981.883,NA,211.56,42.312,180,-135
