%!PS-Adobe-3.0 EPSF-3.0
%%Creator: (MATLAB, The Mathworks, Inc. Version 9.12.0.2009381 \(R2022a\) Update 4. Operating System: Windows 10)
%%Title: ./pca4-vs-pca625_ton_pval.eps
%%CreationDate: 2023-04-17T11:34:02
%%Pages: (atend)
%%BoundingBox:    36     5   387   295
%%LanguageLevel: 3
%%EndComments
%%BeginProlog
%%BeginResource: procset (Apache XML Graphics Std ProcSet) 1.2 0
%%Version: 1.2 0
%%Copyright: (Copyright 2001-2003,2010 The Apache Software Foundation. License terms: http://www.apache.org/licenses/LICENSE-2.0)
/bd{bind def}bind def
/ld{load def}bd
/GR/grestore ld
/GS/gsave ld
/RM/rmoveto ld
/C/curveto ld
/t/show ld
/L/lineto ld
/ML/setmiterlimit ld
/CT/concat ld
/f/fill ld
/N/newpath ld
/S/stroke ld
/CC/setcmykcolor ld
/A/ashow ld
/cp/closepath ld
/RC/setrgbcolor ld
/LJ/setlinejoin ld
/GC/setgray ld
/LW/setlinewidth ld
/M/moveto ld
/re {4 2 roll M
1 index 0 rlineto
0 exch rlineto
neg 0 rlineto
cp } bd
/_ctm matrix def
/_tm matrix def
/BT { _ctm currentmatrix pop matrix _tm copy pop 0 0 moveto } bd
/ET { _ctm setmatrix } bd
/iTm { _ctm setmatrix _tm concat } bd
/Tm { _tm astore pop iTm 0 0 moveto } bd
/ux 0.0 def
/uy 0.0 def
/F {
  /Tp exch def
  /Tf exch def
  Tf findfont Tp scalefont setfont
  /cf Tf def  /cs Tp def
} bd
/ULS {currentpoint /uy exch def /ux exch def} bd
/ULE {
  /Tcx currentpoint pop def
  gsave
  newpath
  cf findfont cs scalefont dup
  /FontMatrix get 0 get /Ts exch def /FontInfo get dup
  /UnderlinePosition get Ts mul /To exch def
  /UnderlineThickness get Ts mul /Tt exch def
  ux uy To add moveto  Tcx uy To add lineto
  Tt setlinewidth stroke
  grestore
} bd
/OLE {
  /Tcx currentpoint pop def
  gsave
  newpath
  cf findfont cs scalefont dup
  /FontMatrix get 0 get /Ts exch def /FontInfo get dup
  /UnderlinePosition get Ts mul /To exch def
  /UnderlineThickness get Ts mul /Tt exch def
  ux uy To add cs add moveto Tcx uy To add cs add lineto
  Tt setlinewidth stroke
  grestore
} bd
/SOE {
  /Tcx currentpoint pop def
  gsave
  newpath
  cf findfont cs scalefont dup
  /FontMatrix get 0 get /Ts exch def /FontInfo get dup
  /UnderlinePosition get Ts mul /To exch def
  /UnderlineThickness get Ts mul /Tt exch def
  ux uy To add cs 10 mul 26 idiv add moveto Tcx uy To add cs 10 mul 26 idiv add lineto
  Tt setlinewidth stroke
  grestore
} bd
/QT {
/Y22 exch store
/X22 exch store
/Y21 exch store
/X21 exch store
currentpoint
/Y21 load 2 mul add 3 div exch
/X21 load 2 mul add 3 div exch
/X21 load 2 mul /X22 load add 3 div
/Y21 load 2 mul /Y22 load add 3 div
/X22 load /Y22 load curveto
} bd
/SSPD {
dup length /d exch dict def
{
/v exch def
/k exch def
currentpagedevice k known {
/cpdv currentpagedevice k get def
v cpdv ne {
/upd false def
/nullv v type /nulltype eq def
/nullcpdv cpdv type /nulltype eq def
nullv nullcpdv or
{
/upd true def
} {
/sametype v type cpdv type eq def
sametype {
v type /arraytype eq {
/vlen v length def
/cpdvlen cpdv length def
vlen cpdvlen eq {
0 1 vlen 1 sub {
/i exch def
/obj v i get def
/cpdobj cpdv i get def
obj cpdobj ne {
/upd true def
exit
} if
} for
} {
/upd true def
} ifelse
} {
v type /dicttype eq {
v {
/dv exch def
/dk exch def
/cpddv cpdv dk get def
dv cpddv ne {
/upd true def
exit
} if
} forall
} {
/upd true def
} ifelse
} ifelse
} if
} ifelse
upd true eq {
d k v put
} if
} if
} if
} forall
d length 0 gt {
d setpagedevice
} if
} bd
/RE { % /NewFontName [NewEncodingArray] /FontName RE -
  findfont dup length dict begin
  {
    1 index /FID ne
    {def} {pop pop} ifelse
  } forall
  /Encoding exch def
  /FontName 1 index def
  currentdict definefont pop
  end
} bind def
%%EndResource
%%BeginResource: procset (Apache XML Graphics EPS ProcSet) 1.0 0
%%Version: 1.0 0
%%Copyright: (Copyright 2002-2003 The Apache Software Foundation. License terms: http://www.apache.org/licenses/LICENSE-2.0)
/BeginEPSF { %def
/b4_Inc_state save def         % Save state for cleanup
/dict_count countdictstack def % Count objects on dict stack
/op_count count 1 sub def      % Count objects on operand stack
userdict begin                 % Push userdict on dict stack
/showpage { } def              % Redefine showpage, { } = null proc
0 setgray 0 setlinecap         % Prepare graphics state
1 setlinewidth 0 setlinejoin
10 setmiterlimit [ ] 0 setdash newpath
/languagelevel where           % If level not equal to 1 then
{pop languagelevel             % set strokeadjust and
1 ne                           % overprint to their defaults.
{false setstrokeadjust false setoverprint
} if
} if
} bd
/EndEPSF { %def
count op_count sub {pop} repeat            % Clean up stacks
countdictstack dict_count sub {end} repeat
b4_Inc_state restore
} bd
%%EndResource
%FOPBeginFontDict
%%IncludeResource: font Courier-Oblique
%%IncludeResource: font Courier-BoldOblique
%%IncludeResource: font Courier-Bold
%%IncludeResource: font ZapfDingbats
%%IncludeResource: font Symbol
%%IncludeResource: font Helvetica
%%IncludeResource: font Helvetica-Oblique
%%IncludeResource: font Helvetica-Bold
%%IncludeResource: font Helvetica-BoldOblique
%%IncludeResource: font Times-Roman
%%IncludeResource: font Times-Italic
%%IncludeResource: font Times-Bold
%%IncludeResource: font Times-BoldItalic
%%IncludeResource: font Courier
%FOPEndFontDict
%%BeginResource: encoding WinAnsiEncoding
/WinAnsiEncoding [
/.notdef /.notdef /.notdef /.notdef /.notdef
/.notdef /.notdef /.notdef /.notdef /.notdef
/.notdef /.notdef /.notdef /.notdef /.notdef
/.notdef /.notdef /.notdef /.notdef /.notdef
/.notdef /.notdef /.notdef /.notdef /.notdef
/.notdef /.notdef /.notdef /.notdef /.notdef
/.notdef /.notdef /space /exclam /quotedbl
/numbersign /dollar /percent /ampersand /quotesingle
/parenleft /parenright /asterisk /plus /comma
/hyphen /period /slash /zero /one
/two /three /four /five /six
/seven /eight /nine /colon /semicolon
/less /equal /greater /question /at
/A /B /C /D /E
/F /G /H /I /J
/K /L /M /N /O
/P /Q /R /S /T
/U /V /W /X /Y
/Z /bracketleft /backslash /bracketright /asciicircum
/underscore /quoteleft /a /b /c
/d /e /f /g /h
/i /j /k /l /m
/n /o /p /q /r
/s /t /u /v /w
/x /y /z /braceleft /bar
/braceright /asciitilde /bullet /Euro /bullet
/quotesinglbase /florin /quotedblbase /ellipsis /dagger
/daggerdbl /circumflex /perthousand /Scaron /guilsinglleft
/OE /bullet /Zcaron /bullet /bullet
/quoteleft /quoteright /quotedblleft /quotedblright /bullet
/endash /emdash /asciitilde /trademark /scaron
/guilsinglright /oe /bullet /zcaron /Ydieresis
/space /exclamdown /cent /sterling /currency
/yen /brokenbar /section /dieresis /copyright
/ordfeminine /guillemotleft /logicalnot /sfthyphen /registered
/macron /degree /plusminus /twosuperior /threesuperior
/acute /mu /paragraph /middot /cedilla
/onesuperior /ordmasculine /guillemotright /onequarter /onehalf
/threequarters /questiondown /Agrave /Aacute /Acircumflex
/Atilde /Adieresis /Aring /AE /Ccedilla
/Egrave /Eacute /Ecircumflex /Edieresis /Igrave
/Iacute /Icircumflex /Idieresis /Eth /Ntilde
/Ograve /Oacute /Ocircumflex /Otilde /Odieresis
/multiply /Oslash /Ugrave /Uacute /Ucircumflex
/Udieresis /Yacute /Thorn /germandbls /agrave
/aacute /acircumflex /atilde /adieresis /aring
/ae /ccedilla /egrave /eacute /ecircumflex
/edieresis /igrave /iacute /icircumflex /idieresis
/eth /ntilde /ograve /oacute /ocircumflex
/otilde /odieresis /divide /oslash /ugrave
/uacute /ucircumflex /udieresis /yacute /thorn
/ydieresis
] def
%%EndResource
%FOPBeginFontReencode
/Courier-Oblique findfont
dup length dict begin
  {1 index /FID ne {def} {pop pop} ifelse} forall
  /Encoding WinAnsiEncoding def
  currentdict
end
/Courier-Oblique exch definefont pop
/Courier-BoldOblique findfont
dup length dict begin
  {1 index /FID ne {def} {pop pop} ifelse} forall
  /Encoding WinAnsiEncoding def
  currentdict
end
/Courier-BoldOblique exch definefont pop
/Courier-Bold findfont
dup length dict begin
  {1 index /FID ne {def} {pop pop} ifelse} forall
  /Encoding WinAnsiEncoding def
  currentdict
end
/Courier-Bold exch definefont pop
/Helvetica findfont
dup length dict begin
  {1 index /FID ne {def} {pop pop} ifelse} forall
  /Encoding WinAnsiEncoding def
  currentdict
end
/Helvetica exch definefont pop
/Helvetica-Oblique findfont
dup length dict begin
  {1 index /FID ne {def} {pop pop} ifelse} forall
  /Encoding WinAnsiEncoding def
  currentdict
end
/Helvetica-Oblique exch definefont pop
/Helvetica-Bold findfont
dup length dict begin
  {1 index /FID ne {def} {pop pop} ifelse} forall
  /Encoding WinAnsiEncoding def
  currentdict
end
/Helvetica-Bold exch definefont pop
/Helvetica-BoldOblique findfont
dup length dict begin
  {1 index /FID ne {def} {pop pop} ifelse} forall
  /Encoding WinAnsiEncoding def
  currentdict
end
/Helvetica-BoldOblique exch definefont pop
/Times-Roman findfont
dup length dict begin
  {1 index /FID ne {def} {pop pop} ifelse} forall
  /Encoding WinAnsiEncoding def
  currentdict
end
/Times-Roman exch definefont pop
/Times-Italic findfont
dup length dict begin
  {1 index /FID ne {def} {pop pop} ifelse} forall
  /Encoding WinAnsiEncoding def
  currentdict
end
/Times-Italic exch definefont pop
/Times-Bold findfont
dup length dict begin
  {1 index /FID ne {def} {pop pop} ifelse} forall
  /Encoding WinAnsiEncoding def
  currentdict
end
/Times-Bold exch definefont pop
/Times-BoldItalic findfont
dup length dict begin
  {1 index /FID ne {def} {pop pop} ifelse} forall
  /Encoding WinAnsiEncoding def
  currentdict
end
/Times-BoldItalic exch definefont pop
/Courier findfont
dup length dict begin
  {1 index /FID ne {def} {pop pop} ifelse} forall
  /Encoding WinAnsiEncoding def
  currentdict
end
/Courier exch definefont pop
%FOPEndFontReencode
%%EndProlog
%%Page: 1 1
%%PageBoundingBox: 0 0 420 315
%%BeginPageSetup
N
   36     5 M
  423     5 L
  423   300 L
   36   300 L
cp
clip
[1 0 0 -1 0 315] CT
%%EndPageSetup
GS
[0.75 0 0 0.75 0 0] CT
1 GC
N
0 0 560 420 re
f
GR
GS
[0.75 0 0 0.75 0 0] CT
1 GC
N
0 0 560 420 re
f
GR
GS
[0.75 0 0 0.75 0 0] CT
1 GC
N
73 374 M
507 374 L
507 31 L
73 31 L
cp
f
GR
GS
[0.75 0 0 0.75 0 0] CT
0.149 GC
2 setlinecap
1 LJ
0.667 LW
N
73 374 M
507 374 L
S
GR
GS
[0.75 0 0 0.75 0 0] CT
0.149 GC
2 setlinecap
1 LJ
0.667 LW
N
73 31 M
507 31 L
S
GR
GS
[0.75 0 0 0.75 0 0] CT
0.149 GC
2 setlinecap
1 LJ
0.667 LW
N
73 374 M
73 369.66 L
S
GR
GS
[0.75 0 0 0.75 0 0] CT
0.149 GC
2 setlinecap
1 LJ
0.667 LW
N
159.8 374 M
159.8 369.66 L
S
GR
GS
[0.75 0 0 0.75 0 0] CT
0.149 GC
2 setlinecap
1 LJ
0.667 LW
N
246.6 374 M
246.6 369.66 L
S
GR
GS
[0.75 0 0 0.75 0 0] CT
0.149 GC
2 setlinecap
1 LJ
0.667 LW
N
333.4 374 M
333.4 369.66 L
S
GR
GS
[0.75 0 0 0.75 0 0] CT
0.149 GC
2 setlinecap
1 LJ
0.667 LW
N
420.2 374 M
420.2 369.66 L
S
GR
GS
[0.75 0 0 0.75 0 0] CT
0.149 GC
2 setlinecap
1 LJ
0.667 LW
N
507 374 M
507 369.66 L
S
GR
GS
[0.75 0 0 0.75 0 0] CT
0.149 GC
2 setlinecap
1 LJ
0.667 LW
N
73 31 M
73 35.34 L
S
GR
GS
[0.75 0 0 0.75 0 0] CT
0.149 GC
2 setlinecap
1 LJ
0.667 LW
N
159.8 31 M
159.8 35.34 L
S
GR
GS
[0.75 0 0 0.75 0 0] CT
0.149 GC
2 setlinecap
1 LJ
0.667 LW
N
246.6 31 M
246.6 35.34 L
S
GR
GS
[0.75 0 0 0.75 0 0] CT
0.149 GC
2 setlinecap
1 LJ
0.667 LW
N
333.4 31 M
333.4 35.34 L
S
GR
GS
[0.75 0 0 0.75 0 0] CT
0.149 GC
2 setlinecap
1 LJ
0.667 LW
N
420.2 31 M
420.2 35.34 L
S
GR
GS
[0.75 0 0 0.75 0 0] CT
0.149 GC
2 setlinecap
1 LJ
0.667 LW
N
507 31 M
507 35.34 L
S
GR
GS
[0.75 0 0 0.75 54.75 284.50001] CT
0.149 GC
/Helvetica 13.333 F
GS
[1 0 0 1 0 0] CT
-6 14 moveto 
1 -1 scale
(-1) t 
GR
GR
GS
[0.75 0 0 0.75 119.85 284.50001] CT
0.149 GC
/Helvetica 13.333 F
GS
[1 0 0 1 0 0] CT
-11.5 14 moveto 
1 -1 scale
(-0.5) t 
GR
GR
GS
[0.75 0 0 0.75 184.95 284.50001] CT
0.149 GC
/Helvetica 13.333 F
GS
[1 0 0 1 0 0] CT
-4 14 moveto 
1 -1 scale
(0) t 
GR
GR
GS
[0.75 0 0 0.75 250.05 284.50001] CT
0.149 GC
/Helvetica 13.333 F
GS
[1 0 0 1 0 0] CT
-9.5 14 moveto 
1 -1 scale
(0.5) t 
GR
GR
GS
[0.75 0 0 0.75 315.15001 284.50001] CT
0.149 GC
/Helvetica 13.333 F
GS
[1 0 0 1 0 0] CT
-4 14 moveto 
1 -1 scale
(1) t 
GR
GR
GS
[0.75 0 0 0.75 380.25 284.50001] CT
0.149 GC
/Helvetica 13.333 F
GS
[1 0 0 1 0 0] CT
-9.5 14 moveto 
1 -1 scale
(1.5) t 
GR
GR
GS
[0.75 0 0 0.75 217.50016 298.24999] CT
0.149 GC
/Helvetica 14.667 F
GS
[1 0 0 1 0 0] CT
-87.5 15 moveto 
1 -1 scale
(Difference between means) t 
GR
GR
GS
[0.75 0 0 0.75 0 0] CT
0.149 GC
2 setlinecap
1 LJ
0.667 LW
N
73 374 M
73 31 L
S
GR
GS
[0.75 0 0 0.75 0 0] CT
0.149 GC
2 setlinecap
1 LJ
0.667 LW
N
507 374 M
507 31 L
S
GR
GS
[0.75 0 0 0.75 0 0] CT
0.149 GC
2 setlinecap
1 LJ
0.667 LW
N
73 374 M
77.34 374 L
S
GR
GS
[0.75 0 0 0.75 0 0] CT
0.149 GC
2 setlinecap
1 LJ
0.667 LW
N
73 339.7 M
77.34 339.7 L
S
GR
GS
[0.75 0 0 0.75 0 0] CT
0.149 GC
2 setlinecap
1 LJ
0.667 LW
N
73 305.4 M
77.34 305.4 L
S
GR
GS
[0.75 0 0 0.75 0 0] CT
0.149 GC
2 setlinecap
1 LJ
0.667 LW
N
73 271.1 M
77.34 271.1 L
S
GR
GS
[0.75 0 0 0.75 0 0] CT
0.149 GC
2 setlinecap
1 LJ
0.667 LW
N
73 236.8 M
77.34 236.8 L
S
GR
GS
[0.75 0 0 0.75 0 0] CT
0.149 GC
2 setlinecap
1 LJ
0.667 LW
N
73 202.5 M
77.34 202.5 L
S
GR
GS
[0.75 0 0 0.75 0 0] CT
0.149 GC
2 setlinecap
1 LJ
0.667 LW
N
73 168.2 M
77.34 168.2 L
S
GR
GS
[0.75 0 0 0.75 0 0] CT
0.149 GC
2 setlinecap
1 LJ
0.667 LW
N
73 133.9 M
77.34 133.9 L
S
GR
GS
[0.75 0 0 0.75 0 0] CT
0.149 GC
2 setlinecap
1 LJ
0.667 LW
N
73 99.6 M
77.34 99.6 L
S
GR
GS
[0.75 0 0 0.75 0 0] CT
0.149 GC
2 setlinecap
1 LJ
0.667 LW
N
73 65.3 M
77.34 65.3 L
S
GR
GS
[0.75 0 0 0.75 0 0] CT
0.149 GC
2 setlinecap
1 LJ
0.667 LW
N
73 31 M
77.34 31 L
S
GR
GS
[0.75 0 0 0.75 0 0] CT
0.149 GC
2 setlinecap
1 LJ
0.667 LW
N
507 374 M
502.66 374 L
S
GR
GS
[0.75 0 0 0.75 0 0] CT
0.149 GC
2 setlinecap
1 LJ
0.667 LW
N
507 339.7 M
502.66 339.7 L
S
GR
GS
[0.75 0 0 0.75 0 0] CT
0.149 GC
2 setlinecap
1 LJ
0.667 LW
N
507 305.4 M
502.66 305.4 L
S
GR
GS
[0.75 0 0 0.75 0 0] CT
0.149 GC
2 setlinecap
1 LJ
0.667 LW
N
507 271.1 M
502.66 271.1 L
S
GR
GS
[0.75 0 0 0.75 0 0] CT
0.149 GC
2 setlinecap
1 LJ
0.667 LW
N
507 236.8 M
502.66 236.8 L
S
GR
GS
[0.75 0 0 0.75 0 0] CT
0.149 GC
2 setlinecap
1 LJ
0.667 LW
N
507 202.5 M
502.66 202.5 L
S
GR
GS
[0.75 0 0 0.75 0 0] CT
0.149 GC
2 setlinecap
1 LJ
0.667 LW
N
507 168.2 M
502.66 168.2 L
S
GR
GS
[0.75 0 0 0.75 0 0] CT
0.149 GC
2 setlinecap
1 LJ
0.667 LW
N
507 133.9 M
502.66 133.9 L
S
GR
GS
[0.75 0 0 0.75 0 0] CT
0.149 GC
2 setlinecap
1 LJ
0.667 LW
N
507 99.6 M
502.66 99.6 L
S
GR
GS
[0.75 0 0 0.75 0 0] CT
0.149 GC
2 setlinecap
1 LJ
0.667 LW
N
507 65.3 M
502.66 65.3 L
S
GR
GS
[0.75 0 0 0.75 0 0] CT
0.149 GC
2 setlinecap
1 LJ
0.667 LW
N
507 31 M
502.66 31 L
S
GR
GS
[0.75 0 0 0.75 50.74999 280.5] CT
0.149 GC
/Helvetica 13.333 F
GS
[1 0 0 1 0 0] CT
-8 5.5 moveto 
1 -1 scale
(0) t 
GR
GR
GS
[0.75 0 0 0.75 50.74999 254.77501] CT
0.149 GC
/Helvetica 13.333 F
GS
[1 0 0 1 0 0] CT
-19 5.5 moveto 
1 -1 scale
(0.1) t 
GR
GR
GS
[0.75 0 0 0.75 50.74999 229.05] CT
0.149 GC
/Helvetica 13.333 F
GS
[1 0 0 1 0 0] CT
-19 5.5 moveto 
1 -1 scale
(0.2) t 
GR
GR
GS
[0.75 0 0 0.75 50.74999 203.325] CT
0.149 GC
/Helvetica 13.333 F
GS
[1 0 0 1 0 0] CT
-19 5.5 moveto 
1 -1 scale
(0.3) t 
GR
GR
GS
[0.75 0 0 0.75 50.74999 177.6] CT
0.149 GC
/Helvetica 13.333 F
GS
[1 0 0 1 0 0] CT
-19 5.5 moveto 
1 -1 scale
(0.4) t 
GR
GR
GS
[0.75 0 0 0.75 50.74999 151.875] CT
0.149 GC
/Helvetica 13.333 F
GS
[1 0 0 1 0 0] CT
-19 5.5 moveto 
1 -1 scale
(0.5) t 
GR
GR
GS
[0.75 0 0 0.75 50.74999 126.15] CT
0.149 GC
/Helvetica 13.333 F
GS
[1 0 0 1 0 0] CT
-19 5.5 moveto 
1 -1 scale
(0.6) t 
GR
GR
GS
[0.75 0 0 0.75 50.74999 100.42501] CT
0.149 GC
/Helvetica 13.333 F
GS
[1 0 0 1 0 0] CT
-19 5.5 moveto 
1 -1 scale
(0.7) t 
GR
GR
GS
[0.75 0 0 0.75 50.74999 74.7] CT
0.149 GC
/Helvetica 13.333 F
GS
[1 0 0 1 0 0] CT
-19 5.5 moveto 
1 -1 scale
(0.8) t 
GR
GR
GS
[0.75 0 0 0.75 50.74999 48.97501] CT
0.149 GC
/Helvetica 13.333 F
GS
[1 0 0 1 0 0] CT
-19 5.5 moveto 
1 -1 scale
(0.9) t 
GR
GR
GS
[0.75 0 0 0.75 50.74999 23.25] CT
0.149 GC
/Helvetica 13.333 F
GS
[1 0 0 1 0 0] CT
-8 5.5 moveto 
1 -1 scale
(1) t 
GR
GR
GS
[0.75 0 0 0.75 0 0] CT
1 LJ
0.667 LW
N
114.096 373.657 M
137.198 373.314 L
149.259 372.971 L
152.582 372.628 L
153.423 372.285 L
154.855 371.942 L
154.982 371.599 L
156.611 371.256 L
159.763 370.913 L
163.309 370.57 L
163.506 370.227 L
165.463 369.884 L
167.499 369.541 L
171.533 369.198 L
173.997 368.855 L
174.857 368.512 L
181.531 368.169 L
181.999 367.826 L
182.629 367.483 L
183.011 367.14 L
185.167 366.797 L
186.431 366.454 L
188.537 366.111 L
189.059 365.768 L
190.435 365.425 L
191.351 365.082 L
192.381 364.739 L
192.634 364.396 L
192.879 364.053 L
193.368 363.71 L
193.982 363.367 L
195.545 363.024 L
196.224 362.681 L
196.5 362.338 L
196.971 361.995 L
197.456 361.652 L
198.236 361.309 L
198.494 360.966 L
199.248 360.623 L
199.605 360.28 L
200.642 359.937 L
201.041 359.594 L
201.177 359.251 L
201.991 358.908 L
202.445 358.565 L
203.907 358.222 L
203.98 357.879 L
203.981 357.536 L
204.472 357.193 L
204.492 356.85 L
205.254 356.507 L
205.415 356.164 L
205.558 355.821 L
205.56 355.478 L
205.926 355.135 L
206.047 354.792 L
206.412 354.449 L
207.045 354.106 L
207.475 353.763 L
207.606 353.42 L
207.741 353.077 L
208.287 352.734 L
208.726 352.391 L
209.129 352.048 L
210.063 351.705 L
210.659 351.362 L
210.872 351.019 L
212.323 350.676 L
213.14 350.333 L
213.64 349.99 L
213.803 349.647 L
213.887 349.304 L
214.239 348.961 L
214.611 348.618 L
215.209 348.275 L
215.471 347.932 L
215.943 347.589 L
216.17 347.246 L
217.871 346.903 L
219.321 346.56 L
219.642 346.217 L
220.638 345.874 L
220.925 345.531 L
221.052 345.188 L
221.177 344.845 L
221.421 344.502 L
222.93 344.159 L
223.084 343.816 L
223.45 343.473 L
223.483 343.13 L
224.573 342.787 L
224.744 342.444 L
224.908 342.101 L
225.068 341.758 L
225.346 341.415 L
225.866 341.072 L
226.168 340.729 L
226.296 340.386 L
227.12 340.043 L
227.416 339.7 L
228.103 339.357 L
228.221 339.014 L
228.312 338.671 L
228.447 338.328 L
228.937 337.985 L
229.022 337.642 L
229.065 337.299 L
229.437 336.956 L
230.485 336.613 L
230.82 336.27 L
230.927 335.927 L
231.065 335.584 L
231.198 335.241 L
231.399 334.898 L
231.407 334.555 L
232.514 334.212 L
232.52 333.869 L
233.123 333.526 L
233.89 333.183 L
234.236 332.84 L
234.275 332.497 L
234.482 332.154 L
234.578 331.811 L
234.66 331.468 L
235.263 331.125 L
235.308 330.782 L
235.671 330.439 L
236.155 330.096 L
236.664 329.753 L
236.957 329.41 L
236.986 329.067 L
237.044 328.724 L
237.19 328.381 L
237.239 328.038 L
237.544 327.695 L
237.971 327.352 L
238.114 327.009 L
238.244 326.666 L
238.756 326.323 L
238.999 325.98 L
239.166 325.637 L
239.248 325.294 L
239.255 324.951 L
239.691 324.608 L
240.546 324.265 L
240.794 323.922 L
240.886 323.579 L
240.953 323.236 L
243.046 322.893 L
243.448 322.55 L
243.793 322.207 L
244.341 321.864 L
244.443 321.521 L
244.966 321.178 L
245.145 320.835 L
245.155 320.492 L
246.081 320.149 L
246.315 319.806 L
246.419 319.463 L
246.451 319.12 L
246.744 318.777 L
247.38 318.434 L
247.473 318.091 L
248.253 317.748 L
248.418 317.405 L
248.625 317.062 L
248.626 316.719 L
249.033 316.376 L
249.207 316.033 L
249.386 315.69 L
249.785 315.347 L
249.958 315.004 L
250.596 314.661 L
250.871 314.318 L
251.076 313.975 L
251.251 313.632 L
251.555 313.289 L
251.59 312.946 L
251.802 312.603 L
251.963 312.26 L
252.219 311.917 L
252.6 311.574 L
252.844 311.231 L
253.069 310.888 L
253.225 310.545 L
253.563 310.202 L
253.84 309.859 L
254.119 309.516 L
254.486 309.173 L
254.685 308.83 L
254.702 308.487 L
254.885 308.144 L
255.16 307.801 L
255.217 307.458 L
255.31 307.115 L
255.317 306.772 L
255.467 306.429 L
255.89 306.086 L
256.233 305.743 L
256.322 305.4 L
256.378 305.057 L
256.626 304.714 L
256.969 304.371 L
257.115 304.028 L
258.113 303.685 L
258.232 303.342 L
258.258 302.999 L
258.501 302.656 L
258.504 302.313 L
258.564 301.97 L
258.649 301.627 L
258.768 301.284 L
258.911 300.941 L
259.087 300.598 L
259.22 300.255 L
259.42 299.912 L
259.521 299.569 L
259.674 299.226 L
259.829 298.883 L
259.838 298.54 L
260.076 298.197 L
260.278 297.854 L
260.287 297.511 L
260.406 297.168 L
260.435 296.825 L
260.614 296.482 L
260.618 296.139 L
260.686 295.796 L
261.026 295.453 L
261.051 295.11 L
261.215 294.767 L
261.556 294.424 L
261.576 294.081 L
261.701 293.738 L
261.744 293.395 L
262.421 293.052 L
262.461 292.709 L
262.599 292.366 L
262.757 292.023 L
262.897 291.68 L
262.952 291.337 L
263 290.994 L
263.026 290.651 L
263.475 290.308 L
263.856 289.965 L
264.306 289.622 L
264.468 289.279 L
264.591 288.936 L
264.61 288.593 L
264.651 288.25 L
264.794 287.907 L
265.222 287.564 L
265.451 287.221 L
265.836 286.878 L
265.836 286.535 L
266.051 286.192 L
266.158 285.849 L
266.221 285.506 L
266.494 285.163 L
266.595 284.82 L
266.645 284.477 L
266.708 284.134 L
267.09 283.791 L
267.158 283.448 L
267.314 283.105 L
267.345 282.762 L
267.472 282.419 L
267.521 282.076 L
267.624 281.733 L
267.901 281.39 L
267.931 281.047 L
268.157 280.704 L
268.316 280.361 L
268.913 280.018 L
269.064 279.675 L
269.12 279.332 L
269.393 278.989 L
269.475 278.646 L
269.488 278.303 L
270.037 277.96 L
270.603 277.617 L
270.705 277.274 L
270.754 276.931 L
270.804 276.588 L
270.959 276.245 L
270.986 275.902 L
271.095 275.559 L
271.443 275.216 L
271.907 274.873 L
272.358 274.53 L
272.577 274.187 L
273.012 273.844 L
273.107 273.501 L
273.407 273.158 L
273.538 272.815 L
273.582 272.472 L
273.662 272.129 L
273.985 271.786 L
274.125 271.443 L
274.25 271.1 L
274.316 270.757 L
274.42 270.414 L
274.525 270.071 L
274.612 269.728 L
275.195 269.385 L
275.693 269.042 L
275.767 268.699 L
275.944 268.356 L
276.011 268.013 L
276.052 267.67 L
276.092 267.327 L
276.097 266.984 L
276.417 266.641 L
276.633 266.298 L
276.673 265.955 L
276.699 265.612 L
276.861 265.269 L
276.951 264.926 L
277.09 264.583 L
277.139 264.24 L
277.161 263.897 L
277.168 263.554 L
277.464 263.211 L
277.573 262.868 L
277.717 262.525 L
277.792 262.182 L
277.798 261.839 L
278.212 261.496 L
278.431 261.153 L
278.507 260.81 L
278.542 260.467 L
278.595 260.124 L
278.779 259.781 L
278.853 259.438 L
279.547 259.095 L
279.63 258.752 L
279.969 258.409 L
280.031 258.066 L
280.098 257.723 L
280.149 257.38 L
280.212 257.037 L
280.233 256.694 L
280.401 256.351 L
280.44 256.008 L
280.654 255.665 L
280.687 255.322 L
281.011 254.979 L
281.203 254.636 L
281.402 254.293 L
281.569 253.95 L
281.594 253.607 L
281.859 253.264 L
281.958 252.921 L
282.332 252.578 L
282.47 252.235 L
282.705 251.892 L
282.919 251.549 L
283.167 251.206 L
283.315 250.863 L
283.318 250.52 L
283.357 250.177 L
283.663 249.834 L
283.668 249.491 L
283.768 249.148 L
283.802 248.805 L
283.958 248.462 L
284.21 248.119 L
284.401 247.776 L
284.586 247.433 L
284.795 247.09 L
284.81 246.747 L
284.914 246.404 L
285.084 246.061 L
285.168 245.718 L
285.331 245.375 L
285.471 245.032 L
285.651 244.689 L
285.717 244.346 L
285.948 244.003 L
285.973 243.66 L
286.488 243.317 L
286.54 242.974 L
286.67 242.631 L
287.242 242.288 L
287.288 241.945 L
287.854 241.602 L
288.087 241.259 L
288.117 240.916 L
288.446 240.573 L
288.474 240.23 L
288.56 239.887 L
288.787 239.544 L
288.84 239.201 L
288.99 238.858 L
289.343 238.515 L
289.642 238.172 L
289.912 237.829 L
290.062 237.486 L
290.089 237.143 L
290.21 236.8 L
290.297 236.457 L
290.416 236.114 L
290.469 235.771 L
290.775 235.428 L
290.862 235.085 L
291.154 234.742 L
291.366 234.399 L
291.409 234.056 L
291.417 233.713 L
291.419 233.37 L
291.643 233.027 L
291.656 232.684 L
291.727 232.341 L
291.751 231.998 L
291.94 231.655 L
291.956 231.312 L
291.984 230.969 L
292.069 230.626 L
292.531 230.283 L
292.643 229.94 L
292.69 229.597 L
293.031 229.254 L
293.058 228.911 L
293.084 228.568 L
293.132 228.225 L
293.552 227.882 L
293.906 227.539 L
294.054 227.196 L
294.092 226.853 L
294.487 226.51 L
294.575 226.167 L
294.686 225.824 L
294.691 225.481 L
294.925 225.138 L
295.002 224.795 L
295.222 224.452 L
295.314 224.109 L
295.682 223.766 L
296.345 223.423 L
296.351 223.08 L
296.661 222.737 L
296.782 222.394 L
297.149 222.051 L
297.209 221.708 L
297.271 221.365 L
297.587 221.022 L
297.69 220.679 L
297.691 220.336 L
297.876 219.993 L
298.101 219.65 L
298.124 219.307 L
298.2 218.964 L
298.239 218.621 L
298.306 218.278 L
298.479 217.935 L
298.558 217.592 L
298.565 217.249 L
298.632 216.906 L
298.667 216.563 L
298.723 216.22 L
298.786 215.877 L
298.858 215.534 L
298.861 215.191 L
299.018 214.848 L
299.154 214.505 L
299.329 214.162 L
300.065 213.819 L
300.17 213.476 L
300.237 213.133 L
300.258 212.79 L
300.26 212.447 L
300.373 212.104 L
300.415 211.761 L
300.583 211.418 L
300.593 211.075 L
300.814 210.732 L
300.82 210.389 L
301.19 210.046 L
301.343 209.703 L
301.365 209.36 L
301.468 209.017 L
301.592 208.674 L
301.854 208.331 L
302.021 207.988 L
302.048 207.645 L
302.09 207.302 L
302.103 206.959 L
302.161 206.616 L
302.357 206.273 L
302.629 205.93 L
302.713 205.587 L
302.768 205.244 L
302.853 204.901 L
303.08 204.558 L
303.316 204.215 L
303.593 203.872 L
303.985 203.529 L
304.483 203.186 L
304.607 202.843 L
304.691 202.5 L
304.85 202.157 L
304.914 201.814 L
305.105 201.471 L
305.266 201.128 L
305.331 200.785 L
305.449 200.442 L
305.745 200.099 L
305.808 199.756 L
305.832 199.413 L
306.044 199.07 L
306.194 198.727 L
306.598 198.384 L
307.014 198.041 L
307.177 197.698 L
307.21 197.355 L
307.228 197.012 L
307.24 196.669 L
307.29 196.326 L
307.292 195.983 L
307.365 195.64 L
307.38 195.297 L
307.553 194.954 L
307.668 194.611 L
307.879 194.268 L
308.297 193.925 L
308.325 193.582 L
308.449 193.239 L
308.57 192.896 L
308.698 192.553 L
308.948 192.21 L
309.372 191.867 L
309.413 191.524 L
309.447 191.181 L
309.621 190.838 L
309.915 190.495 L
309.936 190.152 L
309.938 189.809 L
310.043 189.466 L
310.044 189.123 L
310.131 188.78 L
310.303 188.437 L
310.346 188.094 L
310.521 187.751 L
310.933 187.408 L
311.027 187.065 L
311.56 186.722 L
311.596 186.379 L
311.728 186.036 L
311.73 185.693 L
311.825 185.35 L
311.83 185.007 L
311.843 184.664 L
311.964 184.321 L
312.161 183.978 L
312.28 183.635 L
312.354 183.292 L
312.364 182.949 L
312.435 182.606 L
312.516 182.263 L
312.647 181.92 L
312.696 181.577 L
312.879 181.234 L
313.002 180.891 L
313.088 180.548 L
313.342 180.205 L
313.503 179.862 L
313.623 179.519 L
313.701 179.176 L
313.819 178.833 L
313.83 178.49 L
313.9 178.147 L
313.941 177.804 L
314.011 177.461 L
314.057 177.118 L
314.084 176.775 L
314.201 176.432 L
314.211 176.089 L
314.231 175.746 L
314.574 175.403 L
314.832 175.06 L
314.901 174.717 L
314.964 174.374 L
315.045 174.031 L
315.184 173.688 L
315.192 173.345 L
315.481 173.002 L
315.783 172.659 L
315.97 172.316 L
316.141 171.973 L
316.255 171.63 L
316.34 171.287 L
316.408 170.944 L
316.523 170.601 L
316.727 170.258 L
316.813 169.915 L
317.043 169.572 L
317.613 169.229 L
317.877 168.886 L
318.095 168.543 L
318.211 168.2 L
318.241 167.857 L
318.255 167.514 L
318.374 167.171 L
318.415 166.828 L
318.573 166.485 L
318.606 166.142 L
319.073 165.799 L
319.354 165.456 L
319.45 165.113 L
319.516 164.77 L
319.869 164.427 L
319.945 164.084 L
320.055 163.741 L
320.108 163.398 L
320.188 163.055 L
320.244 162.712 L
320.465 162.369 L
320.617 162.026 L
320.726 161.683 L
320.8 161.34 L
320.942 160.997 L
321.188 160.654 L
321.428 160.311 L
321.563 159.968 L
321.947 159.625 L
322.073 159.282 L
322.223 158.939 L
322.475 158.596 L
322.662 158.253 L
322.662 157.91 L
322.87 157.567 L
322.877 157.224 L
322.889 156.881 L
322.994 156.538 L
323.012 156.195 L
323.042 155.852 L
323.115 155.509 L
323.138 155.166 L
323.157 154.823 L
323.286 154.48 L
323.38 154.137 L
323.573 153.794 L
323.576 153.451 L
323.622 153.108 L
323.677 152.765 L
323.831 152.422 L
324.268 152.079 L
324.282 151.736 L
324.284 151.393 L
324.504 151.05 L
324.865 150.707 L
325.081 150.364 L
325.104 150.021 L
325.349 149.678 L
325.389 149.335 L
325.527 148.992 L
325.839 148.649 L
325.926 148.306 L
325.926 147.963 L
326.246 147.62 L
326.247 147.277 L
326.289 146.934 L
326.343 146.591 L
326.655 146.248 L
326.913 145.905 L
326.936 145.562 L
326.979 145.219 L
327.201 144.876 L
327.212 144.533 L
327.423 144.19 L
327.426 143.847 L
327.441 143.504 L
327.584 143.161 L
327.642 142.818 L
327.723 142.475 L
327.753 142.132 L
327.865 141.789 L
327.872 141.446 L
328.265 141.103 L
328.573 140.76 L
328.628 140.417 L
328.697 140.074 L
328.856 139.731 L
329.273 139.388 L
329.298 139.045 L
329.37 138.702 L
329.483 138.359 L
329.75 138.016 L
329.932 137.673 L
330.245 137.33 L
330.392 136.987 L
330.417 136.644 L
330.511 136.301 L
330.561 135.958 L
330.599 135.615 L
330.869 135.272 L
330.97 134.929 L
331.168 134.586 L
331.231 134.243 L
331.332 133.9 L
331.435 133.557 L
331.485 133.214 L
331.791 132.871 L
332.058 132.528 L
332.129 132.185 L
332.946 131.842 L
332.966 131.499 L
332.981 131.156 L
333.064 130.813 L
333.382 130.47 L
333.557 130.127 L
334.154 129.784 L
334.201 129.441 L
334.44 129.098 L
334.569 128.755 L
334.57 128.412 L
334.636 128.069 L
334.876 127.726 L
334.907 127.383 L
335.443 127.04 L
335.842 126.697 L
335.863 126.354 L
335.96 126.011 L
336.196 125.668 L
336.356 125.325 L
336.484 124.982 L
336.497 124.639 L
336.516 124.296 L
336.803 123.953 L
336.913 123.61 L
337.055 123.267 L
337.077 122.924 L
337.505 122.581 L
337.944 122.238 L
338.137 121.895 L
338.189 121.552 L
338.198 121.209 L
338.362 120.866 L
338.499 120.523 L
338.582 120.18 L
338.658 119.837 L
338.854 119.494 L
339.164 119.151 L
339.191 118.808 L
339.277 118.465 L
339.361 118.122 L
339.51 117.779 L
339.663 117.436 L
339.665 117.093 L
339.765 116.75 L
339.979 116.407 L
339.993 116.064 L
340.102 115.721 L
340.118 115.378 L
340.329 115.035 L
340.687 114.692 L
340.765 114.349 L
340.867 114.006 L
341.21 113.663 L
341.211 113.32 L
341.331 112.977 L
341.446 112.634 L
341.917 112.291 L
341.957 111.948 L
342.06 111.605 L
342.474 111.262 L
342.623 110.919 L
342.778 110.576 L
342.785 110.233 L
342.845 109.89 L
342.981 109.547 L
343.004 109.204 L
343.172 108.861 L
343.212 108.518 L
343.558 108.175 L
343.649 107.832 L
343.766 107.489 L
343.961 107.146 L
344.09 106.803 L
344.148 106.46 L
344.39 106.117 L
344.484 105.774 L
344.833 105.431 L
345.082 105.088 L
345.789 104.745 L
345.897 104.402 L
346.065 104.059 L
346.567 103.716 L
346.699 103.373 L
346.75 103.03 L
346.897 102.687 L
346.992 102.344 L
347.041 102.001 L
347.16 101.658 L
347.368 101.315 L
347.533 100.972 L
347.57 100.629 L
347.743 100.286 L
347.886 99.943 L
347.958 99.6 L
348.669 99.257 L
348.948 98.914 L
349.164 98.571 L
349.407 98.228 L
349.567 97.885 L
349.708 97.542 L
349.71 97.199 L
349.788 96.856 L
350.193 96.513 L
350.354 96.17 L
350.357 95.827 L
350.608 95.484 L
350.791 95.141 L
350.93 94.798 L
351.472 94.455 L
351.606 94.112 L
351.624 93.769 L
351.638 93.426 L
351.641 93.083 L
351.692 92.74 L
351.914 92.397 L
351.948 92.054 L
351.983 91.711 L
352.152 91.368 L
352.205 91.025 L
352.254 90.682 L
352.761 90.339 L
352.97 89.996 L
353.04 89.653 L
353.129 89.31 L
353.348 88.967 L
353.677 88.624 L
354.094 88.281 L
354.272 87.938 L
354.514 87.595 L
354.779 87.252 L
354.865 86.909 L
354.938 86.566 L
355.581 86.223 L
355.794 85.88 L
355.835 85.537 L
355.856 85.194 L
355.939 84.851 L
356.404 84.508 L
356.738 84.165 L
357.63 83.822 L
357.674 83.479 L
357.752 83.136 L
357.846 82.793 L
357.972 82.45 L
358.303 82.107 L
358.324 81.764 L
358.537 81.421 L
358.552 81.078 L
358.709 80.735 L
359.324 80.392 L
359.892 80.049 L
361.134 79.706 L
361.148 79.363 L
361.271 79.02 L
361.391 78.677 L
361.435 78.334 L
361.639 77.991 L
361.752 77.648 L
361.809 77.305 L
362.305 76.962 L
362.465 76.619 L
362.637 76.276 L
362.652 75.933 L
362.924 75.59 L
363.088 75.247 L
363.218 74.904 L
363.501 74.561 L
363.586 74.218 L
363.72 73.875 L
364.009 73.532 L
364.149 73.189 L
364.287 72.846 L
364.38 72.503 L
364.794 72.16 L
365.366 71.817 L
365.669 71.474 L
365.963 71.131 L
366.356 70.788 L
366.442 70.445 L
366.887 70.102 L
367.979 69.759 L
368.011 69.416 L
368.293 69.073 L
368.478 68.73 L
368.9 68.387 L
369.409 68.044 L
369.892 67.701 L
370.179 67.358 L
370.22 67.015 L
370.381 66.672 L
370.556 66.329 L
371.023 65.986 L
371.031 65.643 L
371.047 65.3 L
371.19 64.957 L
371.216 64.614 L
371.655 64.271 L
371.838 63.928 L
372.183 63.585 L
372.611 63.242 L
373.121 62.899 L
373.138 62.556 L
373.306 62.213 L
374.595 61.87 L
374.767 61.527 L
374.843 61.184 L
374.877 60.841 L
374.959 60.498 L
375.246 60.155 L
375.261 59.812 L
375.468 59.469 L
375.583 59.126 L
376.995 58.783 L
377.261 58.44 L
377.597 58.097 L
377.82 57.754 L
378.228 57.411 L
378.312 57.068 L
378.4 56.725 L
378.442 56.382 L
378.746 56.039 L
379.907 55.696 L
380.235 55.353 L
380.623 55.01 L
380.698 54.667 L
382.188 54.324 L
382.212 53.981 L
382.624 53.638 L
383.485 53.295 L
383.51 52.952 L
383.896 52.609 L
384.676 52.266 L
385.514 51.923 L
385.608 51.58 L
385.718 51.237 L
386.563 50.894 L
386.86 50.551 L
386.861 50.208 L
386.872 49.865 L
387.844 49.522 L
388.897 49.179 L
388.924 48.836 L
389.219 48.493 L
389.459 48.15 L
389.95 47.807 L
390.703 47.464 L
390.805 47.121 L
391.015 46.778 L
391.16 46.435 L
391.233 46.092 L
392.425 45.749 L
392.835 45.406 L
393.081 45.063 L
393.188 44.72 L
393.535 44.377 L
393.749 44.034 L
394.04 43.691 L
394.594 43.348 L
394.748 43.005 L
394.912 42.662 L
395.427 42.319 L
395.595 41.976 L
396.732 41.633 L
399.878 41.29 L
400.207 40.947 L
402.127 40.604 L
402.275 40.261 L
402.796 39.918 L
403.25 39.575 L
403.64 39.232 L
404.448 38.889 L
405.603 38.546 L
406.331 38.203 L
407.056 37.86 L
407.275 37.517 L
407.688 37.174 L
407.796 36.831 L
413.542 36.488 L
415.579 36.145 L
415.958 35.802 L
416.515 35.459 L
416.887 35.116 L
417.489 34.773 L
417.692 34.43 L
420.68 34.087 L
426.277 33.744 L
433.851 33.401 L
434.409 33.058 L
435.46 32.715 L
437.347 32.372 L
440.858 32.029 L
447.092 31.686 L
455.23 31.343 L
467.64 31 L
S
GR
GS
[0.75 0 0 0.75 0 0] CT
1 1 0 RC
1 LJ
2.667 LW
N
316.04 374 M
316.04 31 L
S
GR
GS
[0.75 0 0 0.75 0 0] CT
1 0 0 RC
1 LJ
2.667 LW
N
190.893 374 M
190.893 31 L
S
GR
GS
[0.75 0 0 0.75 0 0] CT
1 0 0 RC
1 LJ
2.667 LW
N
403.445 374 M
403.445 31 L
S
GR
GS
[0.75 0 0 0.75 0 0] CT
0 0 1 RC
1 LJ
2.667 LW
N
246.6 374 M
246.6 31 L
S
GR
%%Trailer
%%Pages: 1
%%EOF
