%!PS-Adobe-3.0 EPSF-3.0
%%Creator: (MATLAB, The Mathworks, Inc. Version 9.12.0.2009381 \(R2022a\) Update 4. Operating System: Windows 10)
%%Title: ./pca4-vs-pca625_ton_cumulative.eps
%%CreationDate: 2023-04-17T11:34:01
%%Pages: (atend)
%%BoundingBox:    36    19   383   295
%%LanguageLevel: 3
%%EndComments
%%BeginProlog
%%BeginResource: procset (Apache XML Graphics Std ProcSet) 1.2 0
%%Version: 1.2 0
%%Copyright: (Copyright 2001-2003,2010 The Apache Software Foundation. License terms: http://www.apache.org/licenses/LICENSE-2.0)
/bd{bind def}bind def
/ld{load def}bd
/GR/grestore ld
/GS/gsave ld
/RM/rmoveto ld
/C/curveto ld
/t/show ld
/L/lineto ld
/ML/setmiterlimit ld
/CT/concat ld
/f/fill ld
/N/newpath ld
/S/stroke ld
/CC/setcmykcolor ld
/A/ashow ld
/cp/closepath ld
/RC/setrgbcolor ld
/LJ/setlinejoin ld
/GC/setgray ld
/LW/setlinewidth ld
/M/moveto ld
/re {4 2 roll M
1 index 0 rlineto
0 exch rlineto
neg 0 rlineto
cp } bd
/_ctm matrix def
/_tm matrix def
/BT { _ctm currentmatrix pop matrix _tm copy pop 0 0 moveto } bd
/ET { _ctm setmatrix } bd
/iTm { _ctm setmatrix _tm concat } bd
/Tm { _tm astore pop iTm 0 0 moveto } bd
/ux 0.0 def
/uy 0.0 def
/F {
  /Tp exch def
  /Tf exch def
  Tf findfont Tp scalefont setfont
  /cf Tf def  /cs Tp def
} bd
/ULS {currentpoint /uy exch def /ux exch def} bd
/ULE {
  /Tcx currentpoint pop def
  gsave
  newpath
  cf findfont cs scalefont dup
  /FontMatrix get 0 get /Ts exch def /FontInfo get dup
  /UnderlinePosition get Ts mul /To exch def
  /UnderlineThickness get Ts mul /Tt exch def
  ux uy To add moveto  Tcx uy To add lineto
  Tt setlinewidth stroke
  grestore
} bd
/OLE {
  /Tcx currentpoint pop def
  gsave
  newpath
  cf findfont cs scalefont dup
  /FontMatrix get 0 get /Ts exch def /FontInfo get dup
  /UnderlinePosition get Ts mul /To exch def
  /UnderlineThickness get Ts mul /Tt exch def
  ux uy To add cs add moveto Tcx uy To add cs add lineto
  Tt setlinewidth stroke
  grestore
} bd
/SOE {
  /Tcx currentpoint pop def
  gsave
  newpath
  cf findfont cs scalefont dup
  /FontMatrix get 0 get /Ts exch def /FontInfo get dup
  /UnderlinePosition get Ts mul /To exch def
  /UnderlineThickness get Ts mul /Tt exch def
  ux uy To add cs 10 mul 26 idiv add moveto Tcx uy To add cs 10 mul 26 idiv add lineto
  Tt setlinewidth stroke
  grestore
} bd
/QT {
/Y22 exch store
/X22 exch store
/Y21 exch store
/X21 exch store
currentpoint
/Y21 load 2 mul add 3 div exch
/X21 load 2 mul add 3 div exch
/X21 load 2 mul /X22 load add 3 div
/Y21 load 2 mul /Y22 load add 3 div
/X22 load /Y22 load curveto
} bd
/SSPD {
dup length /d exch dict def
{
/v exch def
/k exch def
currentpagedevice k known {
/cpdv currentpagedevice k get def
v cpdv ne {
/upd false def
/nullv v type /nulltype eq def
/nullcpdv cpdv type /nulltype eq def
nullv nullcpdv or
{
/upd true def
} {
/sametype v type cpdv type eq def
sametype {
v type /arraytype eq {
/vlen v length def
/cpdvlen cpdv length def
vlen cpdvlen eq {
0 1 vlen 1 sub {
/i exch def
/obj v i get def
/cpdobj cpdv i get def
obj cpdobj ne {
/upd true def
exit
} if
} for
} {
/upd true def
} ifelse
} {
v type /dicttype eq {
v {
/dv exch def
/dk exch def
/cpddv cpdv dk get def
dv cpddv ne {
/upd true def
exit
} if
} forall
} {
/upd true def
} ifelse
} ifelse
} if
} ifelse
upd true eq {
d k v put
} if
} if
} if
} forall
d length 0 gt {
d setpagedevice
} if
} bd
/RE { % /NewFontName [NewEncodingArray] /FontName RE -
  findfont dup length dict begin
  {
    1 index /FID ne
    {def} {pop pop} ifelse
  } forall
  /Encoding exch def
  /FontName 1 index def
  currentdict definefont pop
  end
} bind def
%%EndResource
%%BeginResource: procset (Apache XML Graphics EPS ProcSet) 1.0 0
%%Version: 1.0 0
%%Copyright: (Copyright 2002-2003 The Apache Software Foundation. License terms: http://www.apache.org/licenses/LICENSE-2.0)
/BeginEPSF { %def
/b4_Inc_state save def         % Save state for cleanup
/dict_count countdictstack def % Count objects on dict stack
/op_count count 1 sub def      % Count objects on operand stack
userdict begin                 % Push userdict on dict stack
/showpage { } def              % Redefine showpage, { } = null proc
0 setgray 0 setlinecap         % Prepare graphics state
1 setlinewidth 0 setlinejoin
10 setmiterlimit [ ] 0 setdash newpath
/languagelevel where           % If level not equal to 1 then
{pop languagelevel             % set strokeadjust and
1 ne                           % overprint to their defaults.
{false setstrokeadjust false setoverprint
} if
} if
} bd
/EndEPSF { %def
count op_count sub {pop} repeat            % Clean up stacks
countdictstack dict_count sub {end} repeat
b4_Inc_state restore
} bd
%%EndResource
%FOPBeginFontDict
%%IncludeResource: font Courier-Oblique
%%IncludeResource: font Courier-BoldOblique
%%IncludeResource: font Courier-Bold
%%IncludeResource: font ZapfDingbats
%%IncludeResource: font Symbol
%%IncludeResource: font Helvetica
%%IncludeResource: font Helvetica-Oblique
%%IncludeResource: font Helvetica-Bold
%%IncludeResource: font Helvetica-BoldOblique
%%IncludeResource: font Times-Roman
%%IncludeResource: font Times-Italic
%%IncludeResource: font Times-Bold
%%IncludeResource: font Times-BoldItalic
%%IncludeResource: font Courier
%FOPEndFontDict
%%BeginResource: encoding WinAnsiEncoding
/WinAnsiEncoding [
/.notdef /.notdef /.notdef /.notdef /.notdef
/.notdef /.notdef /.notdef /.notdef /.notdef
/.notdef /.notdef /.notdef /.notdef /.notdef
/.notdef /.notdef /.notdef /.notdef /.notdef
/.notdef /.notdef /.notdef /.notdef /.notdef
/.notdef /.notdef /.notdef /.notdef /.notdef
/.notdef /.notdef /space /exclam /quotedbl
/numbersign /dollar /percent /ampersand /quotesingle
/parenleft /parenright /asterisk /plus /comma
/hyphen /period /slash /zero /one
/two /three /four /five /six
/seven /eight /nine /colon /semicolon
/less /equal /greater /question /at
/A /B /C /D /E
/F /G /H /I /J
/K /L /M /N /O
/P /Q /R /S /T
/U /V /W /X /Y
/Z /bracketleft /backslash /bracketright /asciicircum
/underscore /quoteleft /a /b /c
/d /e /f /g /h
/i /j /k /l /m
/n /o /p /q /r
/s /t /u /v /w
/x /y /z /braceleft /bar
/braceright /asciitilde /bullet /Euro /bullet
/quotesinglbase /florin /quotedblbase /ellipsis /dagger
/daggerdbl /circumflex /perthousand /Scaron /guilsinglleft
/OE /bullet /Zcaron /bullet /bullet
/quoteleft /quoteright /quotedblleft /quotedblright /bullet
/endash /emdash /asciitilde /trademark /scaron
/guilsinglright /oe /bullet /zcaron /Ydieresis
/space /exclamdown /cent /sterling /currency
/yen /brokenbar /section /dieresis /copyright
/ordfeminine /guillemotleft /logicalnot /sfthyphen /registered
/macron /degree /plusminus /twosuperior /threesuperior
/acute /mu /paragraph /middot /cedilla
/onesuperior /ordmasculine /guillemotright /onequarter /onehalf
/threequarters /questiondown /Agrave /Aacute /Acircumflex
/Atilde /Adieresis /Aring /AE /Ccedilla
/Egrave /Eacute /Ecircumflex /Edieresis /Igrave
/Iacute /Icircumflex /Idieresis /Eth /Ntilde
/Ograve /Oacute /Ocircumflex /Otilde /Odieresis
/multiply /Oslash /Ugrave /Uacute /Ucircumflex
/Udieresis /Yacute /Thorn /germandbls /agrave
/aacute /acircumflex /atilde /adieresis /aring
/ae /ccedilla /egrave /eacute /ecircumflex
/edieresis /igrave /iacute /icircumflex /idieresis
/eth /ntilde /ograve /oacute /ocircumflex
/otilde /odieresis /divide /oslash /ugrave
/uacute /ucircumflex /udieresis /yacute /thorn
/ydieresis
] def
%%EndResource
%FOPBeginFontReencode
/Courier-Oblique findfont
dup length dict begin
  {1 index /FID ne {def} {pop pop} ifelse} forall
  /Encoding WinAnsiEncoding def
  currentdict
end
/Courier-Oblique exch definefont pop
/Courier-BoldOblique findfont
dup length dict begin
  {1 index /FID ne {def} {pop pop} ifelse} forall
  /Encoding WinAnsiEncoding def
  currentdict
end
/Courier-BoldOblique exch definefont pop
/Courier-Bold findfont
dup length dict begin
  {1 index /FID ne {def} {pop pop} ifelse} forall
  /Encoding WinAnsiEncoding def
  currentdict
end
/Courier-Bold exch definefont pop
/Helvetica findfont
dup length dict begin
  {1 index /FID ne {def} {pop pop} ifelse} forall
  /Encoding WinAnsiEncoding def
  currentdict
end
/Helvetica exch definefont pop
/Helvetica-Oblique findfont
dup length dict begin
  {1 index /FID ne {def} {pop pop} ifelse} forall
  /Encoding WinAnsiEncoding def
  currentdict
end
/Helvetica-Oblique exch definefont pop
/Helvetica-Bold findfont
dup length dict begin
  {1 index /FID ne {def} {pop pop} ifelse} forall
  /Encoding WinAnsiEncoding def
  currentdict
end
/Helvetica-Bold exch definefont pop
/Helvetica-BoldOblique findfont
dup length dict begin
  {1 index /FID ne {def} {pop pop} ifelse} forall
  /Encoding WinAnsiEncoding def
  currentdict
end
/Helvetica-BoldOblique exch definefont pop
/Times-Roman findfont
dup length dict begin
  {1 index /FID ne {def} {pop pop} ifelse} forall
  /Encoding WinAnsiEncoding def
  currentdict
end
/Times-Roman exch definefont pop
/Times-Italic findfont
dup length dict begin
  {1 index /FID ne {def} {pop pop} ifelse} forall
  /Encoding WinAnsiEncoding def
  currentdict
end
/Times-Italic exch definefont pop
/Times-Bold findfont
dup length dict begin
  {1 index /FID ne {def} {pop pop} ifelse} forall
  /Encoding WinAnsiEncoding def
  currentdict
end
/Times-Bold exch definefont pop
/Times-BoldItalic findfont
dup length dict begin
  {1 index /FID ne {def} {pop pop} ifelse} forall
  /Encoding WinAnsiEncoding def
  currentdict
end
/Times-BoldItalic exch definefont pop
/Courier findfont
dup length dict begin
  {1 index /FID ne {def} {pop pop} ifelse} forall
  /Encoding WinAnsiEncoding def
  currentdict
end
/Courier exch definefont pop
%FOPEndFontReencode
%%EndProlog
%%Page: 1 1
%%PageBoundingBox: 0 0 420 315
%%BeginPageSetup
N
   36    19 M
  419    19 L
  419   314 L
   36   314 L
cp
clip
[1 0 0 -1 0 315] CT
%%EndPageSetup
GS
[0.75 0 0 0.75 0 0] CT
1 GC
N
0 0 560 420 re
f
GR
GS
[0.75 0 0 0.75 0 0] CT
1 GC
N
0 0 560 420 re
f
GR
GS
[0.75 0 0 0.75 0 0] CT
1 GC
N
73 374 M
507 374 L
507 31 L
73 31 L
cp
f
GR
GS
[0.75 0 0 0.75 0 0] CT
0.149 GC
2 setlinecap
1 LJ
0.667 LW
N
73 374 M
507 374 L
S
GR
GS
[0.75 0 0 0.75 0 0] CT
0.149 GC
2 setlinecap
1 LJ
0.667 LW
N
73 31 M
507 31 L
S
GR
GS
[0.75 0 0 0.75 0 0] CT
0.149 GC
2 setlinecap
1 LJ
0.667 LW
N
73 374 M
73 369.66 L
S
GR
GS
[0.75 0 0 0.75 0 0] CT
0.149 GC
2 setlinecap
1 LJ
0.667 LW
N
159.8 374 M
159.8 369.66 L
S
GR
GS
[0.75 0 0 0.75 0 0] CT
0.149 GC
2 setlinecap
1 LJ
0.667 LW
N
246.6 374 M
246.6 369.66 L
S
GR
GS
[0.75 0 0 0.75 0 0] CT
0.149 GC
2 setlinecap
1 LJ
0.667 LW
N
333.4 374 M
333.4 369.66 L
S
GR
GS
[0.75 0 0 0.75 0 0] CT
0.149 GC
2 setlinecap
1 LJ
0.667 LW
N
420.2 374 M
420.2 369.66 L
S
GR
GS
[0.75 0 0 0.75 0 0] CT
0.149 GC
2 setlinecap
1 LJ
0.667 LW
N
507 374 M
507 369.66 L
S
GR
GS
[0.75 0 0 0.75 0 0] CT
0.149 GC
2 setlinecap
1 LJ
0.667 LW
N
73 31 M
73 35.34 L
S
GR
GS
[0.75 0 0 0.75 0 0] CT
0.149 GC
2 setlinecap
1 LJ
0.667 LW
N
159.8 31 M
159.8 35.34 L
S
GR
GS
[0.75 0 0 0.75 0 0] CT
0.149 GC
2 setlinecap
1 LJ
0.667 LW
N
246.6 31 M
246.6 35.34 L
S
GR
GS
[0.75 0 0 0.75 0 0] CT
0.149 GC
2 setlinecap
1 LJ
0.667 LW
N
333.4 31 M
333.4 35.34 L
S
GR
GS
[0.75 0 0 0.75 0 0] CT
0.149 GC
2 setlinecap
1 LJ
0.667 LW
N
420.2 31 M
420.2 35.34 L
S
GR
GS
[0.75 0 0 0.75 0 0] CT
0.149 GC
2 setlinecap
1 LJ
0.667 LW
N
507 31 M
507 35.34 L
S
GR
GS
[0.75 0 0 0.75 54.75 284.50001] CT
0.149 GC
/Helvetica 13.333 F
GS
[1 0 0 1 0 0] CT
-9.5 14 moveto 
1 -1 scale
(2.5) t 
GR
GR
GS
[0.75 0 0 0.75 119.85 284.50001] CT
0.149 GC
/Helvetica 13.333 F
GS
[1 0 0 1 0 0] CT
-4 14 moveto 
1 -1 scale
(3) t 
GR
GR
GS
[0.75 0 0 0.75 184.95 284.50001] CT
0.149 GC
/Helvetica 13.333 F
GS
[1 0 0 1 0 0] CT
-9.5 14 moveto 
1 -1 scale
(3.5) t 
GR
GR
GS
[0.75 0 0 0.75 250.05 284.50001] CT
0.149 GC
/Helvetica 13.333 F
GS
[1 0 0 1 0 0] CT
-4 14 moveto 
1 -1 scale
(4) t 
GR
GR
GS
[0.75 0 0 0.75 315.15001 284.50001] CT
0.149 GC
/Helvetica 13.333 F
GS
[1 0 0 1 0 0] CT
-9.5 14 moveto 
1 -1 scale
(4.5) t 
GR
GR
GS
[0.75 0 0 0.75 380.25 284.50001] CT
0.149 GC
/Helvetica 13.333 F
GS
[1 0 0 1 0 0] CT
-4 14 moveto 
1 -1 scale
(5) t 
GR
GR
GS
[0.75 0 0 0.75 0 0] CT
0.149 GC
2 setlinecap
1 LJ
0.667 LW
N
73 374 M
73 31 L
S
GR
GS
[0.75 0 0 0.75 0 0] CT
0.149 GC
2 setlinecap
1 LJ
0.667 LW
N
507 374 M
507 31 L
S
GR
GS
[0.75 0 0 0.75 0 0] CT
0.149 GC
2 setlinecap
1 LJ
0.667 LW
N
73 374 M
77.34 374 L
S
GR
GS
[0.75 0 0 0.75 0 0] CT
0.149 GC
2 setlinecap
1 LJ
0.667 LW
N
73 339.7 M
77.34 339.7 L
S
GR
GS
[0.75 0 0 0.75 0 0] CT
0.149 GC
2 setlinecap
1 LJ
0.667 LW
N
73 305.4 M
77.34 305.4 L
S
GR
GS
[0.75 0 0 0.75 0 0] CT
0.149 GC
2 setlinecap
1 LJ
0.667 LW
N
73 271.1 M
77.34 271.1 L
S
GR
GS
[0.75 0 0 0.75 0 0] CT
0.149 GC
2 setlinecap
1 LJ
0.667 LW
N
73 236.8 M
77.34 236.8 L
S
GR
GS
[0.75 0 0 0.75 0 0] CT
0.149 GC
2 setlinecap
1 LJ
0.667 LW
N
73 202.5 M
77.34 202.5 L
S
GR
GS
[0.75 0 0 0.75 0 0] CT
0.149 GC
2 setlinecap
1 LJ
0.667 LW
N
73 168.2 M
77.34 168.2 L
S
GR
GS
[0.75 0 0 0.75 0 0] CT
0.149 GC
2 setlinecap
1 LJ
0.667 LW
N
73 133.9 M
77.34 133.9 L
S
GR
GS
[0.75 0 0 0.75 0 0] CT
0.149 GC
2 setlinecap
1 LJ
0.667 LW
N
73 99.6 M
77.34 99.6 L
S
GR
GS
[0.75 0 0 0.75 0 0] CT
0.149 GC
2 setlinecap
1 LJ
0.667 LW
N
73 65.3 M
77.34 65.3 L
S
GR
GS
[0.75 0 0 0.75 0 0] CT
0.149 GC
2 setlinecap
1 LJ
0.667 LW
N
73 31 M
77.34 31 L
S
GR
GS
[0.75 0 0 0.75 0 0] CT
0.149 GC
2 setlinecap
1 LJ
0.667 LW
N
507 374 M
502.66 374 L
S
GR
GS
[0.75 0 0 0.75 0 0] CT
0.149 GC
2 setlinecap
1 LJ
0.667 LW
N
507 339.7 M
502.66 339.7 L
S
GR
GS
[0.75 0 0 0.75 0 0] CT
0.149 GC
2 setlinecap
1 LJ
0.667 LW
N
507 305.4 M
502.66 305.4 L
S
GR
GS
[0.75 0 0 0.75 0 0] CT
0.149 GC
2 setlinecap
1 LJ
0.667 LW
N
507 271.1 M
502.66 271.1 L
S
GR
GS
[0.75 0 0 0.75 0 0] CT
0.149 GC
2 setlinecap
1 LJ
0.667 LW
N
507 236.8 M
502.66 236.8 L
S
GR
GS
[0.75 0 0 0.75 0 0] CT
0.149 GC
2 setlinecap
1 LJ
0.667 LW
N
507 202.5 M
502.66 202.5 L
S
GR
GS
[0.75 0 0 0.75 0 0] CT
0.149 GC
2 setlinecap
1 LJ
0.667 LW
N
507 168.2 M
502.66 168.2 L
S
GR
GS
[0.75 0 0 0.75 0 0] CT
0.149 GC
2 setlinecap
1 LJ
0.667 LW
N
507 133.9 M
502.66 133.9 L
S
GR
GS
[0.75 0 0 0.75 0 0] CT
0.149 GC
2 setlinecap
1 LJ
0.667 LW
N
507 99.6 M
502.66 99.6 L
S
GR
GS
[0.75 0 0 0.75 0 0] CT
0.149 GC
2 setlinecap
1 LJ
0.667 LW
N
507 65.3 M
502.66 65.3 L
S
GR
GS
[0.75 0 0 0.75 0 0] CT
0.149 GC
2 setlinecap
1 LJ
0.667 LW
N
507 31 M
502.66 31 L
S
GR
GS
[0.75 0 0 0.75 50.75001 280.5] CT
0.149 GC
/Helvetica 13.333 F
GS
[1 0 0 1 0 0] CT
-8 5.5 moveto 
1 -1 scale
(0) t 
GR
GR
GS
[0.75 0 0 0.75 50.75001 254.77501] CT
0.149 GC
/Helvetica 13.333 F
GS
[1 0 0 1 0 0] CT
-19 5.5 moveto 
1 -1 scale
(0.1) t 
GR
GR
GS
[0.75 0 0 0.75 50.75001 229.05] CT
0.149 GC
/Helvetica 13.333 F
GS
[1 0 0 1 0 0] CT
-19 5.5 moveto 
1 -1 scale
(0.2) t 
GR
GR
GS
[0.75 0 0 0.75 50.75001 203.325] CT
0.149 GC
/Helvetica 13.333 F
GS
[1 0 0 1 0 0] CT
-19 5.5 moveto 
1 -1 scale
(0.3) t 
GR
GR
GS
[0.75 0 0 0.75 50.75001 177.6] CT
0.149 GC
/Helvetica 13.333 F
GS
[1 0 0 1 0 0] CT
-19 5.5 moveto 
1 -1 scale
(0.4) t 
GR
GR
GS
[0.75 0 0 0.75 50.75001 151.875] CT
0.149 GC
/Helvetica 13.333 F
GS
[1 0 0 1 0 0] CT
-19 5.5 moveto 
1 -1 scale
(0.5) t 
GR
GR
GS
[0.75 0 0 0.75 50.75001 126.15] CT
0.149 GC
/Helvetica 13.333 F
GS
[1 0 0 1 0 0] CT
-19 5.5 moveto 
1 -1 scale
(0.6) t 
GR
GR
GS
[0.75 0 0 0.75 50.75001 100.42501] CT
0.149 GC
/Helvetica 13.333 F
GS
[1 0 0 1 0 0] CT
-19 5.5 moveto 
1 -1 scale
(0.7) t 
GR
GR
GS
[0.75 0 0 0.75 50.75001 74.7] CT
0.149 GC
/Helvetica 13.333 F
GS
[1 0 0 1 0 0] CT
-19 5.5 moveto 
1 -1 scale
(0.8) t 
GR
GR
GS
[0.75 0 0 0.75 50.75001 48.97501] CT
0.149 GC
/Helvetica 13.333 F
GS
[1 0 0 1 0 0] CT
-19 5.5 moveto 
1 -1 scale
(0.9) t 
GR
GR
GS
[0.75 0 0 0.75 50.75001 23.25] CT
0.149 GC
/Helvetica 13.333 F
GS
[1 0 0 1 0 0] CT
-8 5.5 moveto 
1 -1 scale
(1) t 
GR
GR
GS
[0.75 0 0 0.75 0 0] CT
1 LJ
0.667 LW
N
208.446 373.657 M
222.793 373.314 L
230.024 372.971 L
238.216 372.628 L
238.244 372.285 L
242.047 371.942 L
243.448 371.599 L
243.557 371.256 L
243.873 370.913 L
244.276 370.57 L
244.961 370.227 L
245.777 369.884 L
245.867 369.541 L
245.881 369.198 L
245.99 368.855 L
247.289 368.512 L
247.634 368.169 L
248.19 367.826 L
248.78 367.483 L
249.8 367.14 L
250.786 366.797 L
252.366 366.454 L
253.593 366.111 L
254.088 365.768 L
254.362 365.425 L
254.381 365.082 L
254.426 364.739 L
254.795 364.396 L
255.042 364.053 L
255.482 363.71 L
255.571 363.367 L
255.876 363.024 L
255.936 362.681 L
256.125 362.338 L
256.579 361.995 L
256.626 361.652 L
257 361.309 L
257.331 360.966 L
257.409 360.623 L
257.958 360.28 L
258.028 359.937 L
258.071 359.594 L
258.451 359.251 L
258.532 358.908 L
258.571 358.565 L
258.813 358.222 L
259.143 357.879 L
259.285 357.536 L
259.478 357.193 L
259.784 356.85 L
259.913 356.507 L
260.084 356.164 L
260.374 355.821 L
260.984 355.478 L
261.318 355.135 L
261.879 354.792 L
261.96 354.449 L
262.592 354.106 L
262.828 353.763 L
263.129 353.42 L
263.768 353.077 L
264.374 352.734 L
264.513 352.391 L
264.588 352.048 L
264.675 351.705 L
264.871 351.362 L
264.904 351.019 L
265.248 350.676 L
266.676 350.333 L
266.7 349.99 L
267.149 349.647 L
267.557 349.304 L
267.942 348.961 L
267.946 348.618 L
268.144 348.275 L
268.197 347.932 L
268.345 347.589 L
268.748 347.246 L
269.008 346.903 L
269.652 346.56 L
269.835 346.217 L
269.928 345.874 L
270.334 345.531 L
270.472 345.188 L
270.489 344.845 L
270.496 344.502 L
270.615 344.159 L
270.833 343.816 L
271.208 343.473 L
271.617 343.13 L
272.072 342.787 L
272.173 342.444 L
272.39 342.101 L
272.895 341.758 L
272.96 341.415 L
273.223 341.072 L
273.713 340.729 L
273.772 340.386 L
273.803 340.043 L
273.917 339.7 L
274.316 339.357 L
274.675 339.014 L
274.704 338.671 L
275.039 338.328 L
275.347 337.985 L
275.351 337.642 L
275.464 337.299 L
275.53 336.956 L
275.716 336.613 L
275.886 336.27 L
275.905 335.927 L
275.946 335.584 L
276.156 335.241 L
276.162 334.898 L
276.367 334.555 L
276.435 334.212 L
276.582 333.869 L
276.708 333.526 L
276.716 333.183 L
276.717 332.84 L
276.756 332.497 L
276.78 332.154 L
276.945 331.811 L
276.984 331.468 L
277.076 331.125 L
277.118 330.782 L
277.478 330.439 L
277.58 330.096 L
277.643 329.753 L
277.72 329.41 L
277.72 329.067 L
277.757 328.724 L
277.795 328.381 L
278.311 328.038 L
278.366 327.695 L
278.379 327.352 L
278.427 327.009 L
278.66 326.666 L
278.829 326.323 L
278.863 325.98 L
278.906 325.637 L
279.351 325.294 L
279.416 324.951 L
279.582 324.608 L
279.693 324.265 L
279.813 323.922 L
279.996 323.579 L
280.037 323.236 L
280.063 322.893 L
280.16 322.55 L
280.161 322.207 L
280.184 321.864 L
280.243 321.521 L
280.256 321.178 L
280.397 320.835 L
281.011 320.492 L
281.042 320.149 L
281.061 319.806 L
281.11 319.463 L
281.308 319.12 L
281.341 318.777 L
281.397 318.434 L
281.439 318.091 L
281.494 317.748 L
281.556 317.405 L
281.588 317.062 L
281.763 316.719 L
281.875 316.376 L
281.944 316.033 L
282.023 315.69 L
282.031 315.347 L
282.158 315.004 L
282.224 314.661 L
282.34 314.318 L
282.366 313.975 L
282.483 313.632 L
282.544 313.289 L
282.699 312.946 L
282.726 312.603 L
282.738 312.26 L
282.88 311.917 L
282.899 311.574 L
283.193 311.231 L
283.412 310.888 L
283.568 310.545 L
283.642 310.202 L
283.697 309.859 L
283.794 309.516 L
283.872 309.173 L
283.995 308.83 L
284.042 308.487 L
284.117 308.144 L
284.211 307.801 L
284.409 307.458 L
284.451 307.115 L
284.774 306.772 L
284.932 306.429 L
284.966 306.086 L
285.034 305.743 L
285.103 305.4 L
285.132 305.057 L
285.196 304.714 L
285.225 304.371 L
285.296 304.028 L
285.307 303.685 L
285.449 303.342 L
285.522 302.999 L
285.652 302.656 L
285.956 302.313 L
286.151 301.97 L
287.042 301.627 L
287.048 301.284 L
287.052 300.941 L
287.283 300.598 L
287.386 300.255 L
287.387 299.912 L
287.463 299.569 L
287.49 299.226 L
287.551 298.883 L
287.613 298.54 L
287.853 298.197 L
287.909 297.854 L
287.927 297.511 L
287.957 297.168 L
287.995 296.825 L
288.082 296.482 L
288.083 296.139 L
288.202 295.796 L
288.29 295.453 L
288.489 295.11 L
288.579 294.767 L
288.666 294.424 L
288.729 294.081 L
288.741 293.738 L
288.756 293.395 L
288.817 293.052 L
288.914 292.709 L
289.007 292.366 L
289.027 292.023 L
289.154 291.68 L
289.193 291.337 L
289.197 290.994 L
289.424 290.651 L
289.442 290.308 L
289.458 289.965 L
289.497 289.622 L
289.583 289.279 L
289.638 288.936 L
289.856 288.593 L
289.928 288.25 L
289.937 287.907 L
289.99 287.564 L
290.155 287.221 L
290.345 286.878 L
290.697 286.535 L
290.766 286.192 L
290.954 285.849 L
290.966 285.506 L
290.976 285.163 L
291.028 284.82 L
291.064 284.477 L
291.124 284.134 L
291.134 283.791 L
291.23 283.448 L
291.325 283.105 L
291.348 282.762 L
291.351 282.419 L
291.439 282.076 L
291.495 281.733 L
291.675 281.39 L
291.724 281.047 L
291.777 280.704 L
291.875 280.361 L
291.936 280.018 L
291.937 279.675 L
291.937 279.332 L
291.984 278.989 L
292.081 278.646 L
292.085 278.303 L
292.147 277.96 L
292.297 277.617 L
292.321 277.274 L
292.501 276.931 L
292.542 276.588 L
292.571 276.245 L
292.589 275.902 L
292.632 275.559 L
292.714 275.216 L
292.789 274.873 L
292.949 274.53 L
292.971 274.187 L
293.221 273.844 L
293.249 273.501 L
293.258 273.158 L
293.3 272.815 L
293.417 272.472 L
293.721 272.129 L
293.878 271.786 L
293.891 271.443 L
293.937 271.1 L
294.034 270.757 L
294.109 270.414 L
294.141 270.071 L
294.194 269.728 L
294.425 269.385 L
294.438 269.042 L
294.591 268.699 L
294.639 268.356 L
294.696 268.013 L
294.889 267.67 L
294.924 267.327 L
294.937 266.984 L
295.136 266.641 L
295.162 266.298 L
295.219 265.955 L
295.237 265.612 L
295.242 265.269 L
295.392 264.926 L
295.472 264.583 L
295.596 264.24 L
295.644 263.897 L
295.708 263.554 L
295.804 263.211 L
295.866 262.868 L
295.89 262.525 L
295.91 262.182 L
295.989 261.839 L
296.026 261.496 L
296.055 261.153 L
296.127 260.81 L
296.13 260.467 L
296.311 260.124 L
296.344 259.781 L
296.354 259.438 L
296.362 259.095 L
296.495 258.752 L
296.615 258.409 L
296.623 258.066 L
296.762 257.723 L
296.799 257.38 L
296.865 257.037 L
296.89 256.694 L
297.134 256.351 L
297.148 256.008 L
297.188 255.665 L
297.351 255.322 L
297.39 254.979 L
297.403 254.636 L
297.513 254.293 L
297.635 253.95 L
297.702 253.607 L
297.752 253.264 L
297.788 252.921 L
297.808 252.578 L
297.824 252.235 L
297.868 251.892 L
298.007 251.549 L
298.125 251.206 L
298.243 250.863 L
298.265 250.52 L
298.309 250.177 L
298.317 249.834 L
298.354 249.491 L
298.37 249.148 L
298.422 248.805 L
298.822 248.462 L
298.897 248.119 L
299.007 247.776 L
299.053 247.433 L
299.145 247.09 L
299.231 246.747 L
299.399 246.404 L
299.498 246.061 L
299.544 245.718 L
299.681 245.375 L
299.697 245.032 L
299.828 244.689 L
299.86 244.346 L
299.867 244.003 L
299.946 243.66 L
299.974 243.317 L
299.988 242.974 L
300.073 242.631 L
300.225 242.288 L
300.267 241.945 L
300.274 241.602 L
300.36 241.259 L
300.376 240.916 L
300.599 240.573 L
300.647 240.23 L
300.648 239.887 L
300.679 239.544 L
300.759 239.201 L
300.86 238.858 L
301.082 238.515 L
301.158 238.172 L
301.231 237.829 L
301.304 237.486 L
301.429 237.143 L
301.435 236.8 L
301.551 236.457 L
301.592 236.114 L
301.666 235.771 L
301.688 235.428 L
301.712 235.085 L
301.73 234.742 L
301.759 234.399 L
301.88 234.056 L
301.932 233.713 L
302.089 233.37 L
302.213 233.027 L
302.253 232.684 L
302.283 232.341 L
302.434 231.998 L
302.512 231.655 L
302.513 231.312 L
302.521 230.969 L
302.593 230.626 L
302.626 230.283 L
302.681 229.94 L
302.739 229.597 L
302.792 229.254 L
302.9 228.911 L
302.949 228.568 L
302.965 228.225 L
303.069 227.882 L
303.256 227.539 L
303.272 227.196 L
303.288 226.853 L
303.523 226.51 L
303.525 226.167 L
303.599 225.824 L
303.611 225.481 L
303.685 225.138 L
303.686 224.795 L
304 224.452 L
304.011 224.109 L
304.169 223.766 L
304.228 223.423 L
304.378 223.08 L
304.415 222.737 L
304.46 222.394 L
304.678 222.051 L
304.694 221.708 L
304.786 221.365 L
304.831 221.022 L
304.939 220.679 L
305.037 220.336 L
305.07 219.993 L
305.165 219.65 L
305.226 219.307 L
305.299 218.964 L
305.325 218.621 L
305.349 218.278 L
305.599 217.935 L
305.813 217.592 L
305.972 217.249 L
306.07 216.906 L
306.142 216.563 L
306.199 216.22 L
306.252 215.877 L
306.347 215.534 L
306.418 215.191 L
306.463 214.848 L
306.479 214.505 L
306.539 214.162 L
306.572 213.819 L
306.575 213.476 L
306.71 213.133 L
306.711 212.79 L
306.764 212.447 L
306.858 212.104 L
306.893 211.761 L
306.91 211.418 L
306.926 211.075 L
306.93 210.732 L
306.941 210.389 L
307.111 210.046 L
307.175 209.703 L
307.354 209.36 L
307.363 209.017 L
307.499 208.674 L
307.789 208.331 L
307.798 207.988 L
307.934 207.645 L
308.03 207.302 L
308.292 206.959 L
308.326 206.616 L
308.528 206.273 L
308.622 205.93 L
308.682 205.587 L
308.683 205.244 L
308.709 204.901 L
308.775 204.558 L
308.864 204.215 L
308.928 203.872 L
308.975 203.529 L
309.029 203.186 L
309.09 202.843 L
309.154 202.5 L
309.157 202.157 L
309.157 201.814 L
309.18 201.471 L
309.182 201.128 L
309.22 200.785 L
309.282 200.442 L
309.336 200.099 L
309.381 199.756 L
309.425 199.413 L
309.56 199.07 L
309.564 198.727 L
309.587 198.384 L
309.651 198.041 L
309.75 197.698 L
310.018 197.355 L
310.131 197.012 L
310.228 196.669 L
310.305 196.326 L
310.326 195.983 L
310.328 195.64 L
310.413 195.297 L
310.442 194.954 L
310.45 194.611 L
310.575 194.268 L
310.866 193.925 L
310.871 193.582 L
310.957 193.239 L
311.047 192.896 L
311.332 192.553 L
311.367 192.21 L
311.368 191.867 L
311.662 191.524 L
311.681 191.181 L
311.7 190.838 L
311.707 190.495 L
311.902 190.152 L
311.933 189.809 L
312.038 189.466 L
312.137 189.123 L
312.143 188.78 L
312.196 188.437 L
312.284 188.094 L
312.814 187.751 L
312.829 187.408 L
312.973 187.065 L
313.005 186.722 L
313.017 186.379 L
313.17 186.036 L
313.248 185.693 L
313.303 185.35 L
313.402 185.007 L
313.44 184.664 L
313.63 184.321 L
313.646 183.978 L
313.792 183.635 L
313.831 183.292 L
314.005 182.949 L
314.015 182.606 L
314.065 182.263 L
314.088 181.92 L
314.259 181.577 L
314.281 181.234 L
314.341 180.891 L
314.353 180.548 L
314.514 180.205 L
314.592 179.862 L
314.862 179.519 L
315.068 179.176 L
315.072 178.833 L
315.102 178.49 L
315.196 178.147 L
315.258 177.804 L
315.283 177.461 L
315.334 177.118 L
315.6 176.775 L
315.673 176.432 L
315.747 176.089 L
315.831 175.746 L
316.085 175.403 L
316.219 175.06 L
316.252 174.717 L
316.385 174.374 L
316.444 174.031 L
316.459 173.688 L
316.502 173.345 L
316.542 173.002 L
316.677 172.659 L
316.694 172.316 L
316.697 171.973 L
316.802 171.63 L
316.918 171.287 L
316.945 170.944 L
317.067 170.601 L
317.088 170.258 L
317.153 169.915 L
317.184 169.572 L
317.233 169.229 L
317.312 168.886 L
317.323 168.543 L
317.448 168.2 L
317.498 167.857 L
317.507 167.514 L
317.534 167.171 L
317.625 166.828 L
317.658 166.485 L
317.76 166.142 L
317.765 165.799 L
317.847 165.456 L
317.956 165.113 L
317.987 164.77 L
318.193 164.427 L
318.385 164.084 L
318.398 163.741 L
318.518 163.398 L
318.52 163.055 L
318.605 162.712 L
318.61 162.369 L
318.683 162.026 L
318.762 161.683 L
318.93 161.34 L
318.94 160.997 L
318.994 160.654 L
319.056 160.311 L
319.078 159.968 L
319.109 159.625 L
319.179 159.282 L
319.203 158.939 L
319.252 158.596 L
319.268 158.253 L
319.335 157.91 L
319.36 157.567 L
319.472 157.224 L
319.493 156.881 L
319.493 156.538 L
319.557 156.195 L
319.707 155.852 L
319.77 155.509 L
319.796 155.166 L
319.815 154.823 L
320.058 154.48 L
320.242 154.137 L
320.265 153.794 L
320.326 153.451 L
320.4 153.108 L
320.523 152.765 L
320.531 152.422 L
320.584 152.079 L
320.667 151.736 L
320.761 151.393 L
320.981 151.05 L
321.02 150.707 L
321.333 150.364 L
321.587 150.021 L
321.6 149.678 L
321.663 149.335 L
321.717 148.992 L
321.731 148.649 L
321.852 148.306 L
321.903 147.963 L
321.915 147.62 L
321.957 147.277 L
322.02 146.934 L
322.153 146.591 L
322.31 146.248 L
322.381 145.905 L
322.423 145.562 L
322.681 145.219 L
322.742 144.876 L
322.816 144.533 L
322.895 144.19 L
322.922 143.847 L
322.996 143.504 L
323.082 143.161 L
323.244 142.818 L
323.371 142.475 L
323.404 142.132 L
323.438 141.789 L
323.493 141.446 L
323.568 141.103 L
323.693 140.76 L
323.698 140.417 L
323.872 140.074 L
323.958 139.731 L
324.007 139.388 L
324.025 139.045 L
324.088 138.702 L
324.1 138.359 L
324.102 138.016 L
324.167 137.673 L
324.283 137.33 L
324.302 136.987 L
324.369 136.644 L
324.475 136.301 L
324.477 135.958 L
324.672 135.615 L
324.688 135.272 L
324.802 134.929 L
324.83 134.586 L
324.858 134.243 L
324.892 133.9 L
325.133 133.557 L
325.197 133.214 L
325.229 132.871 L
325.284 132.528 L
325.457 132.185 L
325.76 131.842 L
325.817 131.499 L
325.916 131.156 L
325.923 130.813 L
325.926 130.47 L
325.932 130.127 L
326.06 129.784 L
326.116 129.441 L
326.302 129.098 L
326.385 128.755 L
326.515 128.412 L
326.586 128.069 L
326.821 127.726 L
326.936 127.383 L
327.058 127.04 L
327.188 126.697 L
327.391 126.354 L
327.415 126.011 L
327.438 125.668 L
327.518 125.325 L
327.64 124.982 L
327.666 124.639 L
327.714 124.296 L
327.905 123.953 L
328.111 123.61 L
328.181 123.267 L
328.423 122.924 L
328.638 122.581 L
328.96 122.238 L
329.241 121.895 L
329.339 121.552 L
329.358 121.209 L
329.423 120.866 L
329.431 120.523 L
329.585 120.18 L
329.655 119.837 L
329.716 119.494 L
330.613 119.151 L
330.697 118.808 L
330.812 118.465 L
330.845 118.122 L
330.867 117.779 L
331.057 117.436 L
331.09 117.093 L
331.096 116.75 L
331.186 116.407 L
331.265 116.064 L
331.476 115.721 L
331.566 115.378 L
331.591 115.035 L
331.6 114.692 L
331.683 114.349 L
331.725 114.006 L
331.797 113.663 L
331.978 113.32 L
332.014 112.977 L
332.121 112.634 L
332.208 112.291 L
332.216 111.948 L
332.226 111.605 L
332.293 111.262 L
332.341 110.919 L
332.518 110.576 L
332.746 110.233 L
332.766 109.89 L
332.775 109.547 L
332.829 109.204 L
332.911 108.861 L
332.958 108.518 L
332.967 108.175 L
333.103 107.832 L
333.397 107.489 L
333.483 107.146 L
333.498 106.803 L
333.602 106.46 L
333.623 106.117 L
333.674 105.774 L
333.703 105.431 L
333.825 105.088 L
333.958 104.745 L
334.329 104.402 L
334.462 104.059 L
334.775 103.716 L
334.953 103.373 L
335.004 103.03 L
335.011 102.687 L
335.05 102.344 L
335.082 102.001 L
335.248 101.658 L
335.363 101.315 L
335.452 100.972 L
335.456 100.629 L
335.6 100.286 L
335.869 99.943 L
335.888 99.6 L
335.979 99.257 L
336.1 98.914 L
336.3 98.571 L
336.351 98.228 L
336.384 97.885 L
336.461 97.542 L
336.806 97.199 L
336.852 96.856 L
336.981 96.513 L
337.042 96.17 L
337.05 95.827 L
337.085 95.484 L
337.196 95.141 L
337.321 94.798 L
337.476 94.455 L
337.527 94.112 L
337.641 93.769 L
337.703 93.426 L
337.77 93.083 L
337.785 92.74 L
337.865 92.397 L
337.962 92.054 L
338.143 91.711 L
338.218 91.368 L
338.537 91.025 L
338.567 90.682 L
338.753 90.339 L
339.198 89.996 L
339.343 89.653 L
339.512 89.31 L
339.733 88.967 L
339.772 88.624 L
339.901 88.281 L
339.93 87.938 L
339.965 87.595 L
340.057 87.252 L
340.298 86.909 L
340.399 86.566 L
340.804 86.223 L
340.853 85.88 L
340.947 85.537 L
341.064 85.194 L
341.269 84.851 L
341.323 84.508 L
341.627 84.165 L
341.71 83.822 L
341.725 83.479 L
341.902 83.136 L
342.382 82.793 L
342.443 82.45 L
342.465 82.107 L
342.535 81.764 L
342.762 81.421 L
342.857 81.078 L
342.902 80.735 L
343.015 80.392 L
343.351 80.049 L
343.374 79.706 L
343.374 79.363 L
343.431 79.02 L
343.488 78.677 L
343.782 78.334 L
343.873 77.991 L
344.074 77.648 L
344.098 77.305 L
344.249 76.962 L
344.654 76.619 L
344.708 76.276 L
345.003 75.933 L
345.003 75.59 L
345.032 75.247 L
345.099 74.904 L
345.278 74.561 L
345.348 74.218 L
345.442 73.875 L
345.654 73.532 L
346.202 73.189 L
346.328 72.846 L
346.488 72.503 L
347.21 72.16 L
347.227 71.817 L
347.757 71.474 L
347.911 71.131 L
347.932 70.788 L
348.044 70.445 L
348.194 70.102 L
348.286 69.759 L
348.294 69.416 L
348.303 69.073 L
348.434 68.73 L
348.447 68.387 L
348.468 68.044 L
348.555 67.701 L
348.62 67.358 L
349.493 67.015 L
349.799 66.672 L
349.822 66.329 L
349.94 65.986 L
350.053 65.643 L
350.153 65.3 L
350.278 64.957 L
350.61 64.614 L
351.155 64.271 L
351.178 63.928 L
351.579 63.585 L
351.587 63.242 L
351.743 62.899 L
352.078 62.556 L
352.168 62.213 L
352.198 61.87 L
352.621 61.527 L
352.83 61.184 L
353.106 60.841 L
353.915 60.498 L
354.145 60.155 L
354.343 59.812 L
354.526 59.469 L
354.833 59.126 L
355.015 58.783 L
355.321 58.44 L
355.67 58.097 L
355.676 57.754 L
355.722 57.411 L
356.127 57.068 L
356.283 56.725 L
356.483 56.382 L
356.625 56.039 L
356.795 55.696 L
356.845 55.353 L
356.893 55.01 L
357.217 54.667 L
357.912 54.324 L
358.206 53.981 L
358.338 53.638 L
359.598 53.295 L
359.624 52.952 L
359.8 52.609 L
359.88 52.266 L
359.984 51.923 L
360.168 51.58 L
360.229 51.237 L
360.721 50.894 L
360.766 50.551 L
361.074 50.208 L
361.125 49.865 L
362.127 49.522 L
362.173 49.179 L
362.259 48.836 L
362.712 48.493 L
362.933 48.15 L
362.961 47.807 L
363.552 47.464 L
363.652 47.121 L
364.054 46.778 L
364.245 46.435 L
365.152 46.092 L
365.188 45.749 L
365.396 45.406 L
365.697 45.063 L
365.975 44.72 L
366.11 44.377 L
366.127 44.034 L
366.161 43.691 L
367.022 43.348 L
368.183 43.005 L
368.315 42.662 L
368.794 42.319 L
368.975 41.976 L
370.471 41.633 L
371.222 41.29 L
371.456 40.947 L
371.471 40.604 L
371.617 40.261 L
372.114 39.918 L
373.203 39.575 L
374.003 39.232 L
374.45 38.889 L
374.452 38.546 L
374.736 38.203 L
374.831 37.86 L
375.217 37.517 L
375.664 37.174 L
377.635 36.831 L
377.683 36.488 L
377.898 36.145 L
378.444 35.802 L
378.581 35.459 L
379.293 35.116 L
379.765 34.773 L
380.483 34.43 L
380.724 34.087 L
381.155 33.744 L
383.357 33.401 L
390.28 33.058 L
392.274 32.715 L
395.15 32.372 L
395.858 32.029 L
397.677 31.686 L
402.08 31.343 L
440.783 31 L
S
GR
GS
[0.75 0 0 0.75 0 0] CT
1 0 0 RC
1 LJ
0.667 LW
N
113.273 373.657 M
138.188 373.314 L
148.706 372.971 L
148.797 372.628 L
149.846 372.285 L
151.184 371.942 L
151.284 371.599 L
151.521 371.256 L
152.063 370.913 L
156.812 370.57 L
159.307 370.227 L
160.006 369.884 L
161.194 369.541 L
162.14 369.198 L
162.469 368.855 L
163.417 368.512 L
163.504 368.169 L
164.158 367.826 L
164.572 367.483 L
165.468 367.14 L
165.784 366.797 L
166.229 366.454 L
167.666 366.111 L
168.391 365.768 L
168.959 365.425 L
169.404 365.082 L
169.643 364.739 L
169.668 364.396 L
170.656 364.053 L
170.875 363.71 L
171.536 363.367 L
171.964 363.024 L
172.392 362.681 L
172.597 362.338 L
173.516 361.995 L
173.607 361.652 L
173.646 361.309 L
173.974 360.966 L
174.073 360.623 L
174.959 360.28 L
177.287 359.937 L
177.559 359.594 L
178.036 359.251 L
178.043 358.908 L
178.729 358.565 L
180.075 358.222 L
180.111 357.879 L
180.263 357.536 L
180.517 357.193 L
180.786 356.85 L
180.863 356.507 L
181.645 356.164 L
181.857 355.821 L
182.046 355.478 L
182.198 355.135 L
182.767 354.792 L
183.302 354.449 L
183.844 354.106 L
183.989 353.763 L
184.043 353.42 L
184.47 353.077 L
184.554 352.734 L
185.597 352.391 L
186.25 352.048 L
186.348 351.705 L
186.51 351.362 L
186.691 351.019 L
186.728 350.676 L
186.975 350.333 L
187.622 349.99 L
188.141 349.647 L
188.216 349.304 L
188.417 348.961 L
188.565 348.618 L
188.66 348.275 L
188.852 347.932 L
189.269 347.589 L
189.325 347.246 L
189.361 346.903 L
189.46 346.56 L
189.61 346.217 L
189.918 345.874 L
189.974 345.531 L
190.261 345.188 L
190.337 344.845 L
190.688 344.502 L
190.918 344.159 L
191.454 343.816 L
191.548 343.473 L
191.826 343.13 L
191.891 342.787 L
191.978 342.444 L
192.215 342.101 L
192.539 341.758 L
192.562 341.415 L
192.577 341.072 L
193.323 340.729 L
193.563 340.386 L
193.743 340.043 L
194.15 339.7 L
195.086 339.357 L
195.232 339.014 L
195.77 338.671 L
196.041 338.328 L
196.409 337.985 L
196.429 337.642 L
196.466 337.299 L
196.78 336.956 L
197.16 336.613 L
197.473 336.27 L
197.606 335.927 L
197.793 335.584 L
198.084 335.241 L
198.237 334.898 L
198.297 334.555 L
198.445 334.212 L
198.489 333.869 L
198.564 333.526 L
198.659 333.183 L
198.664 332.84 L
199.415 332.497 L
199.848 332.154 L
199.951 331.811 L
200.169 331.468 L
200.645 331.125 L
201.031 330.782 L
201.061 330.439 L
201.419 330.096 L
201.568 329.753 L
201.613 329.41 L
201.982 329.067 L
202.107 328.724 L
202.246 328.381 L
202.333 328.038 L
202.405 327.695 L
202.424 327.352 L
202.505 327.009 L
203.163 326.666 L
203.302 326.323 L
203.328 325.98 L
203.339 325.637 L
203.383 325.294 L
203.839 324.951 L
203.855 324.608 L
204.283 324.265 L
204.803 323.922 L
204.872 323.579 L
204.885 323.236 L
204.953 322.893 L
205.087 322.55 L
205.523 322.207 L
205.773 321.864 L
205.996 321.521 L
206.092 321.178 L
206.31 320.835 L
206.444 320.492 L
206.968 320.149 L
207.109 319.806 L
207.15 319.463 L
207.28 319.12 L
207.369 318.777 L
207.405 318.434 L
207.755 318.091 L
207.815 317.748 L
207.9 317.405 L
208.157 317.062 L
208.529 316.719 L
208.742 316.376 L
208.746 316.033 L
208.757 315.69 L
209.146 315.347 L
209.263 315.004 L
209.317 314.661 L
209.7 314.318 L
209.897 313.975 L
210.237 313.632 L
210.26 313.289 L
210.328 312.946 L
210.4 312.603 L
210.528 312.26 L
210.834 311.917 L
210.861 311.574 L
211.24 311.231 L
211.478 310.888 L
211.589 310.545 L
212.108 310.202 L
212.434 309.859 L
212.717 309.516 L
212.809 309.173 L
213.083 308.83 L
213.228 308.487 L
213.289 308.144 L
213.77 307.801 L
213.87 307.458 L
214.182 307.115 L
214.19 306.772 L
214.245 306.429 L
214.293 306.086 L
214.359 305.743 L
214.42 305.4 L
214.607 305.057 L
214.726 304.714 L
214.921 304.371 L
214.967 304.028 L
215.098 303.685 L
215.428 303.342 L
215.76 302.999 L
215.899 302.656 L
216.183 302.313 L
216.299 301.97 L
216.38 301.627 L
216.615 301.284 L
216.656 300.941 L
216.689 300.598 L
216.782 300.255 L
216.809 299.912 L
216.881 299.569 L
216.963 299.226 L
217.082 298.883 L
217.287 298.54 L
217.291 298.197 L
217.335 297.854 L
217.666 297.511 L
217.71 297.168 L
217.719 296.825 L
217.876 296.482 L
217.894 296.139 L
217.895 295.796 L
217.95 295.453 L
217.982 295.11 L
218.022 294.767 L
218.079 294.424 L
218.161 294.081 L
218.324 293.738 L
218.443 293.395 L
218.45 293.052 L
218.464 292.709 L
218.555 292.366 L
218.863 292.023 L
218.98 291.68 L
219.135 291.337 L
219.335 290.994 L
219.743 290.651 L
219.744 290.308 L
219.842 289.965 L
219.856 289.622 L
219.898 289.279 L
219.937 288.936 L
219.992 288.593 L
220.136 288.25 L
220.455 287.907 L
220.58 287.564 L
220.775 287.221 L
220.889 286.878 L
220.953 286.535 L
221.034 286.192 L
221.207 285.849 L
221.407 285.506 L
221.471 285.163 L
221.511 284.82 L
221.794 284.477 L
221.916 284.134 L
221.998 283.791 L
222.194 283.448 L
222.204 283.105 L
222.269 282.762 L
222.744 282.419 L
222.933 282.076 L
222.945 281.733 L
223.069 281.39 L
223.13 281.047 L
223.159 280.704 L
223.282 280.361 L
223.969 280.018 L
224.074 279.675 L
224.219 279.332 L
224.391 278.989 L
224.433 278.646 L
224.53 278.303 L
225.127 277.96 L
225.144 277.617 L
225.154 277.274 L
225.361 276.931 L
225.371 276.588 L
225.379 276.245 L
225.446 275.902 L
225.524 275.559 L
225.575 275.216 L
225.733 274.873 L
225.811 274.53 L
226.099 274.187 L
226.51 273.844 L
226.623 273.501 L
226.986 273.158 L
227.026 272.815 L
227.094 272.472 L
227.234 272.129 L
227.3 271.786 L
227.45 271.443 L
227.52 271.1 L
227.591 270.757 L
227.78 270.414 L
227.911 270.071 L
228.069 269.728 L
228.251 269.385 L
228.428 269.042 L
228.516 268.699 L
228.56 268.356 L
228.595 268.013 L
228.641 267.67 L
228.646 267.327 L
228.646 266.984 L
228.741 266.641 L
229.052 266.298 L
229.058 265.955 L
229.48 265.612 L
229.599 265.269 L
230.034 264.926 L
230.321 264.583 L
230.433 264.24 L
230.45 263.897 L
230.5 263.554 L
230.571 263.211 L
230.594 262.868 L
230.906 262.525 L
230.938 262.182 L
231.09 261.839 L
231.098 261.496 L
231.101 261.153 L
231.297 260.81 L
231.298 260.467 L
231.328 260.124 L
231.399 259.781 L
231.455 259.438 L
231.818 259.095 L
231.853 258.752 L
231.955 258.409 L
232.151 258.066 L
232.286 257.723 L
232.335 257.38 L
232.558 257.037 L
232.565 256.694 L
232.819 256.351 L
232.935 256.008 L
233.056 255.665 L
233.104 255.322 L
233.29 254.979 L
233.402 254.636 L
233.53 254.293 L
233.682 253.95 L
233.771 253.607 L
233.892 253.264 L
234.207 252.921 L
234.355 252.578 L
234.366 252.235 L
234.476 251.892 L
234.488 251.549 L
234.562 251.206 L
234.694 250.863 L
234.732 250.52 L
234.747 250.177 L
235.02 249.834 L
235.401 249.491 L
235.411 249.148 L
235.516 248.805 L
235.587 248.462 L
235.607 248.119 L
235.849 247.776 L
235.866 247.433 L
236.113 247.09 L
236.126 246.747 L
236.562 246.404 L
236.823 246.061 L
236.849 245.718 L
236.997 245.375 L
237.099 245.032 L
237.179 244.689 L
237.412 244.346 L
237.592 244.003 L
237.607 243.66 L
237.669 243.317 L
237.775 242.974 L
237.927 242.631 L
238.762 242.288 L
239.069 241.945 L
239.167 241.602 L
239.299 241.259 L
239.48 240.916 L
239.836 240.573 L
239.993 240.23 L
240.061 239.887 L
240.099 239.544 L
240.204 239.201 L
240.206 238.858 L
240.292 238.515 L
240.401 238.172 L
240.403 237.829 L
240.454 237.486 L
240.699 237.143 L
240.817 236.8 L
240.821 236.457 L
240.885 236.114 L
240.922 235.771 L
240.969 235.428 L
241.19 235.085 L
241.391 234.742 L
241.446 234.399 L
241.451 234.056 L
241.785 233.713 L
241.822 233.37 L
241.948 233.027 L
242.102 232.684 L
242.287 232.341 L
242.579 231.998 L
242.605 231.655 L
242.726 231.312 L
242.783 230.969 L
242.959 230.626 L
242.991 230.283 L
243.208 229.94 L
243.214 229.597 L
243.568 229.254 L
243.653 228.911 L
243.672 228.568 L
243.683 228.225 L
243.932 227.882 L
244.194 227.539 L
244.197 227.196 L
244.251 226.853 L
244.292 226.51 L
244.303 226.167 L
244.334 225.824 L
244.391 225.481 L
244.566 225.138 L
244.592 224.795 L
244.659 224.452 L
244.729 224.109 L
244.876 223.766 L
244.977 223.423 L
245.164 223.08 L
245.177 222.737 L
245.185 222.394 L
245.416 222.051 L
245.483 221.708 L
245.512 221.365 L
245.711 221.022 L
245.762 220.679 L
245.904 220.336 L
245.917 219.993 L
246.012 219.65 L
246.079 219.307 L
246.449 218.964 L
246.739 218.621 L
246.785 218.278 L
246.814 217.935 L
246.838 217.592 L
246.852 217.249 L
246.929 216.906 L
247.076 216.563 L
247.359 216.22 L
247.42 215.877 L
247.546 215.534 L
247.604 215.191 L
247.708 214.848 L
247.746 214.505 L
247.762 214.162 L
247.912 213.819 L
248.519 213.476 L
248.736 213.133 L
248.855 212.79 L
249.189 212.447 L
249.216 212.104 L
249.494 211.761 L
249.737 211.418 L
249.777 211.075 L
249.981 210.732 L
250.098 210.389 L
250.2 210.046 L
250.206 209.703 L
250.243 209.36 L
250.319 209.017 L
250.531 208.674 L
250.563 208.331 L
250.908 207.988 L
251.069 207.645 L
251.241 207.302 L
251.272 206.959 L
251.344 206.616 L
251.391 206.273 L
251.459 205.93 L
251.554 205.587 L
252.012 205.244 L
252.188 204.901 L
252.213 204.558 L
252.396 204.215 L
252.448 203.872 L
252.699 203.529 L
252.84 203.186 L
252.945 202.843 L
252.978 202.5 L
252.981 202.157 L
252.986 201.814 L
253.052 201.471 L
253.261 201.128 L
253.739 200.785 L
253.793 200.442 L
254.017 200.099 L
254.159 199.756 L
254.255 199.413 L
254.319 199.07 L
254.355 198.727 L
254.601 198.384 L
254.667 198.041 L
254.865 197.698 L
254.983 197.355 L
255.173 197.012 L
255.296 196.669 L
255.401 196.326 L
255.476 195.983 L
255.542 195.64 L
255.65 195.297 L
255.686 194.954 L
255.803 194.611 L
255.897 194.268 L
255.917 193.925 L
255.919 193.582 L
256.018 193.239 L
256.087 192.896 L
256.09 192.553 L
256.193 192.21 L
256.262 191.867 L
256.334 191.524 L
256.448 191.181 L
256.497 190.838 L
256.795 190.495 L
256.807 190.152 L
256.888 189.809 L
256.893 189.466 L
257.27 189.123 L
257.275 188.78 L
257.794 188.437 L
257.857 188.094 L
257.971 187.751 L
258.017 187.408 L
258.055 187.065 L
258.274 186.722 L
258.317 186.379 L
258.345 186.036 L
258.347 185.693 L
258.379 185.35 L
258.382 185.007 L
258.791 184.664 L
258.885 184.321 L
258.916 183.978 L
259.087 183.635 L
259.402 183.292 L
259.469 182.949 L
259.706 182.606 L
259.855 182.263 L
259.871 181.92 L
260.075 181.577 L
260.454 181.234 L
260.495 180.891 L
260.533 180.548 L
260.569 180.205 L
260.634 179.862 L
260.692 179.519 L
260.706 179.176 L
261.037 178.833 L
261.094 178.49 L
261.099 178.147 L
261.335 177.804 L
261.501 177.461 L
261.517 177.118 L
261.559 176.775 L
261.642 176.432 L
261.825 176.089 L
261.883 175.746 L
261.962 175.403 L
262.02 175.06 L
262.027 174.717 L
262.199 174.374 L
262.315 174.031 L
262.546 173.688 L
262.869 173.345 L
262.893 173.002 L
263.146 172.659 L
263.22 172.316 L
263.684 171.973 L
263.723 171.63 L
263.958 171.287 L
263.958 170.944 L
264.145 170.601 L
264.229 170.258 L
264.236 169.915 L
264.356 169.572 L
264.367 169.229 L
264.408 168.886 L
264.481 168.543 L
264.622 168.2 L
264.65 167.857 L
264.68 167.514 L
264.732 167.171 L
264.735 166.828 L
264.739 166.485 L
264.775 166.142 L
264.917 165.799 L
264.93 165.456 L
264.932 165.113 L
265.361 164.77 L
265.402 164.427 L
265.54 164.084 L
265.619 163.741 L
266.001 163.398 L
266.124 163.055 L
266.17 162.712 L
266.315 162.369 L
266.337 162.026 L
266.364 161.683 L
266.475 161.34 L
266.699 160.997 L
266.789 160.654 L
266.97 160.311 L
267.04 159.968 L
267.101 159.625 L
267.367 159.282 L
267.609 158.939 L
267.657 158.596 L
267.755 158.253 L
267.926 157.91 L
268.207 157.567 L
268.29 157.224 L
268.377 156.881 L
268.384 156.538 L
268.405 156.195 L
268.441 155.852 L
268.539 155.509 L
268.595 155.166 L
268.663 154.823 L
268.846 154.48 L
268.879 154.137 L
269.014 153.794 L
269.424 153.451 L
269.477 153.108 L
269.748 152.765 L
269.822 152.422 L
269.967 152.079 L
270.237 151.736 L
270.363 151.393 L
270.794 151.05 L
270.856 150.707 L
270.891 150.364 L
271.06 150.021 L
271.063 149.678 L
271.679 149.335 L
271.714 148.992 L
271.722 148.649 L
271.836 148.306 L
271.938 147.963 L
272.005 147.62 L
272.069 147.277 L
272.298 146.934 L
272.934 146.591 L
273.207 146.248 L
273.374 145.905 L
273.427 145.562 L
273.626 145.219 L
273.636 144.876 L
273.796 144.533 L
273.889 144.19 L
274.021 143.847 L
274.151 143.504 L
274.591 143.161 L
274.61 142.818 L
274.931 142.475 L
274.94 142.132 L
275.065 141.789 L
275.083 141.446 L
275.105 141.103 L
275.181 140.76 L
275.225 140.417 L
275.337 140.074 L
275.567 139.731 L
275.677 139.388 L
275.699 139.045 L
275.825 138.702 L
276.049 138.359 L
276.678 138.016 L
276.868 137.673 L
277.106 137.33 L
277.272 136.987 L
277.318 136.644 L
277.405 136.301 L
277.82 135.958 L
277.952 135.615 L
278.265 135.272 L
278.351 134.929 L
278.509 134.586 L
278.593 134.243 L
278.599 133.9 L
278.713 133.557 L
278.73 133.214 L
278.785 132.871 L
278.972 132.528 L
279.058 132.185 L
279.199 131.842 L
279.316 131.499 L
279.411 131.156 L
279.449 130.813 L
279.454 130.47 L
279.83 130.127 L
279.87 129.784 L
280.057 129.441 L
280.108 129.098 L
280.135 128.755 L
280.179 128.412 L
280.36 128.069 L
280.791 127.726 L
280.856 127.383 L
280.863 127.04 L
281.019 126.697 L
281.049 126.354 L
281.18 126.011 L
281.291 125.668 L
281.328 125.325 L
281.533 124.982 L
281.878 124.639 L
281.938 124.296 L
282.11 123.953 L
282.406 123.61 L
282.844 123.267 L
283.734 122.924 L
284.685 122.581 L
284.842 122.238 L
284.909 121.895 L
284.916 121.552 L
284.941 121.209 L
285.172 120.866 L
285.281 120.523 L
285.671 120.18 L
285.872 119.837 L
286.007 119.494 L
286.078 119.151 L
286.09 118.808 L
286.135 118.465 L
286.169 118.122 L
286.341 117.779 L
286.433 117.436 L
286.804 117.093 L
286.844 116.75 L
286.903 116.407 L
286.96 116.064 L
287.046 115.721 L
287.334 115.378 L
287.534 115.035 L
287.793 114.692 L
288.067 114.349 L
288.407 114.006 L
288.841 113.663 L
288.95 113.32 L
289.402 112.977 L
289.469 112.634 L
289.492 112.291 L
290.373 111.948 L
290.84 111.605 L
291.001 111.262 L
291.046 110.919 L
291.167 110.576 L
291.269 110.233 L
291.307 109.89 L
291.321 109.547 L
291.324 109.204 L
291.33 108.861 L
291.537 108.518 L
292.088 108.175 L
292.217 107.832 L
292.234 107.489 L
292.303 107.146 L
292.325 106.803 L
292.355 106.46 L
292.467 106.117 L
292.494 105.774 L
292.496 105.431 L
292.579 105.088 L
293.403 104.745 L
293.798 104.402 L
293.917 104.059 L
294.148 103.716 L
294.198 103.373 L
294.262 103.03 L
294.341 102.687 L
294.355 102.344 L
294.86 102.001 L
295.065 101.658 L
295.072 101.315 L
295.172 100.972 L
295.455 100.629 L
295.672 100.286 L
296.044 99.943 L
296.046 99.6 L
296.592 99.257 L
296.76 98.914 L
296.784 98.571 L
296.954 98.228 L
297.018 97.885 L
297.068 97.542 L
297.119 97.199 L
297.143 96.856 L
297.222 96.513 L
297.25 96.17 L
297.307 95.827 L
297.92 95.484 L
298.484 95.141 L
299.218 94.798 L
299.607 94.455 L
299.899 94.112 L
299.987 93.769 L
300.014 93.426 L
300.061 93.083 L
300.398 92.74 L
300.745 92.397 L
301.111 92.054 L
301.203 91.711 L
301.299 91.368 L
301.355 91.025 L
301.503 90.682 L
301.844 90.339 L
302.073 89.996 L
302.1 89.653 L
302.264 89.31 L
302.745 88.967 L
302.75 88.624 L
302.777 88.281 L
303.724 87.938 L
303.769 87.595 L
304.088 87.252 L
304.101 86.909 L
304.107 86.566 L
304.406 86.223 L
304.486 85.88 L
305.027 85.537 L
305.097 85.194 L
305.339 84.851 L
305.932 84.508 L
305.992 84.165 L
306.162 83.822 L
306.274 83.479 L
306.48 83.136 L
306.516 82.793 L
306.744 82.45 L
306.867 82.107 L
307.128 81.764 L
307.169 81.421 L
307.664 81.078 L
308.091 80.735 L
308.253 80.392 L
308.838 80.049 L
309.557 79.706 L
309.902 79.363 L
310.037 79.02 L
310.182 78.677 L
310.193 78.334 L
310.3 77.991 L
310.54 77.648 L
310.58 77.305 L
310.686 76.962 L
310.846 76.619 L
310.877 76.276 L
310.894 75.933 L
311.231 75.59 L
311.833 75.247 L
312.054 74.904 L
312.288 74.561 L
313.316 74.218 L
313.504 73.875 L
314.003 73.532 L
314.144 73.189 L
314.813 72.846 L
314.897 72.503 L
314.905 72.16 L
315.197 71.817 L
315.238 71.474 L
315.627 71.131 L
316.63 70.788 L
316.737 70.445 L
316.839 70.102 L
316.936 69.759 L
317.169 69.416 L
317.367 69.073 L
317.372 68.73 L
317.433 68.387 L
317.453 68.044 L
317.895 67.701 L
318.082 67.358 L
318.127 67.015 L
318.236 66.672 L
318.615 66.329 L
318.656 65.986 L
318.723 65.643 L
319.115 65.3 L
319.328 64.957 L
319.771 64.614 L
319.84 64.271 L
319.938 63.928 L
321.057 63.585 L
321.294 63.242 L
321.642 62.899 L
321.874 62.556 L
322.157 62.213 L
322.262 61.87 L
322.29 61.527 L
322.448 61.184 L
322.669 60.841 L
322.965 60.498 L
323.224 60.155 L
323.393 59.812 L
324.026 59.469 L
324.385 59.126 L
325.192 58.783 L
326.284 58.44 L
326.363 58.097 L
326.523 57.754 L
326.583 57.411 L
326.755 57.068 L
328.929 56.725 L
329.083 56.382 L
329.369 56.039 L
329.478 55.696 L
329.662 55.353 L
330.258 55.01 L
330.333 54.667 L
331.346 54.324 L
331.46 53.981 L
331.492 53.638 L
331.532 53.295 L
332.303 52.952 L
332.316 52.609 L
333.518 52.266 L
334.104 51.923 L
334.343 51.58 L
335.47 51.237 L
335.557 50.894 L
335.886 50.551 L
336.03 50.208 L
336.313 49.865 L
336.315 49.522 L
337.499 49.179 L
338.197 48.836 L
339.219 48.493 L
339.46 48.15 L
339.484 47.807 L
339.982 47.464 L
342.438 47.121 L
343.307 46.778 L
343.894 46.435 L
343.977 46.092 L
344.828 45.749 L
345.174 45.406 L
346.254 45.063 L
347.386 44.72 L
348.324 44.377 L
350.486 44.034 L
350.586 43.691 L
350.931 43.348 L
351.337 43.005 L
351.357 42.662 L
351.402 42.319 L
353.345 41.976 L
356.417 41.633 L
357.263 41.29 L
357.264 40.947 L
359.461 40.604 L
359.658 40.261 L
359.912 39.918 L
360.021 39.575 L
360.814 39.232 L
361.676 38.889 L
363.947 38.546 L
364.179 38.203 L
366.86 37.86 L
371.249 37.517 L
371.729 37.174 L
374.086 36.831 L
374.992 36.488 L
375.018 36.145 L
375.159 35.802 L
375.723 35.459 L
376.571 35.116 L
377.586 34.773 L
382.752 34.43 L
384.282 34.087 L
384.553 33.744 L
384.856 33.401 L
387.437 33.058 L
391.318 32.715 L
405.339 32.372 L
406.054 32.029 L
410.573 31.686 L
423.032 31.343 L
445.889 31 L
S
GR
%%Trailer
%%Pages: 1
%%EOF
