%!PS-Adobe-3.0 EPSF-3.0
%%Creator: (MATLAB, The Mathworks, Inc. Version 9.12.0.2009381 \(R2022a\) Update 4. Operating System: Windows 10)
%%Title: ./unreg-vs-pca625_ton_cumulative.eps
%%CreationDate: 2023-04-17T11:34:24
%%Pages: (atend)
%%BoundingBox:    36    19   387   295
%%LanguageLevel: 3
%%EndComments
%%BeginProlog
%%BeginResource: procset (Apache XML Graphics Std ProcSet) 1.2 0
%%Version: 1.2 0
%%Copyright: (Copyright 2001-2003,2010 The Apache Software Foundation. License terms: http://www.apache.org/licenses/LICENSE-2.0)
/bd{bind def}bind def
/ld{load def}bd
/GR/grestore ld
/GS/gsave ld
/RM/rmoveto ld
/C/curveto ld
/t/show ld
/L/lineto ld
/ML/setmiterlimit ld
/CT/concat ld
/f/fill ld
/N/newpath ld
/S/stroke ld
/CC/setcmykcolor ld
/A/ashow ld
/cp/closepath ld
/RC/setrgbcolor ld
/LJ/setlinejoin ld
/GC/setgray ld
/LW/setlinewidth ld
/M/moveto ld
/re {4 2 roll M
1 index 0 rlineto
0 exch rlineto
neg 0 rlineto
cp } bd
/_ctm matrix def
/_tm matrix def
/BT { _ctm currentmatrix pop matrix _tm copy pop 0 0 moveto } bd
/ET { _ctm setmatrix } bd
/iTm { _ctm setmatrix _tm concat } bd
/Tm { _tm astore pop iTm 0 0 moveto } bd
/ux 0.0 def
/uy 0.0 def
/F {
  /Tp exch def
  /Tf exch def
  Tf findfont Tp scalefont setfont
  /cf Tf def  /cs Tp def
} bd
/ULS {currentpoint /uy exch def /ux exch def} bd
/ULE {
  /Tcx currentpoint pop def
  gsave
  newpath
  cf findfont cs scalefont dup
  /FontMatrix get 0 get /Ts exch def /FontInfo get dup
  /UnderlinePosition get Ts mul /To exch def
  /UnderlineThickness get Ts mul /Tt exch def
  ux uy To add moveto  Tcx uy To add lineto
  Tt setlinewidth stroke
  grestore
} bd
/OLE {
  /Tcx currentpoint pop def
  gsave
  newpath
  cf findfont cs scalefont dup
  /FontMatrix get 0 get /Ts exch def /FontInfo get dup
  /UnderlinePosition get Ts mul /To exch def
  /UnderlineThickness get Ts mul /Tt exch def
  ux uy To add cs add moveto Tcx uy To add cs add lineto
  Tt setlinewidth stroke
  grestore
} bd
/SOE {
  /Tcx currentpoint pop def
  gsave
  newpath
  cf findfont cs scalefont dup
  /FontMatrix get 0 get /Ts exch def /FontInfo get dup
  /UnderlinePosition get Ts mul /To exch def
  /UnderlineThickness get Ts mul /Tt exch def
  ux uy To add cs 10 mul 26 idiv add moveto Tcx uy To add cs 10 mul 26 idiv add lineto
  Tt setlinewidth stroke
  grestore
} bd
/QT {
/Y22 exch store
/X22 exch store
/Y21 exch store
/X21 exch store
currentpoint
/Y21 load 2 mul add 3 div exch
/X21 load 2 mul add 3 div exch
/X21 load 2 mul /X22 load add 3 div
/Y21 load 2 mul /Y22 load add 3 div
/X22 load /Y22 load curveto
} bd
/SSPD {
dup length /d exch dict def
{
/v exch def
/k exch def
currentpagedevice k known {
/cpdv currentpagedevice k get def
v cpdv ne {
/upd false def
/nullv v type /nulltype eq def
/nullcpdv cpdv type /nulltype eq def
nullv nullcpdv or
{
/upd true def
} {
/sametype v type cpdv type eq def
sametype {
v type /arraytype eq {
/vlen v length def
/cpdvlen cpdv length def
vlen cpdvlen eq {
0 1 vlen 1 sub {
/i exch def
/obj v i get def
/cpdobj cpdv i get def
obj cpdobj ne {
/upd true def
exit
} if
} for
} {
/upd true def
} ifelse
} {
v type /dicttype eq {
v {
/dv exch def
/dk exch def
/cpddv cpdv dk get def
dv cpddv ne {
/upd true def
exit
} if
} forall
} {
/upd true def
} ifelse
} ifelse
} if
} ifelse
upd true eq {
d k v put
} if
} if
} if
} forall
d length 0 gt {
d setpagedevice
} if
} bd
/RE { % /NewFontName [NewEncodingArray] /FontName RE -
  findfont dup length dict begin
  {
    1 index /FID ne
    {def} {pop pop} ifelse
  } forall
  /Encoding exch def
  /FontName 1 index def
  currentdict definefont pop
  end
} bind def
%%EndResource
%%BeginResource: procset (Apache XML Graphics EPS ProcSet) 1.0 0
%%Version: 1.0 0
%%Copyright: (Copyright 2002-2003 The Apache Software Foundation. License terms: http://www.apache.org/licenses/LICENSE-2.0)
/BeginEPSF { %def
/b4_Inc_state save def         % Save state for cleanup
/dict_count countdictstack def % Count objects on dict stack
/op_count count 1 sub def      % Count objects on operand stack
userdict begin                 % Push userdict on dict stack
/showpage { } def              % Redefine showpage, { } = null proc
0 setgray 0 setlinecap         % Prepare graphics state
1 setlinewidth 0 setlinejoin
10 setmiterlimit [ ] 0 setdash newpath
/languagelevel where           % If level not equal to 1 then
{pop languagelevel             % set strokeadjust and
1 ne                           % overprint to their defaults.
{false setstrokeadjust false setoverprint
} if
} if
} bd
/EndEPSF { %def
count op_count sub {pop} repeat            % Clean up stacks
countdictstack dict_count sub {end} repeat
b4_Inc_state restore
} bd
%%EndResource
%FOPBeginFontDict
%%IncludeResource: font Courier-Oblique
%%IncludeResource: font Courier-BoldOblique
%%IncludeResource: font Courier-Bold
%%IncludeResource: font ZapfDingbats
%%IncludeResource: font Symbol
%%IncludeResource: font Helvetica
%%IncludeResource: font Helvetica-Oblique
%%IncludeResource: font Helvetica-Bold
%%IncludeResource: font Helvetica-BoldOblique
%%IncludeResource: font Times-Roman
%%IncludeResource: font Times-Italic
%%IncludeResource: font Times-Bold
%%IncludeResource: font Times-BoldItalic
%%IncludeResource: font Courier
%FOPEndFontDict
%%BeginResource: encoding WinAnsiEncoding
/WinAnsiEncoding [
/.notdef /.notdef /.notdef /.notdef /.notdef
/.notdef /.notdef /.notdef /.notdef /.notdef
/.notdef /.notdef /.notdef /.notdef /.notdef
/.notdef /.notdef /.notdef /.notdef /.notdef
/.notdef /.notdef /.notdef /.notdef /.notdef
/.notdef /.notdef /.notdef /.notdef /.notdef
/.notdef /.notdef /space /exclam /quotedbl
/numbersign /dollar /percent /ampersand /quotesingle
/parenleft /parenright /asterisk /plus /comma
/hyphen /period /slash /zero /one
/two /three /four /five /six
/seven /eight /nine /colon /semicolon
/less /equal /greater /question /at
/A /B /C /D /E
/F /G /H /I /J
/K /L /M /N /O
/P /Q /R /S /T
/U /V /W /X /Y
/Z /bracketleft /backslash /bracketright /asciicircum
/underscore /quoteleft /a /b /c
/d /e /f /g /h
/i /j /k /l /m
/n /o /p /q /r
/s /t /u /v /w
/x /y /z /braceleft /bar
/braceright /asciitilde /bullet /Euro /bullet
/quotesinglbase /florin /quotedblbase /ellipsis /dagger
/daggerdbl /circumflex /perthousand /Scaron /guilsinglleft
/OE /bullet /Zcaron /bullet /bullet
/quoteleft /quoteright /quotedblleft /quotedblright /bullet
/endash /emdash /asciitilde /trademark /scaron
/guilsinglright /oe /bullet /zcaron /Ydieresis
/space /exclamdown /cent /sterling /currency
/yen /brokenbar /section /dieresis /copyright
/ordfeminine /guillemotleft /logicalnot /sfthyphen /registered
/macron /degree /plusminus /twosuperior /threesuperior
/acute /mu /paragraph /middot /cedilla
/onesuperior /ordmasculine /guillemotright /onequarter /onehalf
/threequarters /questiondown /Agrave /Aacute /Acircumflex
/Atilde /Adieresis /Aring /AE /Ccedilla
/Egrave /Eacute /Ecircumflex /Edieresis /Igrave
/Iacute /Icircumflex /Idieresis /Eth /Ntilde
/Ograve /Oacute /Ocircumflex /Otilde /Odieresis
/multiply /Oslash /Ugrave /Uacute /Ucircumflex
/Udieresis /Yacute /Thorn /germandbls /agrave
/aacute /acircumflex /atilde /adieresis /aring
/ae /ccedilla /egrave /eacute /ecircumflex
/edieresis /igrave /iacute /icircumflex /idieresis
/eth /ntilde /ograve /oacute /ocircumflex
/otilde /odieresis /divide /oslash /ugrave
/uacute /ucircumflex /udieresis /yacute /thorn
/ydieresis
] def
%%EndResource
%FOPBeginFontReencode
/Courier-Oblique findfont
dup length dict begin
  {1 index /FID ne {def} {pop pop} ifelse} forall
  /Encoding WinAnsiEncoding def
  currentdict
end
/Courier-Oblique exch definefont pop
/Courier-BoldOblique findfont
dup length dict begin
  {1 index /FID ne {def} {pop pop} ifelse} forall
  /Encoding WinAnsiEncoding def
  currentdict
end
/Courier-BoldOblique exch definefont pop
/Courier-Bold findfont
dup length dict begin
  {1 index /FID ne {def} {pop pop} ifelse} forall
  /Encoding WinAnsiEncoding def
  currentdict
end
/Courier-Bold exch definefont pop
/Helvetica findfont
dup length dict begin
  {1 index /FID ne {def} {pop pop} ifelse} forall
  /Encoding WinAnsiEncoding def
  currentdict
end
/Helvetica exch definefont pop
/Helvetica-Oblique findfont
dup length dict begin
  {1 index /FID ne {def} {pop pop} ifelse} forall
  /Encoding WinAnsiEncoding def
  currentdict
end
/Helvetica-Oblique exch definefont pop
/Helvetica-Bold findfont
dup length dict begin
  {1 index /FID ne {def} {pop pop} ifelse} forall
  /Encoding WinAnsiEncoding def
  currentdict
end
/Helvetica-Bold exch definefont pop
/Helvetica-BoldOblique findfont
dup length dict begin
  {1 index /FID ne {def} {pop pop} ifelse} forall
  /Encoding WinAnsiEncoding def
  currentdict
end
/Helvetica-BoldOblique exch definefont pop
/Times-Roman findfont
dup length dict begin
  {1 index /FID ne {def} {pop pop} ifelse} forall
  /Encoding WinAnsiEncoding def
  currentdict
end
/Times-Roman exch definefont pop
/Times-Italic findfont
dup length dict begin
  {1 index /FID ne {def} {pop pop} ifelse} forall
  /Encoding WinAnsiEncoding def
  currentdict
end
/Times-Italic exch definefont pop
/Times-Bold findfont
dup length dict begin
  {1 index /FID ne {def} {pop pop} ifelse} forall
  /Encoding WinAnsiEncoding def
  currentdict
end
/Times-Bold exch definefont pop
/Times-BoldItalic findfont
dup length dict begin
  {1 index /FID ne {def} {pop pop} ifelse} forall
  /Encoding WinAnsiEncoding def
  currentdict
end
/Times-BoldItalic exch definefont pop
/Courier findfont
dup length dict begin
  {1 index /FID ne {def} {pop pop} ifelse} forall
  /Encoding WinAnsiEncoding def
  currentdict
end
/Courier exch definefont pop
%FOPEndFontReencode
%%EndProlog
%%Page: 1 1
%%PageBoundingBox: 0 0 420 315
%%BeginPageSetup
N
   36    19 M
  423    19 L
  423   314 L
   36   314 L
cp
clip
[1 0 0 -1 0 315] CT
%%EndPageSetup
GS
[0.75 0 0 0.75 0 0] CT
1 GC
N
0 0 560 420 re
f
GR
GS
[0.75 0 0 0.75 0 0] CT
1 GC
N
0 0 560 420 re
f
GR
GS
[0.75 0 0 0.75 0 0] CT
1 GC
N
73 374 M
507 374 L
507 31 L
73 31 L
cp
f
GR
GS
[0.75 0 0 0.75 0 0] CT
0.149 GC
2 setlinecap
1 LJ
0.667 LW
N
73 374 M
507 374 L
S
GR
GS
[0.75 0 0 0.75 0 0] CT
0.149 GC
2 setlinecap
1 LJ
0.667 LW
N
73 31 M
507 31 L
S
GR
GS
[0.75 0 0 0.75 0 0] CT
0.149 GC
2 setlinecap
1 LJ
0.667 LW
N
73 374 M
73 369.66 L
S
GR
GS
[0.75 0 0 0.75 0 0] CT
0.149 GC
2 setlinecap
1 LJ
0.667 LW
N
127.25 374 M
127.25 369.66 L
S
GR
GS
[0.75 0 0 0.75 0 0] CT
0.149 GC
2 setlinecap
1 LJ
0.667 LW
N
181.5 374 M
181.5 369.66 L
S
GR
GS
[0.75 0 0 0.75 0 0] CT
0.149 GC
2 setlinecap
1 LJ
0.667 LW
N
235.75 374 M
235.75 369.66 L
S
GR
GS
[0.75 0 0 0.75 0 0] CT
0.149 GC
2 setlinecap
1 LJ
0.667 LW
N
290 374 M
290 369.66 L
S
GR
GS
[0.75 0 0 0.75 0 0] CT
0.149 GC
2 setlinecap
1 LJ
0.667 LW
N
344.25 374 M
344.25 369.66 L
S
GR
GS
[0.75 0 0 0.75 0 0] CT
0.149 GC
2 setlinecap
1 LJ
0.667 LW
N
398.5 374 M
398.5 369.66 L
S
GR
GS
[0.75 0 0 0.75 0 0] CT
0.149 GC
2 setlinecap
1 LJ
0.667 LW
N
452.75 374 M
452.75 369.66 L
S
GR
GS
[0.75 0 0 0.75 0 0] CT
0.149 GC
2 setlinecap
1 LJ
0.667 LW
N
507 374 M
507 369.66 L
S
GR
GS
[0.75 0 0 0.75 0 0] CT
0.149 GC
2 setlinecap
1 LJ
0.667 LW
N
73 31 M
73 35.34 L
S
GR
GS
[0.75 0 0 0.75 0 0] CT
0.149 GC
2 setlinecap
1 LJ
0.667 LW
N
127.25 31 M
127.25 35.34 L
S
GR
GS
[0.75 0 0 0.75 0 0] CT
0.149 GC
2 setlinecap
1 LJ
0.667 LW
N
181.5 31 M
181.5 35.34 L
S
GR
GS
[0.75 0 0 0.75 0 0] CT
0.149 GC
2 setlinecap
1 LJ
0.667 LW
N
235.75 31 M
235.75 35.34 L
S
GR
GS
[0.75 0 0 0.75 0 0] CT
0.149 GC
2 setlinecap
1 LJ
0.667 LW
N
290 31 M
290 35.34 L
S
GR
GS
[0.75 0 0 0.75 0 0] CT
0.149 GC
2 setlinecap
1 LJ
0.667 LW
N
344.25 31 M
344.25 35.34 L
S
GR
GS
[0.75 0 0 0.75 0 0] CT
0.149 GC
2 setlinecap
1 LJ
0.667 LW
N
398.5 31 M
398.5 35.34 L
S
GR
GS
[0.75 0 0 0.75 0 0] CT
0.149 GC
2 setlinecap
1 LJ
0.667 LW
N
452.75 31 M
452.75 35.34 L
S
GR
GS
[0.75 0 0 0.75 0 0] CT
0.149 GC
2 setlinecap
1 LJ
0.667 LW
N
507 31 M
507 35.34 L
S
GR
GS
[0.75 0 0 0.75 54.75 284.50001] CT
0.149 GC
/Helvetica 13.333 F
GS
[1 0 0 1 0 0] CT
-9.5 14 moveto 
1 -1 scale
(2.5) t 
GR
GR
GS
[0.75 0 0 0.75 95.4375 284.50001] CT
0.149 GC
/Helvetica 13.333 F
GS
[1 0 0 1 0 0] CT
-4 14 moveto 
1 -1 scale
(3) t 
GR
GR
GS
[0.75 0 0 0.75 136.125 284.50001] CT
0.149 GC
/Helvetica 13.333 F
GS
[1 0 0 1 0 0] CT
-9.5 14 moveto 
1 -1 scale
(3.5) t 
GR
GR
GS
[0.75 0 0 0.75 176.8125 284.50001] CT
0.149 GC
/Helvetica 13.333 F
GS
[1 0 0 1 0 0] CT
-4 14 moveto 
1 -1 scale
(4) t 
GR
GR
GS
[0.75 0 0 0.75 217.5 284.50001] CT
0.149 GC
/Helvetica 13.333 F
GS
[1 0 0 1 0 0] CT
-9.5 14 moveto 
1 -1 scale
(4.5) t 
GR
GR
GS
[0.75 0 0 0.75 258.1875 284.50001] CT
0.149 GC
/Helvetica 13.333 F
GS
[1 0 0 1 0 0] CT
-4 14 moveto 
1 -1 scale
(5) t 
GR
GR
GS
[0.75 0 0 0.75 298.875 284.50001] CT
0.149 GC
/Helvetica 13.333 F
GS
[1 0 0 1 0 0] CT
-9.5 14 moveto 
1 -1 scale
(5.5) t 
GR
GR
GS
[0.75 0 0 0.75 339.5625 284.50001] CT
0.149 GC
/Helvetica 13.333 F
GS
[1 0 0 1 0 0] CT
-4 14 moveto 
1 -1 scale
(6) t 
GR
GR
GS
[0.75 0 0 0.75 380.25 284.50001] CT
0.149 GC
/Helvetica 13.333 F
GS
[1 0 0 1 0 0] CT
-9.5 14 moveto 
1 -1 scale
(6.5) t 
GR
GR
GS
[0.75 0 0 0.75 0 0] CT
0.149 GC
2 setlinecap
1 LJ
0.667 LW
N
73 374 M
73 31 L
S
GR
GS
[0.75 0 0 0.75 0 0] CT
0.149 GC
2 setlinecap
1 LJ
0.667 LW
N
507 374 M
507 31 L
S
GR
GS
[0.75 0 0 0.75 0 0] CT
0.149 GC
2 setlinecap
1 LJ
0.667 LW
N
73 374 M
77.34 374 L
S
GR
GS
[0.75 0 0 0.75 0 0] CT
0.149 GC
2 setlinecap
1 LJ
0.667 LW
N
73 339.7 M
77.34 339.7 L
S
GR
GS
[0.75 0 0 0.75 0 0] CT
0.149 GC
2 setlinecap
1 LJ
0.667 LW
N
73 305.4 M
77.34 305.4 L
S
GR
GS
[0.75 0 0 0.75 0 0] CT
0.149 GC
2 setlinecap
1 LJ
0.667 LW
N
73 271.1 M
77.34 271.1 L
S
GR
GS
[0.75 0 0 0.75 0 0] CT
0.149 GC
2 setlinecap
1 LJ
0.667 LW
N
73 236.8 M
77.34 236.8 L
S
GR
GS
[0.75 0 0 0.75 0 0] CT
0.149 GC
2 setlinecap
1 LJ
0.667 LW
N
73 202.5 M
77.34 202.5 L
S
GR
GS
[0.75 0 0 0.75 0 0] CT
0.149 GC
2 setlinecap
1 LJ
0.667 LW
N
73 168.2 M
77.34 168.2 L
S
GR
GS
[0.75 0 0 0.75 0 0] CT
0.149 GC
2 setlinecap
1 LJ
0.667 LW
N
73 133.9 M
77.34 133.9 L
S
GR
GS
[0.75 0 0 0.75 0 0] CT
0.149 GC
2 setlinecap
1 LJ
0.667 LW
N
73 99.6 M
77.34 99.6 L
S
GR
GS
[0.75 0 0 0.75 0 0] CT
0.149 GC
2 setlinecap
1 LJ
0.667 LW
N
73 65.3 M
77.34 65.3 L
S
GR
GS
[0.75 0 0 0.75 0 0] CT
0.149 GC
2 setlinecap
1 LJ
0.667 LW
N
73 31 M
77.34 31 L
S
GR
GS
[0.75 0 0 0.75 0 0] CT
0.149 GC
2 setlinecap
1 LJ
0.667 LW
N
507 374 M
502.66 374 L
S
GR
GS
[0.75 0 0 0.75 0 0] CT
0.149 GC
2 setlinecap
1 LJ
0.667 LW
N
507 339.7 M
502.66 339.7 L
S
GR
GS
[0.75 0 0 0.75 0 0] CT
0.149 GC
2 setlinecap
1 LJ
0.667 LW
N
507 305.4 M
502.66 305.4 L
S
GR
GS
[0.75 0 0 0.75 0 0] CT
0.149 GC
2 setlinecap
1 LJ
0.667 LW
N
507 271.1 M
502.66 271.1 L
S
GR
GS
[0.75 0 0 0.75 0 0] CT
0.149 GC
2 setlinecap
1 LJ
0.667 LW
N
507 236.8 M
502.66 236.8 L
S
GR
GS
[0.75 0 0 0.75 0 0] CT
0.149 GC
2 setlinecap
1 LJ
0.667 LW
N
507 202.5 M
502.66 202.5 L
S
GR
GS
[0.75 0 0 0.75 0 0] CT
0.149 GC
2 setlinecap
1 LJ
0.667 LW
N
507 168.2 M
502.66 168.2 L
S
GR
GS
[0.75 0 0 0.75 0 0] CT
0.149 GC
2 setlinecap
1 LJ
0.667 LW
N
507 133.9 M
502.66 133.9 L
S
GR
GS
[0.75 0 0 0.75 0 0] CT
0.149 GC
2 setlinecap
1 LJ
0.667 LW
N
507 99.6 M
502.66 99.6 L
S
GR
GS
[0.75 0 0 0.75 0 0] CT
0.149 GC
2 setlinecap
1 LJ
0.667 LW
N
507 65.3 M
502.66 65.3 L
S
GR
GS
[0.75 0 0 0.75 0 0] CT
0.149 GC
2 setlinecap
1 LJ
0.667 LW
N
507 31 M
502.66 31 L
S
GR
GS
[0.75 0 0 0.75 50.74999 280.5] CT
0.149 GC
/Helvetica 13.333 F
GS
[1 0 0 1 0 0] CT
-8 5.5 moveto 
1 -1 scale
(0) t 
GR
GR
GS
[0.75 0 0 0.75 50.74999 254.77501] CT
0.149 GC
/Helvetica 13.333 F
GS
[1 0 0 1 0 0] CT
-19 5.5 moveto 
1 -1 scale
(0.1) t 
GR
GR
GS
[0.75 0 0 0.75 50.74999 229.05] CT
0.149 GC
/Helvetica 13.333 F
GS
[1 0 0 1 0 0] CT
-19 5.5 moveto 
1 -1 scale
(0.2) t 
GR
GR
GS
[0.75 0 0 0.75 50.74999 203.325] CT
0.149 GC
/Helvetica 13.333 F
GS
[1 0 0 1 0 0] CT
-19 5.5 moveto 
1 -1 scale
(0.3) t 
GR
GR
GS
[0.75 0 0 0.75 50.74999 177.6] CT
0.149 GC
/Helvetica 13.333 F
GS
[1 0 0 1 0 0] CT
-19 5.5 moveto 
1 -1 scale
(0.4) t 
GR
GR
GS
[0.75 0 0 0.75 50.74999 151.875] CT
0.149 GC
/Helvetica 13.333 F
GS
[1 0 0 1 0 0] CT
-19 5.5 moveto 
1 -1 scale
(0.5) t 
GR
GR
GS
[0.75 0 0 0.75 50.74999 126.15] CT
0.149 GC
/Helvetica 13.333 F
GS
[1 0 0 1 0 0] CT
-19 5.5 moveto 
1 -1 scale
(0.6) t 
GR
GR
GS
[0.75 0 0 0.75 50.74999 100.42501] CT
0.149 GC
/Helvetica 13.333 F
GS
[1 0 0 1 0 0] CT
-19 5.5 moveto 
1 -1 scale
(0.7) t 
GR
GR
GS
[0.75 0 0 0.75 50.74999 74.7] CT
0.149 GC
/Helvetica 13.333 F
GS
[1 0 0 1 0 0] CT
-19 5.5 moveto 
1 -1 scale
(0.8) t 
GR
GR
GS
[0.75 0 0 0.75 50.74999 48.97501] CT
0.149 GC
/Helvetica 13.333 F
GS
[1 0 0 1 0 0] CT
-19 5.5 moveto 
1 -1 scale
(0.9) t 
GR
GR
GS
[0.75 0 0 0.75 50.74999 23.25] CT
0.149 GC
/Helvetica 13.333 F
GS
[1 0 0 1 0 0] CT
-8 5.5 moveto 
1 -1 scale
(1) t 
GR
GR
GS
[0.75 0 0 0.75 0 0] CT
1 LJ
0.667 LW
N
339.771 373.657 M
342.305 373.314 L
345.656 372.971 L
346.022 372.628 L
346.572 372.285 L
346.672 371.942 L
347.092 371.599 L
347.379 371.256 L
347.462 370.913 L
348.917 370.57 L
349.08 370.227 L
349.084 369.884 L
349.774 369.541 L
349.851 369.198 L
351.272 368.855 L
351.385 368.512 L
352.723 368.169 L
353.599 367.826 L
353.676 367.483 L
353.795 367.14 L
354.446 366.797 L
356.104 366.454 L
357.487 366.111 L
357.603 365.768 L
357.838 365.425 L
358.073 365.082 L
358.157 364.739 L
358.465 364.396 L
358.476 364.053 L
358.889 363.71 L
359.103 363.367 L
359.111 363.024 L
359.386 362.681 L
359.436 362.338 L
359.486 361.995 L
360.26 361.652 L
361.187 361.309 L
361.326 360.966 L
361.421 360.623 L
361.526 360.28 L
362.035 359.937 L
362.039 359.594 L
362.159 359.251 L
362.302 358.908 L
362.706 358.565 L
362.762 358.222 L
363.415 357.879 L
363.454 357.536 L
364.117 357.193 L
364.868 356.85 L
365.067 356.507 L
365.639 356.164 L
365.856 355.821 L
365.87 355.478 L
366.033 355.135 L
366.307 354.792 L
366.325 354.449 L
366.474 354.106 L
366.934 353.763 L
367.054 353.42 L
367.252 353.077 L
367.339 352.734 L
367.455 352.391 L
367.723 352.048 L
367.755 351.705 L
367.916 351.362 L
368.143 351.019 L
368.153 350.676 L
368.279 350.333 L
368.289 349.99 L
368.395 349.647 L
368.411 349.304 L
368.941 348.961 L
369.052 348.618 L
369.152 348.275 L
369.258 347.932 L
369.348 347.589 L
369.482 347.246 L
369.921 346.903 L
370.299 346.56 L
370.32 346.217 L
370.564 345.874 L
370.603 345.531 L
370.708 345.188 L
370.741 344.845 L
370.773 344.502 L
370.787 344.159 L
370.971 343.816 L
371.115 343.473 L
371.41 343.13 L
371.48 342.787 L
371.933 342.444 L
372.154 342.101 L
372.165 341.758 L
372.773 341.415 L
372.868 341.072 L
372.899 340.729 L
373.049 340.386 L
373.146 340.043 L
373.235 339.7 L
373.33 339.357 L
373.575 339.014 L
373.853 338.671 L
373.909 338.328 L
373.92 337.985 L
373.963 337.642 L
374.066 337.299 L
374.23 336.956 L
374.383 336.613 L
374.501 336.27 L
374.618 335.927 L
374.628 335.584 L
374.631 335.241 L
374.721 334.898 L
374.795 334.555 L
374.846 334.212 L
374.848 333.869 L
374.974 333.526 L
375.092 333.183 L
375.16 332.84 L
375.208 332.497 L
375.479 332.154 L
375.602 331.811 L
375.784 331.468 L
375.791 331.125 L
375.987 330.782 L
376.186 330.439 L
376.187 330.096 L
376.272 329.753 L
376.317 329.41 L
376.351 329.067 L
376.367 328.724 L
376.39 328.381 L
376.53 328.038 L
376.618 327.695 L
376.644 327.352 L
376.761 327.009 L
376.785 326.666 L
376.938 326.323 L
376.942 325.98 L
376.982 325.637 L
377.144 325.294 L
377.201 324.951 L
377.354 324.608 L
377.415 324.265 L
377.434 323.922 L
377.441 323.579 L
377.667 323.236 L
378.163 322.893 L
378.207 322.55 L
378.34 322.207 L
378.513 321.864 L
378.542 321.521 L
378.559 321.178 L
378.601 320.835 L
378.654 320.492 L
378.789 320.149 L
379.041 319.806 L
379.262 319.463 L
379.308 319.12 L
379.39 318.777 L
379.49 318.434 L
379.729 318.091 L
379.744 317.748 L
380.027 317.405 L
380.327 317.062 L
380.448 316.719 L
380.525 316.376 L
380.58 316.033 L
380.641 315.69 L
380.702 315.347 L
380.757 315.004 L
380.783 314.661 L
380.815 314.318 L
380.88 313.975 L
380.933 313.632 L
380.934 313.289 L
380.94 312.946 L
381.117 312.603 L
381.238 312.26 L
381.349 311.917 L
381.36 311.574 L
381.535 311.231 L
381.609 310.888 L
381.658 310.545 L
382.034 310.202 L
382.126 309.859 L
382.16 309.516 L
382.176 309.173 L
382.237 308.83 L
382.271 308.487 L
382.388 308.144 L
382.492 307.801 L
382.685 307.458 L
382.785 307.115 L
382.977 306.772 L
383.037 306.429 L
383.06 306.086 L
383.2 305.743 L
383.213 305.4 L
383.299 305.057 L
383.384 304.714 L
383.39 304.371 L
383.411 304.028 L
383.617 303.685 L
383.679 303.342 L
383.769 302.999 L
383.81 302.656 L
383.854 302.313 L
383.87 301.97 L
383.888 301.627 L
383.945 301.284 L
383.987 300.941 L
384.008 300.598 L
384.022 300.255 L
384.044 299.912 L
384.045 299.569 L
384.063 299.226 L
384.168 298.883 L
384.173 298.54 L
384.194 298.197 L
384.208 297.854 L
384.363 297.511 L
384.416 297.168 L
384.432 296.825 L
384.436 296.482 L
384.437 296.139 L
384.541 295.796 L
384.584 295.453 L
384.622 295.11 L
384.668 294.767 L
384.724 294.424 L
384.726 294.081 L
384.982 293.738 L
385.123 293.395 L
385.372 293.052 L
385.473 292.709 L
385.482 292.366 L
385.496 292.023 L
385.591 291.68 L
385.607 291.337 L
385.613 290.994 L
385.62 290.651 L
385.654 290.308 L
385.792 289.965 L
385.902 289.622 L
385.908 289.279 L
385.926 288.936 L
385.953 288.593 L
385.976 288.25 L
386.08 287.907 L
386.086 287.564 L
386.112 287.221 L
386.17 286.878 L
386.256 286.535 L
386.285 286.192 L
386.423 285.849 L
386.632 285.506 L
386.677 285.163 L
386.681 284.82 L
386.787 284.477 L
386.891 284.134 L
386.931 283.791 L
387.147 283.448 L
387.187 283.105 L
387.205 282.762 L
387.234 282.419 L
387.245 282.076 L
387.333 281.733 L
387.344 281.39 L
387.346 281.047 L
387.394 280.704 L
387.464 280.361 L
387.578 280.018 L
387.601 279.675 L
387.752 279.332 L
387.883 278.989 L
388.042 278.646 L
388.07 278.303 L
388.102 277.96 L
388.184 277.617 L
388.202 277.274 L
388.243 276.931 L
388.31 276.588 L
388.367 276.245 L
388.598 275.902 L
388.646 275.559 L
388.7 275.216 L
388.746 274.873 L
388.942 274.53 L
388.958 274.187 L
388.964 273.844 L
389.214 273.501 L
389.216 273.158 L
389.259 272.815 L
389.466 272.472 L
389.482 272.129 L
389.588 271.786 L
389.704 271.443 L
389.718 271.1 L
389.807 270.757 L
389.913 270.414 L
390.12 270.071 L
390.191 269.728 L
390.219 269.385 L
390.232 269.042 L
390.418 268.699 L
390.506 268.356 L
390.56 268.013 L
390.604 267.67 L
390.605 267.327 L
390.679 266.984 L
390.723 266.641 L
390.816 266.298 L
390.916 265.955 L
390.971 265.612 L
391.042 265.269 L
391.047 264.926 L
391.116 264.583 L
391.117 264.24 L
391.155 263.897 L
391.165 263.554 L
391.182 263.211 L
391.296 262.868 L
391.297 262.525 L
391.384 262.182 L
391.585 261.839 L
391.61 261.496 L
391.62 261.153 L
391.621 260.81 L
391.722 260.467 L
391.737 260.124 L
391.81 259.781 L
391.825 259.438 L
391.886 259.095 L
391.919 258.752 L
392.194 258.409 L
392.212 258.066 L
392.215 257.723 L
392.239 257.38 L
392.276 257.037 L
392.345 256.694 L
392.371 256.351 L
392.389 256.008 L
392.469 255.665 L
392.494 255.322 L
392.507 254.979 L
392.545 254.636 L
392.602 254.293 L
392.696 253.95 L
392.787 253.607 L
392.881 253.264 L
392.904 252.921 L
392.933 252.578 L
392.944 252.235 L
392.98 251.892 L
393.007 251.549 L
393.017 251.206 L
393.122 250.863 L
393.138 250.52 L
393.199 250.177 L
393.229 249.834 L
393.234 249.491 L
393.252 249.148 L
393.41 248.805 L
393.524 248.462 L
393.545 248.119 L
393.66 247.776 L
393.69 247.433 L
393.761 247.09 L
393.794 246.747 L
393.796 246.404 L
393.891 246.061 L
394.053 245.718 L
394.076 245.375 L
394.191 245.032 L
394.226 244.689 L
394.406 244.346 L
394.579 244.003 L
394.588 243.66 L
394.688 243.317 L
394.72 242.974 L
394.97 242.631 L
395.034 242.288 L
395.056 241.945 L
395.09 241.602 L
395.194 241.259 L
395.196 240.916 L
395.229 240.573 L
395.23 240.23 L
395.251 239.887 L
395.27 239.544 L
395.31 239.201 L
395.384 238.858 L
395.387 238.515 L
395.554 238.172 L
395.613 237.829 L
395.727 237.486 L
395.936 237.143 L
395.951 236.8 L
395.964 236.457 L
396.005 236.114 L
396.036 235.771 L
396.108 235.428 L
396.15 235.085 L
396.188 234.742 L
396.198 234.399 L
396.286 234.056 L
396.299 233.713 L
396.371 233.37 L
396.388 233.027 L
396.681 232.684 L
396.759 232.341 L
396.872 231.998 L
397.036 231.655 L
397.076 231.312 L
397.112 230.969 L
397.168 230.626 L
397.265 230.283 L
397.369 229.94 L
397.386 229.597 L
397.807 229.254 L
397.835 228.911 L
397.835 228.568 L
397.887 228.225 L
398.001 227.882 L
398.016 227.539 L
398.028 227.196 L
398.035 226.853 L
398.126 226.51 L
398.182 226.167 L
398.195 225.824 L
398.214 225.481 L
398.247 225.138 L
398.267 224.795 L
398.297 224.452 L
398.457 224.109 L
398.496 223.766 L
398.496 223.423 L
398.651 223.08 L
398.748 222.737 L
398.803 222.394 L
398.933 222.051 L
399.01 221.708 L
399.085 221.365 L
399.121 221.022 L
399.157 220.679 L
399.232 220.336 L
399.258 219.993 L
399.288 219.65 L
399.3 219.307 L
399.375 218.964 L
399.413 218.621 L
399.425 218.278 L
399.484 217.935 L
399.488 217.592 L
399.505 217.249 L
399.623 216.906 L
399.732 216.563 L
399.866 216.22 L
399.873 215.877 L
399.945 215.534 L
399.949 215.191 L
400.088 214.848 L
400.104 214.505 L
400.333 214.162 L
400.355 213.819 L
400.433 213.476 L
400.486 213.133 L
400.5 212.79 L
400.522 212.447 L
400.596 212.104 L
400.71 211.761 L
400.748 211.418 L
400.754 211.075 L
400.756 210.732 L
400.784 210.389 L
400.836 210.046 L
400.99 209.703 L
401.035 209.36 L
401.058 209.017 L
401.072 208.674 L
401.108 208.331 L
401.132 207.988 L
401.272 207.645 L
401.339 207.302 L
401.37 206.959 L
401.393 206.616 L
401.411 206.273 L
401.505 205.93 L
401.53 205.587 L
401.61 205.244 L
401.796 204.901 L
401.831 204.558 L
401.847 204.215 L
402.008 203.872 L
402.156 203.529 L
402.178 203.186 L
402.252 202.843 L
402.281 202.5 L
402.428 202.157 L
402.443 201.814 L
402.446 201.471 L
402.484 201.128 L
402.504 200.785 L
402.644 200.442 L
402.669 200.099 L
402.705 199.756 L
402.783 199.413 L
402.858 199.07 L
402.913 198.727 L
402.973 198.384 L
403.053 198.041 L
403.075 197.698 L
403.185 197.355 L
403.236 197.012 L
403.236 196.669 L
403.262 196.326 L
403.504 195.983 L
403.566 195.64 L
403.624 195.297 L
403.653 194.954 L
403.775 194.611 L
403.817 194.268 L
403.875 193.925 L
403.894 193.582 L
403.943 193.239 L
403.952 192.896 L
403.952 192.553 L
403.978 192.21 L
403.991 191.867 L
404.068 191.524 L
404.099 191.181 L
404.207 190.838 L
404.247 190.495 L
404.29 190.152 L
404.346 189.809 L
404.395 189.466 L
404.424 189.123 L
404.456 188.78 L
404.552 188.437 L
404.668 188.094 L
404.76 187.751 L
404.837 187.408 L
404.926 187.065 L
405.101 186.722 L
405.157 186.379 L
405.16 186.036 L
405.183 185.693 L
405.452 185.35 L
405.577 185.007 L
405.617 184.664 L
405.761 184.321 L
405.831 183.978 L
405.853 183.635 L
405.912 183.292 L
405.966 182.949 L
405.988 182.606 L
406.008 182.263 L
406.18 181.92 L
406.189 181.577 L
406.215 181.234 L
406.236 180.891 L
406.31 180.548 L
406.427 180.205 L
406.455 179.862 L
406.535 179.519 L
406.656 179.176 L
406.705 178.833 L
406.729 178.49 L
406.828 178.147 L
406.936 177.804 L
406.974 177.461 L
406.976 177.118 L
407.047 176.775 L
407.071 176.432 L
407.123 176.089 L
407.23 175.746 L
407.286 175.403 L
407.3 175.06 L
407.302 174.717 L
407.36 174.374 L
407.37 174.031 L
407.433 173.688 L
407.466 173.345 L
407.557 173.002 L
407.615 172.659 L
407.626 172.316 L
407.644 171.973 L
407.675 171.63 L
407.865 171.287 L
407.957 170.944 L
408.017 170.601 L
408.066 170.258 L
408.232 169.915 L
408.406 169.572 L
408.442 169.229 L
408.512 168.886 L
408.558 168.543 L
408.574 168.2 L
408.598 167.857 L
408.636 167.514 L
408.682 167.171 L
408.794 166.828 L
409.064 166.485 L
409.129 166.142 L
409.181 165.799 L
409.207 165.456 L
409.303 165.113 L
409.323 164.77 L
409.369 164.427 L
409.545 164.084 L
409.625 163.741 L
409.937 163.398 L
409.946 163.055 L
409.994 162.712 L
410.002 162.369 L
410.002 162.026 L
410.063 161.683 L
410.071 161.34 L
410.12 160.997 L
410.175 160.654 L
410.245 160.311 L
410.351 159.968 L
410.36 159.625 L
410.374 159.282 L
410.503 158.939 L
410.533 158.596 L
410.567 158.253 L
410.64 157.91 L
410.686 157.567 L
410.755 157.224 L
410.766 156.881 L
410.771 156.538 L
410.802 156.195 L
410.836 155.852 L
410.838 155.509 L
410.921 155.166 L
410.928 154.823 L
410.954 154.48 L
411.006 154.137 L
411.034 153.794 L
411.093 153.451 L
411.15 153.108 L
411.226 152.765 L
411.304 152.422 L
411.356 152.079 L
411.388 151.736 L
411.522 151.393 L
411.716 151.05 L
411.82 150.707 L
411.82 150.364 L
411.836 150.021 L
411.889 149.678 L
412.395 149.335 L
412.42 148.992 L
412.442 148.649 L
412.498 148.306 L
412.52 147.963 L
412.552 147.62 L
412.576 147.277 L
412.686 146.934 L
412.879 146.591 L
412.993 146.248 L
413.037 145.905 L
413.095 145.562 L
413.105 145.219 L
413.211 144.876 L
413.362 144.533 L
413.379 144.19 L
413.387 143.847 L
413.551 143.504 L
413.582 143.161 L
413.629 142.818 L
413.676 142.475 L
413.697 142.132 L
413.734 141.789 L
413.744 141.446 L
413.789 141.103 L
414.091 140.76 L
414.115 140.417 L
414.118 140.074 L
414.294 139.731 L
414.414 139.388 L
414.422 139.045 L
414.428 138.702 L
414.516 138.359 L
414.537 138.016 L
414.556 137.673 L
414.614 137.33 L
414.689 136.987 L
414.748 136.644 L
414.762 136.301 L
414.775 135.958 L
414.807 135.615 L
414.904 135.272 L
414.921 134.929 L
414.977 134.586 L
415.02 134.243 L
415.175 133.9 L
415.185 133.557 L
415.238 133.214 L
415.328 132.871 L
415.388 132.528 L
415.459 132.185 L
415.48 131.842 L
415.497 131.499 L
415.559 131.156 L
415.773 130.813 L
415.778 130.47 L
416.005 130.127 L
416.041 129.784 L
416.215 129.441 L
416.391 129.098 L
416.482 128.755 L
416.556 128.412 L
416.614 128.069 L
416.653 127.726 L
416.66 127.383 L
416.716 127.04 L
416.808 126.697 L
416.812 126.354 L
416.821 126.011 L
417.471 125.668 L
417.585 125.325 L
417.717 124.982 L
417.784 124.639 L
417.876 124.296 L
417.891 123.953 L
418.002 123.61 L
418.073 123.267 L
418.08 122.924 L
418.115 122.581 L
418.578 122.238 L
418.596 121.895 L
418.769 121.552 L
418.976 121.209 L
419.131 120.866 L
419.163 120.523 L
419.227 120.18 L
419.261 119.837 L
419.374 119.494 L
419.47 119.151 L
419.523 118.808 L
419.624 118.465 L
419.858 118.122 L
419.929 117.779 L
419.95 117.436 L
419.994 117.093 L
420.107 116.75 L
420.199 116.407 L
420.276 116.064 L
420.316 115.721 L
420.41 115.378 L
420.697 115.035 L
420.722 114.692 L
420.797 114.349 L
420.836 114.006 L
420.848 113.663 L
421.005 113.32 L
421.054 112.977 L
421.066 112.634 L
421.158 112.291 L
421.185 111.948 L
421.202 111.605 L
421.203 111.262 L
421.229 110.919 L
421.312 110.576 L
421.316 110.233 L
421.335 109.89 L
421.337 109.547 L
421.356 109.204 L
421.385 108.861 L
421.66 108.518 L
421.73 108.175 L
421.909 107.832 L
421.926 107.489 L
421.931 107.146 L
421.934 106.803 L
422.157 106.46 L
422.327 106.117 L
422.403 105.774 L
422.437 105.431 L
422.503 105.088 L
422.529 104.745 L
422.541 104.402 L
422.547 104.059 L
422.611 103.716 L
422.624 103.373 L
422.703 103.03 L
422.75 102.687 L
422.87 102.344 L
422.893 102.001 L
422.916 101.658 L
422.918 101.315 L
422.954 100.972 L
423.121 100.629 L
423.13 100.286 L
423.159 99.943 L
423.279 99.6 L
423.528 99.257 L
423.538 98.914 L
423.758 98.571 L
423.798 98.228 L
423.832 97.885 L
424.02 97.542 L
424.054 97.199 L
424.114 96.856 L
424.167 96.513 L
424.167 96.17 L
424.373 95.827 L
424.392 95.484 L
424.394 95.141 L
424.577 94.798 L
424.775 94.455 L
424.992 94.112 L
425.127 93.769 L
425.154 93.426 L
425.197 93.083 L
425.255 92.74 L
425.275 92.397 L
425.293 92.054 L
425.474 91.711 L
425.658 91.368 L
425.679 91.025 L
425.836 90.682 L
426.192 90.339 L
426.294 89.996 L
426.317 89.653 L
426.385 89.31 L
426.474 88.967 L
426.481 88.624 L
426.518 88.281 L
426.544 87.938 L
426.766 87.595 L
426.967 87.252 L
426.984 86.909 L
427.021 86.566 L
427.041 86.223 L
427.767 85.88 L
427.825 85.537 L
428.069 85.194 L
428.342 84.851 L
428.371 84.508 L
428.434 84.165 L
428.515 83.822 L
428.763 83.479 L
428.801 83.136 L
428.83 82.793 L
428.831 82.45 L
428.944 82.107 L
429.261 81.764 L
429.281 81.421 L
429.542 81.078 L
429.546 80.735 L
429.808 80.392 L
429.856 80.049 L
430.109 79.706 L
430.67 79.363 L
430.925 79.02 L
430.932 78.677 L
430.938 78.334 L
430.968 77.991 L
431.165 77.648 L
431.169 77.305 L
431.284 76.962 L
431.363 76.619 L
431.407 76.276 L
431.546 75.933 L
431.579 75.59 L
431.61 75.247 L
431.624 74.904 L
431.626 74.561 L
431.948 74.218 L
432.642 73.875 L
433.005 73.532 L
433.07 73.189 L
433.122 72.846 L
433.128 72.503 L
433.213 72.16 L
433.345 71.817 L
433.421 71.474 L
433.435 71.131 L
433.495 70.788 L
433.585 70.445 L
433.594 70.102 L
433.615 69.759 L
433.745 69.416 L
433.76 69.073 L
433.991 68.73 L
434.189 68.387 L
434.204 68.044 L
434.34 67.701 L
434.354 67.358 L
434.366 67.015 L
434.374 66.672 L
434.389 66.329 L
434.628 65.986 L
434.838 65.643 L
434.994 65.3 L
435.598 64.957 L
435.902 64.614 L
436.724 64.271 L
436.806 63.928 L
436.937 63.585 L
437.017 63.242 L
437.38 62.899 L
437.415 62.556 L
437.724 62.213 L
437.751 61.87 L
438.035 61.527 L
438.2 61.184 L
438.484 60.841 L
438.596 60.498 L
438.693 60.155 L
438.745 59.812 L
438.805 59.469 L
439.406 59.126 L
439.432 58.783 L
439.458 58.44 L
440.06 58.097 L
440.215 57.754 L
440.312 57.411 L
440.549 57.068 L
440.563 56.725 L
440.644 56.382 L
440.654 56.039 L
440.711 55.696 L
440.979 55.353 L
441.037 55.01 L
441.339 54.667 L
441.404 54.324 L
441.47 53.981 L
441.808 53.638 L
441.819 53.295 L
441.847 52.952 L
441.887 52.609 L
441.926 52.266 L
442.173 51.923 L
442.363 51.58 L
442.395 51.237 L
442.469 50.894 L
443.096 50.551 L
443.177 50.208 L
443.264 49.865 L
443.318 49.522 L
443.324 49.179 L
443.343 48.836 L
443.804 48.493 L
443.81 48.15 L
443.915 47.807 L
444.269 47.464 L
444.274 47.121 L
444.385 46.778 L
444.636 46.435 L
444.666 46.092 L
444.832 45.749 L
445.42 45.406 L
446.112 45.063 L
446.431 44.72 L
446.6 44.377 L
446.6 44.034 L
447.199 43.691 L
447.429 43.348 L
447.592 43.005 L
447.916 42.662 L
448.272 42.319 L
448.403 41.976 L
448.805 41.633 L
449.123 41.29 L
449.249 40.947 L
449.77 40.604 L
450.603 40.261 L
450.688 39.918 L
450.852 39.575 L
451.487 39.232 L
452.033 38.889 L
452.842 38.546 L
453.005 38.203 L
453.18 37.86 L
453.909 37.517 L
453.996 37.174 L
455.634 36.831 L
455.665 36.488 L
455.975 36.145 L
456.117 35.802 L
457.049 35.459 L
457.09 35.116 L
458.09 34.773 L
458.897 34.43 L
459.249 34.087 L
460.698 33.744 L
461.677 33.401 L
461.909 33.058 L
466.536 32.715 L
468.065 32.372 L
469.098 32.029 L
472.622 31.686 L
474.179 31.343 L
474.345 31 L
S
GR
GS
[0.75 0 0 0.75 0 0] CT
1 0 0 RC
1 LJ
0.667 LW
N
98.17 373.657 M
113.742 373.314 L
120.316 372.971 L
120.373 372.628 L
121.029 372.285 L
121.865 371.942 L
121.928 371.599 L
122.075 371.256 L
122.415 370.913 L
125.383 370.57 L
126.942 370.227 L
127.378 369.884 L
128.121 369.541 L
128.713 369.198 L
128.918 368.855 L
129.51 368.512 L
129.565 368.169 L
129.974 367.826 L
130.232 367.483 L
130.793 367.14 L
130.99 366.797 L
131.268 366.454 L
132.166 366.111 L
132.619 365.768 L
132.974 365.425 L
133.253 365.082 L
133.402 364.739 L
133.417 364.396 L
134.035 364.053 L
134.172 363.71 L
134.585 363.367 L
134.853 363.024 L
135.12 362.681 L
135.248 362.338 L
135.822 361.995 L
135.88 361.652 L
135.903 361.309 L
136.108 360.966 L
136.17 360.623 L
136.724 360.28 L
138.18 359.937 L
138.349 359.594 L
138.647 359.251 L
138.652 358.908 L
139.081 358.565 L
139.922 358.222 L
139.945 357.879 L
140.04 357.536 L
140.198 357.193 L
140.366 356.85 L
140.414 356.507 L
140.903 356.164 L
141.035 355.821 L
141.154 355.478 L
141.249 355.135 L
141.605 354.792 L
141.939 354.449 L
142.277 354.106 L
142.368 353.763 L
142.402 353.42 L
142.669 353.077 L
142.721 352.734 L
143.373 352.391 L
143.781 352.048 L
143.842 351.705 L
143.944 351.362 L
144.057 351.019 L
144.08 350.676 L
144.235 350.333 L
144.639 349.99 L
144.963 349.647 L
145.01 349.304 L
145.136 348.961 L
145.228 348.618 L
145.288 348.275 L
145.407 347.932 L
145.668 347.589 L
145.703 347.246 L
145.726 346.903 L
145.787 346.56 L
145.881 346.217 L
146.074 345.874 L
146.109 345.531 L
146.288 345.188 L
146.336 344.845 L
146.555 344.502 L
146.699 344.159 L
147.034 343.816 L
147.093 343.473 L
147.266 343.13 L
147.307 342.787 L
147.361 342.444 L
147.51 342.101 L
147.712 341.758 L
147.726 341.415 L
147.736 341.072 L
148.202 340.729 L
148.352 340.386 L
148.464 340.043 L
148.719 339.7 L
149.303 339.357 L
149.395 339.014 L
149.731 338.671 L
149.9 338.328 L
150.131 337.985 L
150.143 337.642 L
150.166 337.299 L
150.363 336.956 L
150.6 336.613 L
150.796 336.27 L
150.879 335.927 L
150.995 335.584 L
151.178 335.241 L
151.273 334.898 L
151.31 334.555 L
151.403 334.212 L
151.431 333.869 L
151.477 333.526 L
151.537 333.183 L
151.54 332.84 L
152.009 332.497 L
152.28 332.154 L
152.345 331.811 L
152.481 331.468 L
152.778 331.125 L
153.019 330.782 L
153.038 330.439 L
153.262 330.096 L
153.355 329.753 L
153.383 329.41 L
153.614 329.067 L
153.692 328.724 L
153.779 328.381 L
153.833 328.038 L
153.878 327.695 L
153.89 327.352 L
153.941 327.009 L
154.352 326.666 L
154.439 326.323 L
154.455 325.98 L
154.462 325.637 L
154.49 325.294 L
154.774 324.951 L
154.784 324.608 L
155.052 324.265 L
155.377 323.922 L
155.42 323.579 L
155.428 323.236 L
155.471 322.893 L
155.554 322.55 L
155.827 322.207 L
155.983 321.864 L
156.123 321.521 L
156.183 321.178 L
156.319 320.835 L
156.403 320.492 L
156.73 320.149 L
156.818 319.806 L
156.844 319.463 L
156.925 319.12 L
156.98 318.777 L
157.003 318.434 L
157.222 318.091 L
157.259 317.748 L
157.312 317.405 L
157.473 317.062 L
157.706 316.719 L
157.839 316.376 L
157.841 316.033 L
157.848 315.69 L
158.091 315.347 L
158.165 315.004 L
158.198 314.661 L
158.438 314.318 L
158.561 313.975 L
158.773 313.632 L
158.788 313.289 L
158.83 312.946 L
158.875 312.603 L
158.955 312.26 L
159.146 311.917 L
159.163 311.574 L
159.4 311.231 L
159.549 310.888 L
159.618 310.545 L
159.943 310.202 L
160.146 309.859 L
160.323 309.516 L
160.38 309.173 L
160.552 308.83 L
160.643 308.487 L
160.681 308.144 L
160.981 307.801 L
161.044 307.458 L
161.239 307.115 L
161.244 306.772 L
161.278 306.429 L
161.308 306.086 L
161.349 305.743 L
161.387 305.4 L
161.505 305.057 L
161.579 304.714 L
161.701 304.371 L
161.729 304.028 L
161.811 303.685 L
162.017 303.342 L
162.225 302.999 L
162.312 302.656 L
162.49 302.313 L
162.562 301.97 L
162.612 301.627 L
162.759 301.284 L
162.785 300.941 L
162.805 300.598 L
162.864 300.255 L
162.881 299.912 L
162.926 299.569 L
162.977 299.226 L
163.051 298.883 L
163.179 298.54 L
163.182 298.197 L
163.21 297.854 L
163.416 297.511 L
163.444 297.168 L
163.449 296.825 L
163.548 296.482 L
163.559 296.139 L
163.56 295.796 L
163.593 295.453 L
163.614 295.11 L
163.639 294.767 L
163.674 294.424 L
163.725 294.081 L
163.827 293.738 L
163.902 293.395 L
163.906 293.052 L
163.915 292.709 L
163.972 292.366 L
164.164 292.023 L
164.238 291.68 L
164.334 291.337 L
164.459 290.994 L
164.714 290.651 L
164.715 290.308 L
164.776 289.965 L
164.785 289.622 L
164.811 289.279 L
164.836 288.936 L
164.87 288.593 L
164.96 288.25 L
165.159 287.907 L
165.238 287.564 L
165.359 287.221 L
165.431 286.878 L
165.471 286.535 L
165.521 286.192 L
165.63 285.849 L
165.754 285.506 L
165.794 285.163 L
165.819 284.82 L
165.996 284.477 L
166.072 284.134 L
166.124 283.791 L
166.246 283.448 L
166.252 283.105 L
166.293 282.762 L
166.59 282.419 L
166.708 282.076 L
166.716 281.733 L
166.793 281.39 L
166.831 281.047 L
166.849 280.704 L
166.926 280.361 L
167.356 280.018 L
167.421 279.675 L
167.512 279.332 L
167.62 278.989 L
167.646 278.646 L
167.706 278.303 L
168.079 277.96 L
168.09 277.617 L
168.096 277.274 L
168.225 276.931 L
168.232 276.588 L
168.237 276.245 L
168.278 275.902 L
168.328 275.559 L
168.36 275.216 L
168.458 274.873 L
168.507 274.53 L
168.687 274.187 L
168.944 273.844 L
169.014 273.501 L
169.241 273.158 L
169.267 272.815 L
169.309 272.472 L
169.396 272.129 L
169.438 271.786 L
169.531 271.443 L
169.575 271.1 L
169.619 270.757 L
169.738 270.414 L
169.82 270.071 L
169.918 269.728 L
170.032 269.385 L
170.143 269.042 L
170.198 268.699 L
170.225 268.356 L
170.247 268.013 L
170.276 267.67 L
170.279 267.327 L
170.279 266.984 L
170.338 266.641 L
170.533 266.298 L
170.536 265.955 L
170.8 265.612 L
170.874 265.269 L
171.146 264.926 L
171.326 264.583 L
171.396 264.24 L
171.406 263.897 L
171.438 263.554 L
171.482 263.211 L
171.496 262.868 L
171.692 262.525 L
171.711 262.182 L
171.806 261.839 L
171.811 261.496 L
171.813 261.153 L
171.936 260.81 L
171.936 260.467 L
171.955 260.124 L
171.999 259.781 L
172.034 259.438 L
172.261 259.095 L
172.283 258.752 L
172.347 258.409 L
172.47 258.066 L
172.554 257.723 L
172.584 257.38 L
172.724 257.037 L
172.728 256.694 L
172.887 256.351 L
172.959 256.008 L
173.035 255.665 L
173.065 255.322 L
173.181 254.979 L
173.252 254.636 L
173.331 254.293 L
173.426 253.95 L
173.482 253.607 L
173.558 253.264 L
173.754 252.921 L
173.847 252.578 L
173.854 252.235 L
173.922 251.892 L
173.93 251.549 L
173.977 251.206 L
174.059 250.863 L
174.083 250.52 L
174.092 250.177 L
174.263 249.834 L
174.5 249.491 L
174.507 249.148 L
174.573 248.805 L
174.617 248.462 L
174.629 248.119 L
174.781 247.776 L
174.791 247.433 L
174.946 247.09 L
174.954 246.747 L
175.226 246.404 L
175.389 246.061 L
175.406 245.718 L
175.498 245.375 L
175.562 245.032 L
175.612 244.689 L
175.757 244.346 L
175.87 244.003 L
175.879 243.66 L
175.918 243.317 L
175.984 242.974 L
176.079 242.631 L
176.601 242.288 L
176.793 241.945 L
176.854 241.602 L
176.937 241.259 L
177.05 240.916 L
177.273 240.573 L
177.371 240.23 L
177.413 239.887 L
177.437 239.544 L
177.503 239.201 L
177.504 238.858 L
177.557 238.515 L
177.626 238.172 L
177.627 237.829 L
177.659 237.486 L
177.812 237.143 L
177.886 236.8 L
177.888 236.457 L
177.928 236.114 L
177.951 235.771 L
177.98 235.428 L
178.119 235.085 L
178.244 234.742 L
178.279 234.399 L
178.282 234.056 L
178.491 233.713 L
178.514 233.37 L
178.593 233.027 L
178.689 232.684 L
178.804 232.341 L
178.987 231.998 L
179.003 231.655 L
179.079 231.312 L
179.115 230.969 L
179.224 230.626 L
179.244 230.283 L
179.38 229.94 L
179.384 229.597 L
179.605 229.254 L
179.658 228.911 L
179.67 228.568 L
179.677 228.225 L
179.832 227.882 L
179.996 227.539 L
179.998 227.196 L
180.032 226.853 L
180.058 226.51 L
180.064 226.167 L
180.084 225.824 L
180.12 225.481 L
180.229 225.138 L
180.245 224.795 L
180.287 224.452 L
180.331 224.109 L
180.423 223.766 L
180.486 223.423 L
180.602 223.08 L
180.611 222.737 L
180.615 222.394 L
180.76 222.051 L
180.802 221.708 L
180.82 221.365 L
180.944 221.022 L
180.976 220.679 L
181.065 220.336 L
181.073 219.993 L
181.132 219.65 L
181.174 219.307 L
181.405 218.964 L
181.587 218.621 L
181.616 218.278 L
181.634 217.935 L
181.649 217.592 L
181.657 217.249 L
181.706 216.906 L
181.797 216.563 L
181.974 216.22 L
182.013 215.877 L
182.091 215.534 L
182.127 215.191 L
182.193 214.848 L
182.216 214.505 L
182.226 214.162 L
182.32 213.819 L
182.699 213.476 L
182.835 213.133 L
182.909 212.79 L
183.118 212.447 L
183.135 212.104 L
183.309 211.761 L
183.461 211.418 L
183.486 211.075 L
183.613 210.732 L
183.686 210.389 L
183.75 210.046 L
183.754 209.703 L
183.777 209.36 L
183.825 209.017 L
183.957 208.674 L
183.977 208.331 L
184.193 207.988 L
184.293 207.645 L
184.4 207.302 L
184.42 206.959 L
184.465 206.616 L
184.494 206.273 L
184.537 205.93 L
184.596 205.587 L
184.882 205.244 L
184.993 204.901 L
185.008 204.558 L
185.123 204.215 L
185.155 203.872 L
185.312 203.529 L
185.4 203.186 L
185.466 202.843 L
185.487 202.5 L
185.488 202.157 L
185.491 201.814 L
185.533 201.471 L
185.663 201.128 L
185.962 200.785 L
185.995 200.442 L
186.136 200.099 L
186.224 199.756 L
186.284 199.413 L
186.324 199.07 L
186.347 198.727 L
186.5 198.384 L
186.542 198.041 L
186.666 197.698 L
186.74 197.355 L
186.858 197.012 L
186.935 196.669 L
187 196.326 L
187.048 195.983 L
187.089 195.64 L
187.156 195.297 L
187.179 194.954 L
187.252 194.611 L
187.311 194.268 L
187.323 193.925 L
187.324 193.582 L
187.386 193.239 L
187.43 192.896 L
187.431 192.553 L
187.496 192.21 L
187.539 191.867 L
187.583 191.524 L
187.655 191.181 L
187.686 190.838 L
187.872 190.495 L
187.879 190.152 L
187.93 189.809 L
187.933 189.466 L
188.169 189.123 L
188.172 188.78 L
188.497 188.437 L
188.536 188.094 L
188.607 187.751 L
188.635 187.408 L
188.659 187.065 L
188.796 186.722 L
188.823 186.379 L
188.84 186.036 L
188.842 185.693 L
188.862 185.35 L
188.864 185.007 L
189.119 184.664 L
189.178 184.321 L
189.197 183.978 L
189.304 183.635 L
189.501 183.292 L
189.543 182.949 L
189.691 182.606 L
189.785 182.263 L
189.795 181.92 L
189.922 181.577 L
190.159 181.234 L
190.185 180.891 L
190.208 180.548 L
190.23 180.205 L
190.271 179.862 L
190.308 179.519 L
190.316 179.176 L
190.523 178.833 L
190.559 178.49 L
190.562 178.147 L
190.709 177.804 L
190.813 177.461 L
190.823 177.118 L
190.849 176.775 L
190.901 176.432 L
191.015 176.089 L
191.052 175.746 L
191.102 175.403 L
191.137 175.06 L
191.142 174.717 L
191.249 174.374 L
191.322 174.031 L
191.466 173.688 L
191.668 173.345 L
191.683 173.002 L
191.841 172.659 L
191.888 172.316 L
192.177 171.973 L
192.202 171.63 L
192.349 171.287 L
192.349 170.944 L
192.466 170.601 L
192.518 170.258 L
192.522 169.915 L
192.598 169.572 L
192.604 169.229 L
192.63 168.886 L
192.675 168.543 L
192.763 168.2 L
192.781 167.857 L
192.8 167.514 L
192.833 167.171 L
192.834 166.828 L
192.837 166.485 L
192.859 166.142 L
192.948 165.799 L
192.956 165.456 L
192.957 165.113 L
193.225 164.77 L
193.251 164.427 L
193.338 164.084 L
193.387 163.741 L
193.626 163.398 L
193.702 163.055 L
193.731 162.712 L
193.822 162.369 L
193.835 162.026 L
193.853 161.683 L
193.922 161.34 L
194.062 160.997 L
194.118 160.654 L
194.231 160.311 L
194.275 159.968 L
194.313 159.625 L
194.479 159.282 L
194.631 158.939 L
194.661 158.596 L
194.722 158.253 L
194.829 157.91 L
195.004 157.567 L
195.056 157.224 L
195.111 156.881 L
195.115 156.538 L
195.128 156.195 L
195.15 155.852 L
195.212 155.509 L
195.247 155.166 L
195.289 154.823 L
195.404 154.48 L
195.424 154.137 L
195.509 153.794 L
195.765 153.451 L
195.798 153.108 L
195.967 152.765 L
196.014 152.422 L
196.105 152.079 L
196.273 151.736 L
196.352 151.393 L
196.621 151.05 L
196.66 150.707 L
196.682 150.364 L
196.787 150.021 L
196.79 149.678 L
197.174 149.335 L
197.196 148.992 L
197.201 148.649 L
197.272 148.306 L
197.336 147.963 L
197.378 147.62 L
197.418 147.277 L
197.561 146.934 L
197.959 146.591 L
198.129 146.248 L
198.234 145.905 L
198.267 145.562 L
198.391 145.219 L
198.397 144.876 L
198.497 144.533 L
198.556 144.19 L
198.638 143.847 L
198.719 143.504 L
198.994 143.161 L
199.006 142.818 L
199.207 142.475 L
199.212 142.132 L
199.29 141.789 L
199.302 141.446 L
199.316 141.103 L
199.363 140.76 L
199.39 140.417 L
199.461 140.074 L
199.604 139.731 L
199.673 139.388 L
199.687 139.045 L
199.765 138.702 L
199.906 138.359 L
200.299 138.016 L
200.417 137.673 L
200.566 137.33 L
200.67 136.987 L
200.699 136.644 L
200.753 136.301 L
201.013 135.958 L
201.095 135.615 L
201.291 135.272 L
201.344 134.929 L
201.443 134.586 L
201.496 134.243 L
201.499 133.9 L
201.57 133.557 L
201.581 133.214 L
201.616 132.871 L
201.732 132.528 L
201.786 132.185 L
201.874 131.842 L
201.948 131.499 L
202.007 131.156 L
202.031 130.813 L
202.034 130.47 L
202.269 130.127 L
202.294 129.784 L
202.41 129.441 L
202.443 129.098 L
202.46 128.755 L
202.487 128.412 L
202.6 128.069 L
202.869 127.726 L
202.91 127.383 L
202.914 127.04 L
203.012 126.697 L
203.031 126.354 L
203.112 126.011 L
203.182 125.668 L
203.205 125.325 L
203.333 124.982 L
203.549 124.639 L
203.586 124.296 L
203.694 123.953 L
203.879 123.61 L
204.152 123.267 L
204.708 122.924 L
205.303 122.581 L
205.402 122.238 L
205.443 121.895 L
205.448 121.552 L
205.463 121.209 L
205.607 120.866 L
205.676 120.523 L
205.919 120.18 L
206.045 119.837 L
206.129 119.494 L
206.174 119.151 L
206.182 118.808 L
206.21 118.465 L
206.231 118.122 L
206.338 117.779 L
206.396 117.436 L
206.627 117.093 L
206.652 116.75 L
206.69 116.407 L
206.725 116.064 L
206.779 115.721 L
206.959 115.378 L
207.084 115.035 L
207.246 114.692 L
207.417 114.349 L
207.63 114.006 L
207.901 113.663 L
207.968 113.32 L
208.251 112.977 L
208.293 112.634 L
208.308 112.291 L
208.858 111.948 L
209.15 111.605 L
209.251 111.262 L
209.279 110.919 L
209.354 110.576 L
209.418 110.233 L
209.442 109.89 L
209.45 109.547 L
209.452 109.204 L
209.456 108.861 L
209.586 108.518 L
209.93 108.175 L
210.011 107.832 L
210.021 107.489 L
210.064 107.146 L
210.078 106.803 L
210.097 106.46 L
210.167 106.117 L
210.184 105.774 L
210.185 105.431 L
210.237 105.088 L
210.752 104.745 L
210.999 104.402 L
211.073 104.059 L
211.218 103.716 L
211.249 103.373 L
211.289 103.03 L
211.338 102.687 L
211.347 102.344 L
211.663 102.001 L
211.79 101.658 L
211.795 101.315 L
211.858 100.972 L
212.034 100.629 L
212.17 100.286 L
212.402 99.943 L
212.404 99.6 L
212.745 99.257 L
212.85 98.914 L
212.865 98.571 L
212.971 98.228 L
213.011 97.885 L
213.043 97.542 L
213.074 97.199 L
213.089 96.856 L
213.139 96.513 L
213.156 96.17 L
213.192 95.827 L
213.575 95.484 L
213.928 95.141 L
214.386 94.798 L
214.629 94.455 L
214.812 94.112 L
214.867 93.769 L
214.884 93.426 L
214.913 93.083 L
215.124 92.74 L
215.341 92.397 L
215.569 92.054 L
215.627 91.711 L
215.687 91.368 L
215.722 91.025 L
215.814 90.682 L
216.028 90.339 L
216.171 89.996 L
216.188 89.653 L
216.29 89.31 L
216.59 88.967 L
216.594 88.624 L
216.611 88.281 L
217.202 87.938 L
217.231 87.595 L
217.43 87.252 L
217.438 86.909 L
217.442 86.566 L
217.629 86.223 L
217.679 85.88 L
218.017 85.537 L
218.061 85.194 L
218.212 84.851 L
218.583 84.508 L
218.62 84.165 L
218.726 83.822 L
218.796 83.479 L
218.925 83.136 L
218.947 82.793 L
219.09 82.45 L
219.167 82.107 L
219.33 81.764 L
219.355 81.421 L
219.665 81.078 L
219.932 80.735 L
220.033 80.392 L
220.399 80.049 L
220.848 79.706 L
221.064 79.363 L
221.148 79.02 L
221.239 78.677 L
221.246 78.334 L
221.313 77.991 L
221.462 77.648 L
221.487 77.305 L
221.554 76.962 L
221.654 76.619 L
221.673 76.276 L
221.684 75.933 L
221.894 75.59 L
222.271 75.247 L
222.409 74.904 L
222.555 74.561 L
223.198 74.218 L
223.315 73.875 L
223.627 73.532 L
223.715 73.189 L
224.133 72.846 L
224.186 72.503 L
224.191 72.16 L
224.373 71.817 L
224.399 71.474 L
224.642 71.131 L
225.269 70.788 L
225.336 70.445 L
225.399 70.102 L
225.46 69.759 L
225.606 69.416 L
225.729 69.073 L
225.732 68.73 L
225.77 68.387 L
225.783 68.044 L
226.059 67.701 L
226.176 67.358 L
226.204 67.015 L
226.273 66.672 L
226.509 66.329 L
226.535 65.986 L
226.577 65.643 L
226.822 65.3 L
226.955 64.957 L
227.232 64.614 L
227.275 64.271 L
227.336 63.928 L
228.036 63.585 L
228.184 63.242 L
228.401 62.899 L
228.546 62.556 L
228.723 62.213 L
228.789 61.87 L
228.806 61.527 L
228.905 61.184 L
229.043 60.841 L
229.228 60.498 L
229.39 60.155 L
229.496 59.812 L
229.891 59.469 L
230.115 59.126 L
230.62 58.783 L
231.302 58.44 L
231.352 58.097 L
231.452 57.754 L
231.489 57.411 L
231.597 57.068 L
232.956 56.725 L
233.052 56.382 L
233.231 56.039 L
233.299 55.696 L
233.414 55.353 L
233.786 55.01 L
233.833 54.667 L
234.466 54.324 L
234.537 53.981 L
234.558 53.638 L
234.582 53.295 L
235.064 52.952 L
235.072 52.609 L
235.824 52.266 L
236.19 51.923 L
236.339 51.58 L
237.044 51.237 L
237.098 50.894 L
237.303 50.551 L
237.394 50.208 L
237.571 49.865 L
237.572 49.522 L
238.312 49.179 L
238.748 48.836 L
239.387 48.493 L
239.538 48.15 L
239.552 47.807 L
239.864 47.464 L
241.399 47.121 L
241.942 46.778 L
242.309 46.435 L
242.36 46.092 L
242.893 45.749 L
243.108 45.406 L
243.784 45.063 L
244.491 44.72 L
245.078 44.377 L
246.429 44.034 L
246.491 43.691 L
246.707 43.348 L
246.96 43.005 L
246.973 42.662 L
247.001 42.319 L
248.216 41.976 L
250.136 41.633 L
250.665 41.29 L
250.665 40.947 L
252.038 40.604 L
252.161 40.261 L
252.32 39.918 L
252.388 39.575 L
252.884 39.232 L
253.422 38.889 L
254.842 38.546 L
254.987 38.203 L
256.662 37.86 L
259.405 37.517 L
259.705 37.174 L
261.179 36.831 L
261.745 36.488 L
261.761 36.145 L
261.849 35.802 L
262.202 35.459 L
262.732 35.116 L
263.366 34.773 L
266.595 34.43 L
267.551 34.087 L
267.72 33.744 L
267.91 33.401 L
269.523 33.058 L
271.949 32.715 L
280.712 32.372 L
281.159 32.029 L
283.983 31.686 L
291.77 31.343 L
306.056 31 L
S
GR
%%Trailer
%%Pages: 1
%%EOF
