%!PS-Adobe-3.0 EPSF-3.0
%%Creator: (MATLAB, The Mathworks, Inc. Version 9.12.0.2009381 \(R2022a\) Update 4. Operating System: Windows 10)
%%Title: ./unreg-vs-pca625_ton_pval.eps
%%CreationDate: 2023-04-17T11:34:25
%%Pages: (atend)
%%BoundingBox:    36     5   387   295
%%LanguageLevel: 3
%%EndComments
%%BeginProlog
%%BeginResource: procset (Apache XML Graphics Std ProcSet) 1.2 0
%%Version: 1.2 0
%%Copyright: (Copyright 2001-2003,2010 The Apache Software Foundation. License terms: http://www.apache.org/licenses/LICENSE-2.0)
/bd{bind def}bind def
/ld{load def}bd
/GR/grestore ld
/GS/gsave ld
/RM/rmoveto ld
/C/curveto ld
/t/show ld
/L/lineto ld
/ML/setmiterlimit ld
/CT/concat ld
/f/fill ld
/N/newpath ld
/S/stroke ld
/CC/setcmykcolor ld
/A/ashow ld
/cp/closepath ld
/RC/setrgbcolor ld
/LJ/setlinejoin ld
/GC/setgray ld
/LW/setlinewidth ld
/M/moveto ld
/re {4 2 roll M
1 index 0 rlineto
0 exch rlineto
neg 0 rlineto
cp } bd
/_ctm matrix def
/_tm matrix def
/BT { _ctm currentmatrix pop matrix _tm copy pop 0 0 moveto } bd
/ET { _ctm setmatrix } bd
/iTm { _ctm setmatrix _tm concat } bd
/Tm { _tm astore pop iTm 0 0 moveto } bd
/ux 0.0 def
/uy 0.0 def
/F {
  /Tp exch def
  /Tf exch def
  Tf findfont Tp scalefont setfont
  /cf Tf def  /cs Tp def
} bd
/ULS {currentpoint /uy exch def /ux exch def} bd
/ULE {
  /Tcx currentpoint pop def
  gsave
  newpath
  cf findfont cs scalefont dup
  /FontMatrix get 0 get /Ts exch def /FontInfo get dup
  /UnderlinePosition get Ts mul /To exch def
  /UnderlineThickness get Ts mul /Tt exch def
  ux uy To add moveto  Tcx uy To add lineto
  Tt setlinewidth stroke
  grestore
} bd
/OLE {
  /Tcx currentpoint pop def
  gsave
  newpath
  cf findfont cs scalefont dup
  /FontMatrix get 0 get /Ts exch def /FontInfo get dup
  /UnderlinePosition get Ts mul /To exch def
  /UnderlineThickness get Ts mul /Tt exch def
  ux uy To add cs add moveto Tcx uy To add cs add lineto
  Tt setlinewidth stroke
  grestore
} bd
/SOE {
  /Tcx currentpoint pop def
  gsave
  newpath
  cf findfont cs scalefont dup
  /FontMatrix get 0 get /Ts exch def /FontInfo get dup
  /UnderlinePosition get Ts mul /To exch def
  /UnderlineThickness get Ts mul /Tt exch def
  ux uy To add cs 10 mul 26 idiv add moveto Tcx uy To add cs 10 mul 26 idiv add lineto
  Tt setlinewidth stroke
  grestore
} bd
/QT {
/Y22 exch store
/X22 exch store
/Y21 exch store
/X21 exch store
currentpoint
/Y21 load 2 mul add 3 div exch
/X21 load 2 mul add 3 div exch
/X21 load 2 mul /X22 load add 3 div
/Y21 load 2 mul /Y22 load add 3 div
/X22 load /Y22 load curveto
} bd
/SSPD {
dup length /d exch dict def
{
/v exch def
/k exch def
currentpagedevice k known {
/cpdv currentpagedevice k get def
v cpdv ne {
/upd false def
/nullv v type /nulltype eq def
/nullcpdv cpdv type /nulltype eq def
nullv nullcpdv or
{
/upd true def
} {
/sametype v type cpdv type eq def
sametype {
v type /arraytype eq {
/vlen v length def
/cpdvlen cpdv length def
vlen cpdvlen eq {
0 1 vlen 1 sub {
/i exch def
/obj v i get def
/cpdobj cpdv i get def
obj cpdobj ne {
/upd true def
exit
} if
} for
} {
/upd true def
} ifelse
} {
v type /dicttype eq {
v {
/dv exch def
/dk exch def
/cpddv cpdv dk get def
dv cpddv ne {
/upd true def
exit
} if
} forall
} {
/upd true def
} ifelse
} ifelse
} if
} ifelse
upd true eq {
d k v put
} if
} if
} if
} forall
d length 0 gt {
d setpagedevice
} if
} bd
/RE { % /NewFontName [NewEncodingArray] /FontName RE -
  findfont dup length dict begin
  {
    1 index /FID ne
    {def} {pop pop} ifelse
  } forall
  /Encoding exch def
  /FontName 1 index def
  currentdict definefont pop
  end
} bind def
%%EndResource
%%BeginResource: procset (Apache XML Graphics EPS ProcSet) 1.0 0
%%Version: 1.0 0
%%Copyright: (Copyright 2002-2003 The Apache Software Foundation. License terms: http://www.apache.org/licenses/LICENSE-2.0)
/BeginEPSF { %def
/b4_Inc_state save def         % Save state for cleanup
/dict_count countdictstack def % Count objects on dict stack
/op_count count 1 sub def      % Count objects on operand stack
userdict begin                 % Push userdict on dict stack
/showpage { } def              % Redefine showpage, { } = null proc
0 setgray 0 setlinecap         % Prepare graphics state
1 setlinewidth 0 setlinejoin
10 setmiterlimit [ ] 0 setdash newpath
/languagelevel where           % If level not equal to 1 then
{pop languagelevel             % set strokeadjust and
1 ne                           % overprint to their defaults.
{false setstrokeadjust false setoverprint
} if
} if
} bd
/EndEPSF { %def
count op_count sub {pop} repeat            % Clean up stacks
countdictstack dict_count sub {end} repeat
b4_Inc_state restore
} bd
%%EndResource
%FOPBeginFontDict
%%IncludeResource: font Courier-Oblique
%%IncludeResource: font Courier-BoldOblique
%%IncludeResource: font Courier-Bold
%%IncludeResource: font ZapfDingbats
%%IncludeResource: font Symbol
%%IncludeResource: font Helvetica
%%IncludeResource: font Helvetica-Oblique
%%IncludeResource: font Helvetica-Bold
%%IncludeResource: font Helvetica-BoldOblique
%%IncludeResource: font Times-Roman
%%IncludeResource: font Times-Italic
%%IncludeResource: font Times-Bold
%%IncludeResource: font Times-BoldItalic
%%IncludeResource: font Courier
%FOPEndFontDict
%%BeginResource: encoding WinAnsiEncoding
/WinAnsiEncoding [
/.notdef /.notdef /.notdef /.notdef /.notdef
/.notdef /.notdef /.notdef /.notdef /.notdef
/.notdef /.notdef /.notdef /.notdef /.notdef
/.notdef /.notdef /.notdef /.notdef /.notdef
/.notdef /.notdef /.notdef /.notdef /.notdef
/.notdef /.notdef /.notdef /.notdef /.notdef
/.notdef /.notdef /space /exclam /quotedbl
/numbersign /dollar /percent /ampersand /quotesingle
/parenleft /parenright /asterisk /plus /comma
/hyphen /period /slash /zero /one
/two /three /four /five /six
/seven /eight /nine /colon /semicolon
/less /equal /greater /question /at
/A /B /C /D /E
/F /G /H /I /J
/K /L /M /N /O
/P /Q /R /S /T
/U /V /W /X /Y
/Z /bracketleft /backslash /bracketright /asciicircum
/underscore /quoteleft /a /b /c
/d /e /f /g /h
/i /j /k /l /m
/n /o /p /q /r
/s /t /u /v /w
/x /y /z /braceleft /bar
/braceright /asciitilde /bullet /Euro /bullet
/quotesinglbase /florin /quotedblbase /ellipsis /dagger
/daggerdbl /circumflex /perthousand /Scaron /guilsinglleft
/OE /bullet /Zcaron /bullet /bullet
/quoteleft /quoteright /quotedblleft /quotedblright /bullet
/endash /emdash /asciitilde /trademark /scaron
/guilsinglright /oe /bullet /zcaron /Ydieresis
/space /exclamdown /cent /sterling /currency
/yen /brokenbar /section /dieresis /copyright
/ordfeminine /guillemotleft /logicalnot /sfthyphen /registered
/macron /degree /plusminus /twosuperior /threesuperior
/acute /mu /paragraph /middot /cedilla
/onesuperior /ordmasculine /guillemotright /onequarter /onehalf
/threequarters /questiondown /Agrave /Aacute /Acircumflex
/Atilde /Adieresis /Aring /AE /Ccedilla
/Egrave /Eacute /Ecircumflex /Edieresis /Igrave
/Iacute /Icircumflex /Idieresis /Eth /Ntilde
/Ograve /Oacute /Ocircumflex /Otilde /Odieresis
/multiply /Oslash /Ugrave /Uacute /Ucircumflex
/Udieresis /Yacute /Thorn /germandbls /agrave
/aacute /acircumflex /atilde /adieresis /aring
/ae /ccedilla /egrave /eacute /ecircumflex
/edieresis /igrave /iacute /icircumflex /idieresis
/eth /ntilde /ograve /oacute /ocircumflex
/otilde /odieresis /divide /oslash /ugrave
/uacute /ucircumflex /udieresis /yacute /thorn
/ydieresis
] def
%%EndResource
%FOPBeginFontReencode
/Courier-Oblique findfont
dup length dict begin
  {1 index /FID ne {def} {pop pop} ifelse} forall
  /Encoding WinAnsiEncoding def
  currentdict
end
/Courier-Oblique exch definefont pop
/Courier-BoldOblique findfont
dup length dict begin
  {1 index /FID ne {def} {pop pop} ifelse} forall
  /Encoding WinAnsiEncoding def
  currentdict
end
/Courier-BoldOblique exch definefont pop
/Courier-Bold findfont
dup length dict begin
  {1 index /FID ne {def} {pop pop} ifelse} forall
  /Encoding WinAnsiEncoding def
  currentdict
end
/Courier-Bold exch definefont pop
/Helvetica findfont
dup length dict begin
  {1 index /FID ne {def} {pop pop} ifelse} forall
  /Encoding WinAnsiEncoding def
  currentdict
end
/Helvetica exch definefont pop
/Helvetica-Oblique findfont
dup length dict begin
  {1 index /FID ne {def} {pop pop} ifelse} forall
  /Encoding WinAnsiEncoding def
  currentdict
end
/Helvetica-Oblique exch definefont pop
/Helvetica-Bold findfont
dup length dict begin
  {1 index /FID ne {def} {pop pop} ifelse} forall
  /Encoding WinAnsiEncoding def
  currentdict
end
/Helvetica-Bold exch definefont pop
/Helvetica-BoldOblique findfont
dup length dict begin
  {1 index /FID ne {def} {pop pop} ifelse} forall
  /Encoding WinAnsiEncoding def
  currentdict
end
/Helvetica-BoldOblique exch definefont pop
/Times-Roman findfont
dup length dict begin
  {1 index /FID ne {def} {pop pop} ifelse} forall
  /Encoding WinAnsiEncoding def
  currentdict
end
/Times-Roman exch definefont pop
/Times-Italic findfont
dup length dict begin
  {1 index /FID ne {def} {pop pop} ifelse} forall
  /Encoding WinAnsiEncoding def
  currentdict
end
/Times-Italic exch definefont pop
/Times-Bold findfont
dup length dict begin
  {1 index /FID ne {def} {pop pop} ifelse} forall
  /Encoding WinAnsiEncoding def
  currentdict
end
/Times-Bold exch definefont pop
/Times-BoldItalic findfont
dup length dict begin
  {1 index /FID ne {def} {pop pop} ifelse} forall
  /Encoding WinAnsiEncoding def
  currentdict
end
/Times-BoldItalic exch definefont pop
/Courier findfont
dup length dict begin
  {1 index /FID ne {def} {pop pop} ifelse} forall
  /Encoding WinAnsiEncoding def
  currentdict
end
/Courier exch definefont pop
%FOPEndFontReencode
%%EndProlog
%%Page: 1 1
%%PageBoundingBox: 0 0 420 315
%%BeginPageSetup
N
   36     5 M
  423     5 L
  423   300 L
   36   300 L
cp
clip
[1 0 0 -1 0 315] CT
%%EndPageSetup
GS
[0.75 0 0 0.75 0 0] CT
1 GC
N
0 0 560 420 re
f
GR
GS
[0.75 0 0 0.75 0 0] CT
1 GC
N
0 0 560 420 re
f
GR
GS
[0.75 0 0 0.75 0 0] CT
1 GC
N
73 374 M
507 374 L
507 31 L
73 31 L
cp
f
GR
GS
[0.75 0 0 0.75 0 0] CT
0.149 GC
2 setlinecap
1 LJ
0.667 LW
N
73 374 M
507 374 L
S
GR
GS
[0.75 0 0 0.75 0 0] CT
0.149 GC
2 setlinecap
1 LJ
0.667 LW
N
73 31 M
507 31 L
S
GR
GS
[0.75 0 0 0.75 0 0] CT
0.149 GC
2 setlinecap
1 LJ
0.667 LW
N
73 374 M
73 369.66 L
S
GR
GS
[0.75 0 0 0.75 0 0] CT
0.149 GC
2 setlinecap
1 LJ
0.667 LW
N
135 374 M
135 369.66 L
S
GR
GS
[0.75 0 0 0.75 0 0] CT
0.149 GC
2 setlinecap
1 LJ
0.667 LW
N
197 374 M
197 369.66 L
S
GR
GS
[0.75 0 0 0.75 0 0] CT
0.149 GC
2 setlinecap
1 LJ
0.667 LW
N
259 374 M
259 369.66 L
S
GR
GS
[0.75 0 0 0.75 0 0] CT
0.149 GC
2 setlinecap
1 LJ
0.667 LW
N
321 374 M
321 369.66 L
S
GR
GS
[0.75 0 0 0.75 0 0] CT
0.149 GC
2 setlinecap
1 LJ
0.667 LW
N
383 374 M
383 369.66 L
S
GR
GS
[0.75 0 0 0.75 0 0] CT
0.149 GC
2 setlinecap
1 LJ
0.667 LW
N
445 374 M
445 369.66 L
S
GR
GS
[0.75 0 0 0.75 0 0] CT
0.149 GC
2 setlinecap
1 LJ
0.667 LW
N
507 374 M
507 369.66 L
S
GR
GS
[0.75 0 0 0.75 0 0] CT
0.149 GC
2 setlinecap
1 LJ
0.667 LW
N
73 31 M
73 35.34 L
S
GR
GS
[0.75 0 0 0.75 0 0] CT
0.149 GC
2 setlinecap
1 LJ
0.667 LW
N
135 31 M
135 35.34 L
S
GR
GS
[0.75 0 0 0.75 0 0] CT
0.149 GC
2 setlinecap
1 LJ
0.667 LW
N
197 31 M
197 35.34 L
S
GR
GS
[0.75 0 0 0.75 0 0] CT
0.149 GC
2 setlinecap
1 LJ
0.667 LW
N
259 31 M
259 35.34 L
S
GR
GS
[0.75 0 0 0.75 0 0] CT
0.149 GC
2 setlinecap
1 LJ
0.667 LW
N
321 31 M
321 35.34 L
S
GR
GS
[0.75 0 0 0.75 0 0] CT
0.149 GC
2 setlinecap
1 LJ
0.667 LW
N
383 31 M
383 35.34 L
S
GR
GS
[0.75 0 0 0.75 0 0] CT
0.149 GC
2 setlinecap
1 LJ
0.667 LW
N
445 31 M
445 35.34 L
S
GR
GS
[0.75 0 0 0.75 0 0] CT
0.149 GC
2 setlinecap
1 LJ
0.667 LW
N
507 31 M
507 35.34 L
S
GR
GS
[0.75 0 0 0.75 54.75 284.50001] CT
0.149 GC
/Helvetica 13.333 F
GS
[1 0 0 1 0 0] CT
-4 14 moveto 
1 -1 scale
(0) t 
GR
GR
GS
[0.75 0 0 0.75 101.25 284.50001] CT
0.149 GC
/Helvetica 13.333 F
GS
[1 0 0 1 0 0] CT
-9.5 14 moveto 
1 -1 scale
(0.5) t 
GR
GR
GS
[0.75 0 0 0.75 147.75 284.50001] CT
0.149 GC
/Helvetica 13.333 F
GS
[1 0 0 1 0 0] CT
-4 14 moveto 
1 -1 scale
(1) t 
GR
GR
GS
[0.75 0 0 0.75 194.25 284.50001] CT
0.149 GC
/Helvetica 13.333 F
GS
[1 0 0 1 0 0] CT
-9.5 14 moveto 
1 -1 scale
(1.5) t 
GR
GR
GS
[0.75 0 0 0.75 240.75 284.50001] CT
0.149 GC
/Helvetica 13.333 F
GS
[1 0 0 1 0 0] CT
-4 14 moveto 
1 -1 scale
(2) t 
GR
GR
GS
[0.75 0 0 0.75 287.25 284.50001] CT
0.149 GC
/Helvetica 13.333 F
GS
[1 0 0 1 0 0] CT
-9.5 14 moveto 
1 -1 scale
(2.5) t 
GR
GR
GS
[0.75 0 0 0.75 333.75 284.50001] CT
0.149 GC
/Helvetica 13.333 F
GS
[1 0 0 1 0 0] CT
-4 14 moveto 
1 -1 scale
(3) t 
GR
GR
GS
[0.75 0 0 0.75 380.25 284.50001] CT
0.149 GC
/Helvetica 13.333 F
GS
[1 0 0 1 0 0] CT
-9.5 14 moveto 
1 -1 scale
(3.5) t 
GR
GR
GS
[0.75 0 0 0.75 217.50016 298.24999] CT
0.149 GC
/Helvetica 14.667 F
GS
[1 0 0 1 0 0] CT
-87.5 15 moveto 
1 -1 scale
(Difference between means) t 
GR
GR
GS
[0.75 0 0 0.75 0 0] CT
0.149 GC
2 setlinecap
1 LJ
0.667 LW
N
73 374 M
73 31 L
S
GR
GS
[0.75 0 0 0.75 0 0] CT
0.149 GC
2 setlinecap
1 LJ
0.667 LW
N
507 374 M
507 31 L
S
GR
GS
[0.75 0 0 0.75 0 0] CT
0.149 GC
2 setlinecap
1 LJ
0.667 LW
N
73 374 M
77.34 374 L
S
GR
GS
[0.75 0 0 0.75 0 0] CT
0.149 GC
2 setlinecap
1 LJ
0.667 LW
N
73 339.7 M
77.34 339.7 L
S
GR
GS
[0.75 0 0 0.75 0 0] CT
0.149 GC
2 setlinecap
1 LJ
0.667 LW
N
73 305.4 M
77.34 305.4 L
S
GR
GS
[0.75 0 0 0.75 0 0] CT
0.149 GC
2 setlinecap
1 LJ
0.667 LW
N
73 271.1 M
77.34 271.1 L
S
GR
GS
[0.75 0 0 0.75 0 0] CT
0.149 GC
2 setlinecap
1 LJ
0.667 LW
N
73 236.8 M
77.34 236.8 L
S
GR
GS
[0.75 0 0 0.75 0 0] CT
0.149 GC
2 setlinecap
1 LJ
0.667 LW
N
73 202.5 M
77.34 202.5 L
S
GR
GS
[0.75 0 0 0.75 0 0] CT
0.149 GC
2 setlinecap
1 LJ
0.667 LW
N
73 168.2 M
77.34 168.2 L
S
GR
GS
[0.75 0 0 0.75 0 0] CT
0.149 GC
2 setlinecap
1 LJ
0.667 LW
N
73 133.9 M
77.34 133.9 L
S
GR
GS
[0.75 0 0 0.75 0 0] CT
0.149 GC
2 setlinecap
1 LJ
0.667 LW
N
73 99.6 M
77.34 99.6 L
S
GR
GS
[0.75 0 0 0.75 0 0] CT
0.149 GC
2 setlinecap
1 LJ
0.667 LW
N
73 65.3 M
77.34 65.3 L
S
GR
GS
[0.75 0 0 0.75 0 0] CT
0.149 GC
2 setlinecap
1 LJ
0.667 LW
N
73 31 M
77.34 31 L
S
GR
GS
[0.75 0 0 0.75 0 0] CT
0.149 GC
2 setlinecap
1 LJ
0.667 LW
N
507 374 M
502.66 374 L
S
GR
GS
[0.75 0 0 0.75 0 0] CT
0.149 GC
2 setlinecap
1 LJ
0.667 LW
N
507 339.7 M
502.66 339.7 L
S
GR
GS
[0.75 0 0 0.75 0 0] CT
0.149 GC
2 setlinecap
1 LJ
0.667 LW
N
507 305.4 M
502.66 305.4 L
S
GR
GS
[0.75 0 0 0.75 0 0] CT
0.149 GC
2 setlinecap
1 LJ
0.667 LW
N
507 271.1 M
502.66 271.1 L
S
GR
GS
[0.75 0 0 0.75 0 0] CT
0.149 GC
2 setlinecap
1 LJ
0.667 LW
N
507 236.8 M
502.66 236.8 L
S
GR
GS
[0.75 0 0 0.75 0 0] CT
0.149 GC
2 setlinecap
1 LJ
0.667 LW
N
507 202.5 M
502.66 202.5 L
S
GR
GS
[0.75 0 0 0.75 0 0] CT
0.149 GC
2 setlinecap
1 LJ
0.667 LW
N
507 168.2 M
502.66 168.2 L
S
GR
GS
[0.75 0 0 0.75 0 0] CT
0.149 GC
2 setlinecap
1 LJ
0.667 LW
N
507 133.9 M
502.66 133.9 L
S
GR
GS
[0.75 0 0 0.75 0 0] CT
0.149 GC
2 setlinecap
1 LJ
0.667 LW
N
507 99.6 M
502.66 99.6 L
S
GR
GS
[0.75 0 0 0.75 0 0] CT
0.149 GC
2 setlinecap
1 LJ
0.667 LW
N
507 65.3 M
502.66 65.3 L
S
GR
GS
[0.75 0 0 0.75 0 0] CT
0.149 GC
2 setlinecap
1 LJ
0.667 LW
N
507 31 M
502.66 31 L
S
GR
GS
[0.75 0 0 0.75 50.75 280.5] CT
0.149 GC
/Helvetica 13.333 F
GS
[1 0 0 1 0 0] CT
-8 5.5 moveto 
1 -1 scale
(0) t 
GR
GR
GS
[0.75 0 0 0.75 50.75 254.77501] CT
0.149 GC
/Helvetica 13.333 F
GS
[1 0 0 1 0 0] CT
-19 5.5 moveto 
1 -1 scale
(0.1) t 
GR
GR
GS
[0.75 0 0 0.75 50.75 229.05] CT
0.149 GC
/Helvetica 13.333 F
GS
[1 0 0 1 0 0] CT
-19 5.5 moveto 
1 -1 scale
(0.2) t 
GR
GR
GS
[0.75 0 0 0.75 50.75 203.325] CT
0.149 GC
/Helvetica 13.333 F
GS
[1 0 0 1 0 0] CT
-19 5.5 moveto 
1 -1 scale
(0.3) t 
GR
GR
GS
[0.75 0 0 0.75 50.75 177.6] CT
0.149 GC
/Helvetica 13.333 F
GS
[1 0 0 1 0 0] CT
-19 5.5 moveto 
1 -1 scale
(0.4) t 
GR
GR
GS
[0.75 0 0 0.75 50.75 151.875] CT
0.149 GC
/Helvetica 13.333 F
GS
[1 0 0 1 0 0] CT
-19 5.5 moveto 
1 -1 scale
(0.5) t 
GR
GR
GS
[0.75 0 0 0.75 50.75 126.15] CT
0.149 GC
/Helvetica 13.333 F
GS
[1 0 0 1 0 0] CT
-19 5.5 moveto 
1 -1 scale
(0.6) t 
GR
GR
GS
[0.75 0 0 0.75 50.75 100.42501] CT
0.149 GC
/Helvetica 13.333 F
GS
[1 0 0 1 0 0] CT
-19 5.5 moveto 
1 -1 scale
(0.7) t 
GR
GR
GS
[0.75 0 0 0.75 50.75 74.7] CT
0.149 GC
/Helvetica 13.333 F
GS
[1 0 0 1 0 0] CT
-19 5.5 moveto 
1 -1 scale
(0.8) t 
GR
GR
GS
[0.75 0 0 0.75 50.75 48.97501] CT
0.149 GC
/Helvetica 13.333 F
GS
[1 0 0 1 0 0] CT
-19 5.5 moveto 
1 -1 scale
(0.9) t 
GR
GR
GS
[0.75 0 0 0.75 50.75 23.25] CT
0.149 GC
/Helvetica 13.333 F
GS
[1 0 0 1 0 0] CT
-8 5.5 moveto 
1 -1 scale
(1) t 
GR
GR
GS
[0.75 0 0 0.75 0 0] CT
1 LJ
0.667 LW
N
175.737 373.657 M
190.068 373.314 L
190.573 372.971 L
194.904 372.628 L
197.867 372.285 L
204.108 371.942 L
205.452 371.599 L
205.842 371.256 L
210.994 370.913 L
212.572 370.57 L
212.625 370.227 L
214.011 369.884 L
214.852 369.541 L
214.896 369.198 L
216.081 368.855 L
216.964 368.512 L
217.289 368.169 L
218.578 367.826 L
218.88 367.483 L
220.19 367.14 L
221.927 366.797 L
225.229 366.454 L
225.4 366.111 L
226.071 365.768 L
226.267 365.425 L
228.012 365.082 L
230.438 364.739 L
231.771 364.396 L
232.619 364.053 L
232.634 363.71 L
232.671 363.367 L
233.354 363.024 L
233.465 362.681 L
233.76 362.338 L
234.042 361.995 L
234.322 361.652 L
234.851 361.309 L
236.853 360.966 L
237.289 360.623 L
237.311 360.28 L
238.381 359.937 L
238.536 359.594 L
240.713 359.251 L
241.057 358.908 L
241.418 358.565 L
241.834 358.222 L
243.095 357.879 L
243.609 357.536 L
243.703 357.193 L
244.429 356.85 L
244.717 356.507 L
245.187 356.164 L
245.228 355.821 L
247.87 355.478 L
249.051 355.135 L
249.146 354.792 L
249.154 354.449 L
249.159 354.106 L
249.426 353.763 L
250.167 353.42 L
250.252 353.077 L
250.902 352.734 L
251.213 352.391 L
251.596 352.048 L
251.739 351.705 L
251.872 351.362 L
252.352 351.019 L
252.679 350.676 L
253.645 350.333 L
253.982 349.99 L
254.132 349.647 L
254.943 349.304 L
255.064 348.961 L
255.089 348.618 L
255.201 348.275 L
255.456 347.932 L
255.471 347.589 L
255.533 347.246 L
255.971 346.903 L
256.052 346.56 L
256.456 346.217 L
256.468 345.874 L
256.999 345.531 L
257.15 345.188 L
257.681 344.845 L
257.854 344.502 L
258.45 344.159 L
258.81 343.816 L
258.911 343.473 L
259.548 343.13 L
260.005 342.787 L
260.022 342.444 L
260.077 342.101 L
260.397 341.758 L
260.417 341.415 L
261.482 341.072 L
261.688 340.729 L
262.449 340.386 L
262.852 340.043 L
263.418 339.7 L
263.651 339.357 L
263.731 339.014 L
264.719 338.671 L
265.104 338.328 L
265.983 337.985 L
265.986 337.642 L
266.186 337.299 L
266.367 336.956 L
266.415 336.613 L
266.593 336.27 L
266.616 335.927 L
266.805 335.584 L
266.933 335.241 L
267.296 334.898 L
267.329 334.555 L
267.751 334.212 L
267.906 333.869 L
268.536 333.526 L
268.625 333.183 L
268.905 332.84 L
268.998 332.497 L
269.579 332.154 L
269.806 331.811 L
269.834 331.468 L
270.047 331.125 L
270.115 330.782 L
270.36 330.439 L
270.747 330.096 L
270.848 329.753 L
271.113 329.41 L
271.209 329.067 L
271.99 328.724 L
272.17 328.381 L
272.39 328.038 L
272.478 327.695 L
272.496 327.352 L
272.501 327.009 L
272.701 326.666 L
272.849 326.323 L
272.941 325.98 L
273.113 325.637 L
273.12 325.294 L
273.159 324.951 L
273.322 324.608 L
273.4 324.265 L
273.992 323.922 L
273.997 323.579 L
274.05 323.236 L
274.679 322.893 L
274.715 322.55 L
274.813 322.207 L
274.82 321.864 L
274.873 321.521 L
275.174 321.178 L
275.203 320.835 L
275.267 320.492 L
275.747 320.149 L
275.908 319.806 L
276.076 319.463 L
276.261 319.12 L
276.458 318.777 L
276.756 318.434 L
276.998 318.091 L
277.886 317.748 L
278.901 317.405 L
278.98 317.062 L
279.178 316.719 L
279.254 316.376 L
279.26 316.033 L
279.496 315.69 L
279.623 315.347 L
280.021 315.004 L
280.401 314.661 L
280.506 314.318 L
280.578 313.975 L
280.582 313.632 L
280.582 313.289 L
280.645 312.946 L
280.727 312.603 L
280.821 312.26 L
280.879 311.917 L
280.973 311.574 L
281.247 311.231 L
281.258 310.888 L
281.363 310.545 L
281.423 310.202 L
281.425 309.859 L
281.574 309.516 L
281.694 309.173 L
281.795 308.83 L
282.137 308.487 L
282.557 308.144 L
282.778 307.801 L
282.871 307.458 L
283.033 307.115 L
283.181 306.772 L
283.215 306.429 L
283.365 306.086 L
283.42 305.743 L
283.432 305.4 L
283.507 305.057 L
283.987 304.714 L
284.164 304.371 L
284.516 304.028 L
284.614 303.685 L
284.633 303.342 L
284.808 302.999 L
284.891 302.656 L
285.182 302.313 L
285.328 301.97 L
285.406 301.627 L
285.951 301.284 L
286.393 300.941 L
286.733 300.598 L
286.806 300.255 L
286.882 299.912 L
286.95 299.569 L
287.037 299.226 L
287.215 298.883 L
287.282 298.54 L
287.547 298.197 L
287.997 297.854 L
288.045 297.511 L
288.227 297.168 L
288.441 296.825 L
288.454 296.482 L
288.795 296.139 L
288.835 295.796 L
288.909 295.453 L
288.938 295.11 L
288.966 294.767 L
289.078 294.424 L
289.205 294.081 L
289.316 293.738 L
289.34 293.395 L
289.434 293.052 L
289.552 292.709 L
289.566 292.366 L
289.611 292.023 L
289.932 291.68 L
289.955 291.337 L
290.127 290.994 L
290.186 290.651 L
290.306 290.308 L
291.111 289.965 L
291.125 289.622 L
291.165 289.279 L
291.189 288.936 L
291.254 288.593 L
291.722 288.25 L
291.851 287.907 L
292.026 287.564 L
292.209 287.221 L
292.252 286.878 L
292.416 286.535 L
292.586 286.192 L
292.755 285.849 L
293.112 285.506 L
293.12 285.163 L
293.179 284.82 L
293.189 284.477 L
293.201 284.134 L
293.232 283.791 L
293.249 283.448 L
293.288 283.105 L
293.312 282.762 L
293.391 282.419 L
293.464 282.076 L
293.629 281.733 L
293.66 281.39 L
293.905 281.047 L
294.017 280.704 L
294.136 280.361 L
294.15 280.018 L
294.235 279.675 L
294.583 279.332 L
294.897 278.989 L
294.919 278.646 L
295.123 278.303 L
295.363 277.96 L
295.405 277.617 L
295.413 277.274 L
295.489 276.931 L
295.716 276.588 L
295.83 276.245 L
295.836 275.902 L
295.907 275.559 L
296.132 275.216 L
296.291 274.873 L
296.341 274.53 L
296.463 274.187 L
296.537 273.844 L
296.722 273.501 L
296.744 273.158 L
297.061 272.815 L
297.069 272.472 L
297.602 272.129 L
297.707 271.786 L
297.87 271.443 L
297.955 271.1 L
297.978 270.757 L
297.983 270.414 L
298.015 270.071 L
298.04 269.728 L
298.056 269.385 L
298.264 269.042 L
298.274 268.699 L
298.315 268.356 L
298.458 268.013 L
298.749 267.67 L
298.877 267.327 L
298.884 266.984 L
298.965 266.641 L
299.087 266.298 L
299.213 265.955 L
299.238 265.612 L
299.525 265.269 L
299.583 264.926 L
299.641 264.583 L
299.858 264.24 L
300.157 263.897 L
300.187 263.554 L
300.235 263.211 L
300.321 262.868 L
300.377 262.525 L
300.568 262.182 L
300.946 261.839 L
301.661 261.496 L
301.82 261.153 L
301.846 260.81 L
302.195 260.467 L
302.358 260.124 L
302.455 259.781 L
302.582 259.438 L
302.609 259.095 L
302.613 258.752 L
302.626 258.409 L
302.803 258.066 L
302.827 257.723 L
302.958 257.38 L
302.983 257.037 L
303.035 256.694 L
303.458 256.351 L
303.472 256.008 L
303.475 255.665 L
303.613 255.322 L
303.638 254.979 L
303.716 254.636 L
303.791 254.293 L
303.86 253.95 L
304.035 253.607 L
304.081 253.264 L
304.199 252.921 L
304.595 252.578 L
304.825 252.235 L
304.984 251.892 L
305.006 251.549 L
305.115 251.206 L
305.147 250.863 L
305.329 250.52 L
305.401 250.177 L
305.43 249.834 L
305.454 249.491 L
305.609 249.148 L
305.793 248.805 L
305.968 248.462 L
306.045 248.119 L
306.107 247.776 L
306.201 247.433 L
306.294 247.09 L
306.328 246.747 L
306.34 246.404 L
306.396 246.061 L
306.426 245.718 L
306.758 245.375 L
306.823 245.032 L
306.835 244.689 L
306.954 244.346 L
307.093 244.003 L
307.094 243.66 L
307.163 243.317 L
307.281 242.974 L
307.424 242.631 L
307.605 242.288 L
307.669 241.945 L
307.734 241.602 L
307.746 241.259 L
307.923 240.916 L
307.945 240.573 L
307.972 240.23 L
308.044 239.887 L
308.045 239.544 L
308.116 239.201 L
308.201 238.858 L
308.334 238.515 L
308.449 238.172 L
308.469 237.829 L
308.531 237.486 L
308.549 237.143 L
308.611 236.8 L
308.661 236.457 L
308.876 236.114 L
308.95 235.771 L
308.976 235.428 L
309.104 235.085 L
309.185 234.742 L
309.267 234.399 L
309.315 234.056 L
309.519 233.713 L
309.551 233.37 L
309.638 233.027 L
309.892 232.684 L
309.981 232.341 L
310.02 231.998 L
310.138 231.655 L
310.269 231.312 L
310.842 230.969 L
311.058 230.626 L
311.337 230.283 L
311.363 229.94 L
311.594 229.597 L
312.124 229.254 L
312.127 228.911 L
312.182 228.568 L
312.242 228.225 L
312.3 227.882 L
312.333 227.539 L
312.36 227.196 L
312.532 226.853 L
312.672 226.51 L
312.836 226.167 L
312.838 225.824 L
312.924 225.481 L
312.957 225.138 L
313.137 224.795 L
313.264 224.452 L
313.292 224.109 L
313.345 223.766 L
313.361 223.423 L
313.515 223.08 L
313.624 222.737 L
313.667 222.394 L
313.727 222.051 L
313.753 221.708 L
313.859 221.365 L
314.129 221.022 L
314.422 220.679 L
314.47 220.336 L
314.565 219.993 L
314.601 219.65 L
314.619 219.307 L
314.712 218.964 L
314.729 218.621 L
314.768 218.278 L
314.871 217.935 L
314.909 217.592 L
314.993 217.249 L
315.236 216.906 L
315.331 216.563 L
315.45 216.22 L
315.59 215.877 L
315.769 215.534 L
316.065 215.191 L
316.179 214.848 L
316.213 214.505 L
316.269 214.162 L
316.335 213.819 L
316.375 213.476 L
316.516 213.133 L
316.573 212.79 L
316.661 212.447 L
316.851 212.104 L
316.878 211.761 L
317.011 211.418 L
317.074 211.075 L
317.104 210.732 L
317.168 210.389 L
317.285 210.046 L
317.539 209.703 L
317.691 209.36 L
318.142 209.017 L
318.28 208.674 L
318.613 208.331 L
318.613 207.988 L
318.638 207.645 L
318.731 207.302 L
318.768 206.959 L
318.786 206.616 L
318.856 206.273 L
318.953 205.93 L
319.106 205.587 L
319.16 205.244 L
319.258 204.901 L
319.352 204.558 L
319.385 204.215 L
319.401 203.872 L
319.619 203.529 L
319.62 203.186 L
319.764 202.843 L
319.929 202.5 L
319.955 202.157 L
320.054 201.814 L
320.086 201.471 L
320.089 201.128 L
320.259 200.785 L
320.31 200.442 L
320.31 200.099 L
320.349 199.756 L
320.593 199.413 L
320.596 199.07 L
320.662 198.727 L
320.777 198.384 L
320.911 198.041 L
320.964 197.698 L
321.054 197.355 L
321.12 197.012 L
321.451 196.669 L
321.523 196.326 L
321.69 195.983 L
321.703 195.64 L
321.812 195.297 L
321.813 194.954 L
321.895 194.611 L
322.043 194.268 L
322.211 193.925 L
322.382 193.582 L
322.451 193.239 L
322.461 192.896 L
322.492 192.553 L
322.502 192.21 L
322.521 191.867 L
322.641 191.524 L
322.763 191.181 L
323.214 190.838 L
323.356 190.495 L
323.485 190.152 L
323.611 189.809 L
323.763 189.466 L
323.764 189.123 L
323.883 188.78 L
323.889 188.437 L
323.913 188.094 L
324.259 187.751 L
324.338 187.408 L
324.375 187.065 L
324.411 186.722 L
324.467 186.379 L
324.555 186.036 L
324.63 185.693 L
324.67 185.35 L
324.76 185.007 L
324.822 184.664 L
325.236 184.321 L
325.375 183.978 L
325.442 183.635 L
325.464 183.292 L
325.476 182.949 L
325.674 182.606 L
325.779 182.263 L
325.801 181.92 L
325.884 181.577 L
325.908 181.234 L
325.942 180.891 L
325.984 180.548 L
326.077 180.205 L
326.274 179.862 L
326.409 179.519 L
326.424 179.176 L
326.427 178.833 L
326.603 178.49 L
326.637 178.147 L
326.65 177.804 L
326.692 177.461 L
326.832 177.118 L
327.036 176.775 L
327.086 176.432 L
327.16 176.089 L
327.162 175.746 L
327.217 175.403 L
327.362 175.06 L
327.367 174.717 L
327.519 174.374 L
327.537 174.031 L
327.612 173.688 L
327.792 173.345 L
327.909 173.002 L
328.164 172.659 L
328.274 172.316 L
328.296 171.973 L
328.351 171.63 L
328.517 171.287 L
328.545 170.944 L
328.564 170.601 L
329.09 170.258 L
329.277 169.915 L
329.522 169.572 L
329.741 169.229 L
329.793 168.886 L
330.209 168.543 L
330.267 168.2 L
330.447 167.857 L
330.66 167.514 L
330.723 167.171 L
330.791 166.828 L
330.833 166.485 L
331.037 166.142 L
331.118 165.799 L
331.133 165.456 L
331.4 165.113 L
331.418 164.77 L
331.551 164.427 L
331.658 164.084 L
331.82 163.741 L
331.858 163.398 L
331.896 163.055 L
332.021 162.712 L
332.215 162.369 L
332.287 162.026 L
332.449 161.683 L
332.501 161.34 L
332.516 160.997 L
332.613 160.654 L
332.783 160.311 L
332.868 159.968 L
332.923 159.625 L
333.101 159.282 L
333.156 158.939 L
333.18 158.596 L
333.297 158.253 L
333.509 157.91 L
333.924 157.567 L
333.959 157.224 L
334.166 156.881 L
334.215 156.538 L
334.36 156.195 L
334.423 155.852 L
334.703 155.509 L
334.718 155.166 L
334.832 154.823 L
334.923 154.48 L
335.095 154.137 L
335.104 153.794 L
335.199 153.451 L
335.275 153.108 L
335.786 152.765 L
335.822 152.422 L
336.182 152.079 L
336.33 151.736 L
336.497 151.393 L
336.625 151.05 L
336.68 150.707 L
336.805 150.364 L
337.013 150.021 L
337.029 149.678 L
337.468 149.335 L
337.579 148.992 L
337.688 148.649 L
337.729 148.306 L
337.761 147.963 L
337.891 147.62 L
338.132 147.277 L
338.211 146.934 L
338.483 146.591 L
338.661 146.248 L
338.81 145.905 L
338.92 145.562 L
339.025 145.219 L
339.094 144.876 L
339.179 144.533 L
339.275 144.19 L
339.335 143.847 L
339.369 143.504 L
339.396 143.161 L
339.882 142.818 L
340.173 142.475 L
340.261 142.132 L
340.606 141.789 L
340.623 141.446 L
340.635 141.103 L
340.749 140.76 L
340.761 140.417 L
340.845 140.074 L
341.048 139.731 L
341.052 139.388 L
341.371 139.045 L
341.517 138.702 L
341.626 138.359 L
341.73 138.016 L
341.786 137.673 L
341.806 137.33 L
342.006 136.987 L
342.021 136.644 L
342.117 136.301 L
342.221 135.958 L
342.31 135.615 L
342.673 135.272 L
343.007 134.929 L
343.017 134.586 L
343.103 134.243 L
343.212 133.9 L
343.244 133.557 L
343.341 133.214 L
343.755 132.871 L
343.873 132.528 L
344.638 132.185 L
345.181 131.842 L
345.256 131.499 L
345.523 131.156 L
345.534 130.813 L
345.557 130.47 L
345.586 130.127 L
345.595 129.784 L
345.653 129.441 L
345.708 129.098 L
345.784 128.755 L
346.036 128.412 L
346.12 128.069 L
346.451 127.726 L
346.573 127.383 L
346.848 127.04 L
346.93 126.697 L
347.168 126.354 L
347.463 126.011 L
347.478 125.668 L
347.573 125.325 L
347.753 124.982 L
347.758 124.639 L
348.428 124.296 L
348.495 123.953 L
348.562 123.61 L
348.862 123.267 L
348.944 122.924 L
349.096 122.581 L
349.156 122.238 L
349.169 121.895 L
349.172 121.552 L
349.291 121.209 L
349.326 120.866 L
349.439 120.523 L
349.537 120.18 L
349.686 119.837 L
349.693 119.494 L
349.748 119.151 L
349.75 118.808 L
349.818 118.465 L
349.899 118.122 L
349.932 117.779 L
350.015 117.436 L
350.133 117.093 L
350.232 116.75 L
350.482 116.407 L
350.49 116.064 L
350.917 115.721 L
351.138 115.378 L
351.162 115.035 L
351.461 114.692 L
351.477 114.349 L
351.664 114.006 L
351.75 113.663 L
352.219 113.32 L
352.23 112.977 L
352.334 112.634 L
352.375 112.291 L
352.544 111.948 L
352.752 111.605 L
352.811 111.262 L
352.865 110.919 L
353.113 110.576 L
353.227 110.233 L
353.33 109.89 L
353.417 109.547 L
353.561 109.204 L
353.645 108.861 L
353.708 108.518 L
353.72 108.175 L
353.817 107.832 L
354.254 107.489 L
354.305 107.146 L
354.963 106.803 L
355.605 106.46 L
355.627 106.117 L
355.659 105.774 L
355.749 105.431 L
355.804 105.088 L
356.301 104.745 L
356.585 104.402 L
356.66 104.059 L
357.126 103.716 L
357.183 103.373 L
357.194 103.03 L
357.362 102.687 L
357.465 102.344 L
357.833 102.001 L
357.919 101.658 L
358.383 101.315 L
358.388 100.972 L
359.028 100.629 L
359.299 100.286 L
359.385 99.943 L
359.518 99.6 L
359.534 99.257 L
359.637 98.914 L
360.232 98.571 L
360.377 98.228 L
360.398 97.885 L
360.443 97.542 L
360.869 97.199 L
361.063 96.856 L
361.138 96.513 L
361.297 96.17 L
361.426 95.827 L
361.593 95.484 L
361.695 95.141 L
361.747 94.798 L
362.033 94.455 L
362.587 94.112 L
362.74 93.769 L
362.8 93.426 L
362.85 93.083 L
363.036 92.74 L
363.24 92.397 L
363.319 92.054 L
363.578 91.711 L
364.227 91.368 L
364.333 91.025 L
364.373 90.682 L
364.393 90.339 L
364.428 89.996 L
364.468 89.653 L
364.806 89.31 L
364.983 88.967 L
365.105 88.624 L
365.113 88.281 L
365.237 87.938 L
365.403 87.595 L
365.589 87.252 L
365.716 86.909 L
365.735 86.566 L
365.922 86.223 L
365.963 85.88 L
366.238 85.537 L
366.279 85.194 L
366.404 84.851 L
366.614 84.508 L
366.623 84.165 L
366.638 83.822 L
366.818 83.479 L
367.232 83.136 L
367.41 82.793 L
367.477 82.45 L
367.535 82.107 L
367.849 81.764 L
367.977 81.421 L
367.994 81.078 L
368.129 80.735 L
368.243 80.392 L
368.368 80.049 L
368.488 79.706 L
368.679 79.363 L
368.788 79.02 L
368.854 78.677 L
368.923 78.334 L
369.009 77.991 L
369.361 77.648 L
369.37 77.305 L
369.396 76.962 L
369.704 76.619 L
369.85 76.276 L
369.854 75.933 L
369.873 75.59 L
370.322 75.247 L
370.464 74.904 L
370.589 74.561 L
371.238 74.218 L
371.37 73.875 L
371.379 73.532 L
371.418 73.189 L
371.484 72.846 L
371.49 72.503 L
371.591 72.16 L
371.744 71.817 L
371.903 71.474 L
371.974 71.131 L
372.115 70.788 L
372.561 70.445 L
372.619 70.102 L
372.622 69.759 L
372.92 69.416 L
372.936 69.073 L
373.046 68.73 L
373.327 68.387 L
373.381 68.044 L
373.71 67.701 L
373.786 67.358 L
374.215 67.015 L
374.489 66.672 L
374.491 66.329 L
374.667 65.986 L
375.447 65.643 L
375.483 65.3 L
376.042 64.957 L
376.2 64.614 L
376.286 64.271 L
376.323 63.928 L
376.444 63.585 L
376.581 63.242 L
376.966 62.899 L
377.168 62.556 L
379.5 62.213 L
379.842 61.87 L
379.953 61.527 L
380.355 61.184 L
380.61 60.841 L
380.679 60.498 L
381.051 60.155 L
381.672 59.812 L
381.71 59.469 L
381.864 59.126 L
381.865 58.783 L
381.92 58.44 L
382.452 58.097 L
382.888 57.754 L
383.165 57.411 L
383.563 57.068 L
383.623 56.725 L
384.187 56.382 L
384.424 56.039 L
384.444 55.696 L
385.155 55.353 L
385.46 55.01 L
385.618 54.667 L
385.719 54.324 L
386.355 53.981 L
386.408 53.638 L
387.215 53.295 L
387.734 52.952 L
387.834 52.609 L
388.851 52.266 L
388.937 51.923 L
389.135 51.58 L
389.193 51.237 L
389.438 50.894 L
390.244 50.551 L
390.318 50.208 L
390.416 49.865 L
390.444 49.522 L
390.478 49.179 L
391.122 48.836 L
391.467 48.493 L
391.76 48.15 L
391.762 47.807 L
392.143 47.464 L
392.978 47.121 L
393.689 46.778 L
393.801 46.435 L
393.947 46.092 L
394.831 45.749 L
394.862 45.406 L
395.976 45.063 L
396.404 44.72 L
397.145 44.377 L
397.19 44.034 L
397.937 43.691 L
398.759 43.348 L
399.678 43.005 L
399.72 42.662 L
400.237 42.319 L
401.53 41.976 L
401.631 41.633 L
401.891 41.29 L
402.168 40.947 L
402.446 40.604 L
403.014 40.261 L
403.162 39.918 L
404.07 39.575 L
405.118 39.232 L
405.292 38.889 L
405.707 38.546 L
406.26 38.203 L
407.026 37.86 L
407.219 37.517 L
407.274 37.174 L
407.85 36.831 L
407.867 36.488 L
409.123 36.145 L
411.029 35.802 L
412.243 35.459 L
412.469 35.116 L
414.151 34.773 L
416.271 34.43 L
416.438 34.087 L
418.628 33.744 L
421.176 33.401 L
422.982 33.058 L
423.34 32.715 L
425.409 32.372 L
430.246 32.029 L
443.809 31.686 L
449.331 31.343 L
454.592 31 L
S
GR
GS
[0.75 0 0 0.75 0 0] CT
1 1 0 RC
1 LJ
2.667 LW
N
321 374 M
321 31 L
S
GR
GS
[0.75 0 0 0.75 0 0] CT
1 0 0 RC
1 LJ
2.667 LW
N
227.139 374 M
227.139 31 L
S
GR
GS
[0.75 0 0 0.75 0 0] CT
1 0 0 RC
1 LJ
2.667 LW
N
404.594 374 M
404.594 31 L
S
GR
GS
[0.75 0 0 0.75 0 0] CT
0 0 1 RC
1 LJ
2.667 LW
N
73 374 M
73 31 L
S
GR
%%Trailer
%%Pages: 1
%%EOF
